{
  "command" : "vpn-check-tunnels-novsx",
  "metrics" : [ {
    "tags" : {
      "always-on" : "false",
      "display-name" : "VPN Tunnels",
      "im.dstype" : "gauge",
      "im.dstype.displaytype" : "state",
      "im.identity-tags" : "name",
      "im.metric-type" : "ts",
      "im.name" : "vpn-tunnel-state",
      "im.step" : "300",
      "live-config" : "true",
      "name" : "mesh-perm-matrix",
      "peerip" : "1.1.1.3",
      "remote-peer-name" : "fake3"
    },
    "value" : "1.0"
  }, {
    "tags" : {
      "always-on" : "false",
      "display-name" : "VPN Tunnels",
      "im.dstype" : "gauge",
      "im.dstype.displaytype" : "state",
      "im.identity-tags" : "name",
      "im.metric-type" : "ts",
      "im.name" : "vpn-tunnel-state",
      "im.step" : "300",
      "live-config" : "true",
      "name" : "star-perm-matrix",
      "peerip" : "1.1.1.10",
      "remote-peer-name" : "fake10"
    },
    "value" : "0.0"
  }, {
    "tags" : {
      "always-on" : "false",
      "display-name" : "VPN Tunnels",
      "im.dstype" : "gauge",
      "im.dstype.displaytype" : "state",
      "im.identity-tags" : "name",
      "im.metric-type" : "ts",
      "im.name" : "vpn-tunnel-state",
      "im.step" : "300",
      "live-config" : "true",
      "name" : "star-perm-matrix",
      "peerip" : "1.1.1.11",
      "remote-peer-name" : "fake11"
    },
    "value" : "0.0"
  }, {
    "tags" : {
      "always-on" : "true",
      "display-name" : "VPN Tunnels",
      "im.dstype" : "gauge",
      "im.dstype.displaytype" : "state",
      "im.identity-tags" : "name",
      "im.metric-type" : "ts",
      "im.name" : "vpn-tunnel-state",
      "im.step" : "300",
      "live-config" : "true",
      "name" : "mesh-perm-community",
      "peerip" : "1.1.1.1",
      "remote-peer-name" : "fake1"
    },
    "value" : "1.0"
  }, {
    "tags" : {
      "always-on" : "true",
      "display-name" : "VPN Tunnels",
      "im.dstype" : "gauge",
      "im.dstype.displaytype" : "state",
      "im.identity-tags" : "name",
      "im.metric-type" : "ts",
      "im.name" : "vpn-tunnel-state",
      "im.step" : "300",
      "live-config" : "true",
      "name" : "mesh-perm-community",
      "peerip" : "1.1.1.2",
      "remote-peer-name" : "fake2"
    },
    "value" : "1.0"
  }, {
    "tags" : {
      "always-on" : "true",
      "display-name" : "VPN Tunnels",
      "im.dstype" : "gauge",
      "im.dstype.displaytype" : "state",
      "im.identity-tags" : "name",
      "im.metric-type" : "ts",
      "im.name" : "vpn-tunnel-state",
      "im.step" : "300",
      "live-config" : "true",
      "name" : "mesh-perm-matrix",
      "peerip" : "1.1.1.4",
      "remote-peer-name" : "fake4"
    },
    "value" : "1.0"
  }, {
    "tags" : {
      "always-on" : "true",
      "display-name" : "VPN Tunnels",
      "im.dstype" : "gauge",
      "im.dstype.displaytype" : "state",
      "im.identity-tags" : "name",
      "im.metric-type" : "ts",
      "im.name" : "vpn-tunnel-state",
      "im.step" : "300",
      "live-config" : "true",
      "name" : "mesh-perm-pergateway",
      "peerip" : "1.1.1.5",
      "remote-peer-name" : "fake5"
    },
    "value" : "0.0"
  }, {
    "tags" : {
      "always-on" : "true",
      "display-name" : "VPN Tunnels",
      "im.dstype" : "gauge",
      "im.dstype.displaytype" : "state",
      "im.identity-tags" : "name",
      "im.metric-type" : "ts",
      "im.name" : "vpn-tunnel-state",
      "im.step" : "300",
      "live-config" : "true",
      "name" : "mesh-perm-pergateway",
      "peerip" : "1.1.1.6",
      "remote-peer-name" : "fake6"
    },
    "value" : "0.0"
  }, {
    "tags" : {
      "always-on" : "true",
      "display-name" : "VPN Tunnels",
      "im.dstype" : "gauge",
      "im.dstype.displaytype" : "state",
      "im.identity-tags" : "name",
      "im.metric-type" : "ts",
      "im.name" : "vpn-tunnel-state",
      "im.step" : "300",
      "live-config" : "true",
      "name" : "star-perm-community",
      "peerip" : "1.1.1.8",
      "remote-peer-name" : "fake8"
    },
    "value" : "0.0"
  }, {
    "tags" : {
      "always-on" : "true",
      "display-name" : "VPN Tunnels",
      "im.dstype" : "gauge",
      "im.dstype.displaytype" : "state",
      "im.identity-tags" : "name",
      "im.metric-type" : "ts",
      "im.name" : "vpn-tunnel-state",
      "im.step" : "300",
      "live-config" : "true",
      "name" : "star-perm-pergateway",
      "peerip" : "1.1.1.13",
      "remote-peer-name" : "fake13"
    },
    "value" : "0.0"
  } ]
}
