{
  "command" : "f5-rest-mgmt-tm-ltm-profile-http-compression",
  "metrics" : [ {
    "tags" : {
      "im.dstype.displaytype" : "boolean",
      "im.name" : "f5-high-compression-profile-high-gzip-level",
      "name" : "/Common/compression-level-1"
    },
    "value" : {
      "value" : "1"
    }
  }, {
    "tags" : {
      "im.dstype.displaytype" : "boolean",
      "im.name" : "f5-high-compression-profile-high-gzip-level",
      "name" : "/Common/compression-level-6"
    },
    "value" : {
      "value" : "6"
    }
  }, {
    "tags" : {
      "im.dstype.displaytype" : "boolean",
      "im.name" : "f5-high-compression-profile-high-gzip-level",
      "name" : "/Common/compression-level-9"
    },
    "value" : {
      "value" : "9"
    }
  }, {
    "tags" : {
      "im.dstype.displaytype" : "boolean",
      "im.name" : "f5-high-compression-profile-high-gzip-level",
      "name" : "/Common/httpcompression"
    },
    "value" : {
      "value" : "1"
    }
  }, {
    "tags" : {
      "im.dstype.displaytype" : "boolean",
      "im.name" : "f5-high-compression-profile-high-gzip-level",
      "name" : "/Common/wan-optimized-compression"
    },
    "value" : {
      "value" : "1"
    }
  } ]
}
