{
  "command" : "panos-show-system-files",
  "metrics" : [ {
    "tags" : {
      "im.metric-type" : "runtime",
      "im.name" : "core-dumps"
    },
    "value" : [ {
      "created" : "1433401200",
      "path" : "/var/cores/dha_6.1.2_0.tar.gz"
    }, {
      "created" : "1476601200",
      "path" : "/var/cores/logrcvr_6.1.2_0.tar.gz"
    }, {
      "path" : "/var/cores/crashinfo/dha_6.1.2_0.info",
      "created" : "1433401200"
    }, {
      "created" : "1476601200",
      "path" : "/var/cores/crashinfo/logrcvr_6.1.2_0.info"
    } ]
  } ]
}
