{
  "command" : "panos-show-mac-all",
  "metrics" : [ {
    "tags" : {
      "display-name" : "MAC Cache - Limit",
      "im.dstype.displaytype" : "number",
      "im.name" : "mac-limit",
      "live-config" : "true"
    },
    "value" : "2500.0"
  }, {
    "tags" : {
      "display-name" : "MAC Cache - Current Entries",
      "im.dstype.displaytype" : "number",
      "im.name" : "mac-total-entries",
      "live-config" : "true"
    },
    "values" : ["2300.0", "2351", "2377", "2401"]
  } ]
}
