{
  "command" : "panos-show-running-global-ippool",
  "metrics" : [ {
    "tags" : {
      "display-name" : "Memory Usage",
      "im.dstype" : "gauge",
      "im.dstype.displaytype" : "percentage",
      "im.identity-tags" : "name",
      "im.metric-type" : "ts",
      "im.name" : "memory-usage",
      "im.step" : "600",
      "live-config" : "true",
      "name" : "Dynamic IP NAT Pool"
    },
    "value" : "0.0"
  }, {
    "tags" : {
      "display-name" : "Memory Usage",
      "im.dstype" : "gauge",
      "im.dstype.displaytype" : "percentage",
      "im.identity-tags" : "name",
      "im.metric-type" : "ts",
      "im.name" : "memory-usage",
      "im.step" : "600",
      "live-config" : "true",
      "name" : "Dynamic IP/Port NAT Pool"
    },
    "value" : "0.0"
  }, {
    "tags" : {
      "display-name" : "Memory Usage",
      "im.dstype" : "gauge",
      "im.dstype.displaytype" : "percentage",
      "im.identity-tags" : "name",
      "im.metric-type" : "ts",
      "im.name" : "memory-usage",
      "im.step" : "600",
      "live-config" : "true",
      "name" : "Used NAT DIP/DIPP shared memory size"
    },
    "value" : "91.0"
  } ]
}
