{
  "command" : "panos-show-system-setting-ssl-decrypt-certificate",
  "metrics" : [ {
    "tags" : {
      "display-name" : "Certificate Expiration",
      "im.dstype" : "gauge",
      "im.dstype.displaytype" : "date",
      "im.identity-tags" : "name",
      "im.metric-type" : "ts",
      "im.name" : "certificate-expiration",
      "im.step" : "300",
      "live-config" : "true",
      "name" : "office-pa200"
    },
    "value" : "1483862396"
  } ]
}
