{
  "command" : "panos-show-system-raid-detail",
  "metrics" : [ {
    "tags" : {
      "display-name" : "Hardware Elements State",
      "im.dstype.displaytype" : "state",
      "im.identity-tags" : "name",
      "im.name" : "hardware-element-status",
      "live-config" : "true",
      "name" : "Partition: maint"
    },
    "value" : "0.0"
  }, {
    "tags" : {
      "display-name" : "Hardware Elements State",
      "im.dstype.displaytype" : "state",
      "im.identity-tags" : "name",
      "im.name" : "hardware-element-status",
      "live-config" : "true",
      "name" : "Partition: pancfg"
    },
    "value" : "0.0"
  }, {
    "tags" : {
      "display-name" : "Hardware Elements State",
      "im.dstype.displaytype" : "state",
      "im.identity-tags" : "name",
      "im.name" : "hardware-element-status",
      "live-config" : "true",
      "name" : "Partition: panlogs"
    },
    "value" : "0.0"
  }, {
    "tags" : {
      "display-name" : "Hardware Elements State",
      "im.dstype.displaytype" : "state",
      "im.identity-tags" : "name",
      "im.name" : "hardware-element-status",
      "live-config" : "true",
      "name" : "Partition: panrepo"
    },
    "value" : "0.0"
  }, {
    "tags" : {
      "display-name" : "Hardware Elements State",
      "im.dstype.displaytype" : "state",
      "im.identity-tags" : "name",
      "im.name" : "hardware-element-status",
      "live-config" : "true",
      "name" : "Partition: swap"
    },
    "value" : "0.0"
  }, {
    "tags" : {
      "display-name" : "Hardware Elements State",
      "im.dstype.displaytype" : "state",
      "im.identity-tags" : "name",
      "im.name" : "hardware-element-status",
      "live-config" : "true",
      "name" : "Partition: sysroot0"
    },
    "value" : "0.0"
  }, {
    "tags" : {
      "display-name" : "Hardware Elements State",
      "im.dstype.displaytype" : "state",
      "im.identity-tags" : "name",
      "im.name" : "hardware-element-status",
      "live-config" : "true",
      "name" : "Partition: sysroot1"
    },
    "value" : "0.0"
  }, {
    "tags" : {
      "display-name" : "Hardware Elements State",
      "im.dstype.displaytype" : "state",
      "im.identity-tags" : "name",
      "im.name" : "hardware-element-status",
      "live-config" : "true",
      "name" : "disk_id_1"
    },
    "value" : "1.0"
  }, {
    "tags" : {
      "display-name" : "Hardware Elements State",
      "im.dstype.displaytype" : "state",
      "im.identity-tags" : "name",
      "im.name" : "hardware-element-status",
      "live-config" : "true",
      "name" : "disk_id_2"
    },
    "value" : "0.0"
  } ]
}
