{
  "command" : "f5-rest-net-interface-stats",
  "metrics" : [ {
    "tags" : {
      "im.dstype.displaytype" : "state",
      "im.name" : "network-interface-admin-state",
      "name" : "1.0"
    },
    "value" : "1.0"
  }, {
    "tags" : {
      "im.dstype" : "counter",
      "im.dstype.displaytype" : "bytes",
      "im.name" : "network-interface-rx-bytes",
      "name" : "1.2"
    },
    "value" : "0.0"
  }, {
    "tags" : {
      "im.dstype.displaytype" : "state",
      "im.name" : "network-interface-admin-state",
      "name" : "1.1"
    },
    "value" : "1.0"
  }, {
    "tags" : {
      "im.name" : "network-interface-mac",
      "name" : "1.1"
    },
    "value" : {
      "value" : "f4:15:63:4e:59:04"
    }
  }, {
    "tags" : {
      "im.dstype" : "counter",
      "im.dstype.displaytype" : "bytes",
      "im.name" : "network-interface-rx-bytes",
      "name" : "1.3"
    },
    "value" : "9.61623E9"
  }, {
    "tags" : {
      "im.dstype" : "counter",
      "im.dstype.displaytype" : "bytes",
      "im.name" : "network-interface-rx-bytes",
      "name" : "1.4"
    },
    "value" : "0.0"
  }, {
    "tags" : {
      "im.dstype" : "counter",
      "im.dstype.displaytype" : "bytes",
      "im.name" : "network-interface-rx-bytes",
      "name" : "4.0"
    },
    "value" : "0.0"
  }, {
    "tags" : {
      "im.dstype" : "counter",
      "im.dstype.displaytype" : "bytes",
      "im.name" : "network-interface-rx-bytes",
      "name" : "4.2"
    },
    "value" : "0.0"
  }, {
    "tags" : {
      "im.name" : "network-interface-mac",
      "name" : "1.3"
    },
    "value" : {
      "value" : "f4:15:63:4e:59:06"
    }
  }, {
    "tags" : {
      "im.name" : "network-interface-mac",
      "name" : "2.0"
    },
    "value" : {
      "value" : "f4:15:63:4e:59:08"
    }
  }, {
    "tags" : {
      "im.name" : "network-interface-mac",
      "name" : "2.1"
    },
    "value" : {
      "value" : "f4:15:63:4e:59:09"
    }
  }, {
    "tags" : {
      "im.name" : "network-interface-mac",
      "name" : "2.3"
    },
    "value" : {
      "value" : "f4:15:63:4e:59:0b"
    }
  }, {
    "tags" : {
      "im.name" : "network-interface-mac",
      "name" : "3.0"
    },
    "value" : {
      "value" : "f4:15:63:4e:59:0d"
    }
  }, {
    "tags" : {
      "im.name" : "network-interface-mac",
      "name" : "3.1"
    },
    "value" : {
      "value" : "f4:15:63:4e:59:0e"
    }
  }, {
    "tags" : {
      "im.name" : "network-interface-mac",
      "name" : "4.0"
    },
    "value" : {
      "value" : "f4:15:63:4e:59:12"
    }
  }, {
    "tags" : {
      "im.name" : "network-interface-mac",
      "name" : "4.4"
    },
    "value" : {
      "value" : "f4:15:63:4e:59:16"
    }
  }, {
    "tags" : {
      "im.name" : "network-interface-mac",
      "name" : "5.4"
    },
    "value" : {
      "value" : "f4:15:63:4e:59:1b"
    }
  }, {
    "tags" : {
      "im.name" : "network-interface-mtu",
      "name" : "1.3"
    },
    "value" : {
      "value" : "9198"
    }
  }, {
    "tags" : {
      "im.name" : "network-interface-mtu",
      "name" : "2.0"
    },
    "value" : {
      "value" : "9198"
    }
  }, {
    "tags" : {
      "im.name" : "network-interface-mtu",
      "name" : "2.2"
    },
    "value" : {
      "value" : "9198"
    }
  }, {
    "tags" : {
      "im.name" : "network-interface-mtu",
      "name" : "3.0"
    },
    "value" : {
      "value" : "9198"
    }
  }, {
    "tags" : {
      "im.name" : "network-interface-mtu",
      "name" : "3.2"
    },
    "value" : {
      "value" : "9198"
    }
  }, {
    "tags" : {
      "im.name" : "network-interface-mtu",
      "name" : "4.2"
    },
    "value" : {
      "value" : "9198"
    }
  }, {
    "tags" : {
      "im.name" : "network-interface-mtu",
      "name" : "4.3"
    },
    "value" : {
      "value" : "9198"
    }
  }, {
    "tags" : {
      "im.name" : "network-interface-mtu",
      "name" : "5.0"
    },
    "value" : {
      "value" : "9198"
    }
  }, {
    "tags" : {
      "im.name" : "network-interface-mtu",
      "name" : "5.3"
    },
    "value" : {
      "value" : "9198"
    }
  }, {
    "tags" : {
      "im.name" : "network-interface-mtu",
      "name" : "6.0"
    },
    "value" : {
      "value" : "9198"
    }
  }, {
    "tags" : {
      "im.name" : "network-interface-mtu",
      "name" : "6.2"
    },
    "value" : {
      "value" : "9198"
    }
  }, {
    "tags" : {
      "im.dstype" : "counter",
      "im.dstype.displaytype" : "bytes",
      "im.name" : "network-interface-rx-bytes",
      "name" : "2.3"
    },
    "value" : "0.0"
  }, {
    "tags" : {
      "im.dstype" : "counter",
      "im.dstype.displaytype" : "bytes",
      "im.name" : "network-interface-rx-bytes",
      "name" : "3.3"
    },
    "value" : "0.0"
  }, {
    "tags" : {
      "im.dstype" : "counter",
      "im.dstype.displaytype" : "bytes",
      "im.name" : "network-interface-rx-bytes",
      "name" : "5.1"
    },
    "value" : "0.0"
  }, {
    "tags" : {
      "im.dstype" : "counter",
      "im.dstype.displaytype" : "bytes",
      "im.name" : "network-interface-rx-bytes",
      "name" : "5.3"
    },
    "value" : "0.0"
  }, {
    "tags" : {
      "im.dstype" : "counter",
      "im.dstype.displaytype" : "bytes",
      "im.name" : "network-interface-rx-bytes",
      "name" : "6.0"
    },
    "value" : "0.0"
  }, {
    "tags" : {
      "im.dstype" : "counter",
      "im.dstype.displaytype" : "bytes",
      "im.name" : "network-interface-rx-bytes",
      "name" : "6.2"
    },
    "value" : "0.0"
  }, {
    "tags" : {
      "im.dstype" : "counter",
      "im.dstype.displaytype" : "bytes",
      "im.name" : "network-interface-rx-bytes",
      "name" : "6.4"
    },
    "value" : "0.0"
  }, {
    "tags" : {
      "im.dstype" : "counter",
      "im.dstype.displaytype" : "number",
      "im.name" : "network-interface-rx-drops",
      "name" : "1.0"
    },
    "value" : "0.0"
  }, {
    "tags" : {
      "im.dstype" : "counter",
      "im.dstype.displaytype" : "number",
      "im.name" : "network-interface-rx-drops",
      "name" : "1.3"
    },
    "value" : "0.0"
  }, {
    "tags" : {
      "im.dstype" : "counter",
      "im.dstype.displaytype" : "bytes",
      "im.name" : "network-interface-tx-bytes",
      "name" : "1.1"
    },
    "value" : "2.57588E13"
  }, {
    "tags" : {
      "im.dstype" : "counter",
      "im.dstype.displaytype" : "bytes",
      "im.name" : "network-interface-tx-bytes",
      "name" : "2.0"
    },
    "value" : "0.0"
  }, {
    "tags" : {
      "im.dstype" : "counter",
      "im.dstype.displaytype" : "bytes",
      "im.name" : "network-interface-tx-bytes",
      "name" : "3.1"
    },
    "value" : "0.0"
  }, {
    "tags" : {
      "im.dstype" : "counter",
      "im.dstype.displaytype" : "bytes",
      "im.name" : "network-interface-tx-bytes",
      "name" : "3.3"
    },
    "value" : "0.0"
  }, {
    "tags" : {
      "im.dstype" : "counter",
      "im.dstype.displaytype" : "bytes",
      "im.name" : "network-interface-tx-bytes",
      "name" : "4.2"
    },
    "value" : "0.0"
  }, {
    "tags" : {
      "im.dstype" : "counter",
      "im.dstype.displaytype" : "bytes",
      "im.name" : "network-interface-tx-bytes",
      "name" : "4.3"
    },
    "value" : "0.0"
  }, {
    "tags" : {
      "im.dstype" : "counter",
      "im.dstype.displaytype" : "bytes",
      "im.name" : "network-interface-tx-bytes",
      "name" : "4.4"
    },
    "value" : "0.0"
  }, {
    "tags" : {
      "im.dstype" : "counter",
      "im.dstype.displaytype" : "bytes",
      "im.name" : "network-interface-tx-bytes",
      "name" : "5.2"
    },
    "value" : "0.0"
  }, {
    "tags" : {
      "im.dstype" : "counter",
      "im.dstype.displaytype" : "bytes",
      "im.name" : "network-interface-tx-bytes",
      "name" : "6.0"
    },
    "value" : "0.0"
  }, {
    "tags" : {
      "im.dstype" : "counter",
      "im.dstype.displaytype" : "bytes",
      "im.name" : "network-interface-tx-bytes",
      "name" : "6.2"
    },
    "value" : "0.0"
  }, {
    "tags" : {
      "im.dstype" : "counter",
      "im.dstype.displaytype" : "bytes",
      "im.name" : "network-interface-tx-bytes",
      "name" : "6.3"
    },
    "value" : "0.0"
  }, {
    "tags" : {
      "im.name" : "network-interface-mac",
      "name" : "4.1"
    },
    "value" : {
      "value" : "f4:15:63:4e:59:13"
    }
  }, {
    "tags" : {
      "im.name" : "network-interface-mac",
      "name" : "5.0"
    },
    "value" : {
      "value" : "f4:15:63:4e:59:17"
    }
  }, {
    "tags" : {
      "im.name" : "network-interface-mac",
      "name" : "5.2"
    },
    "value" : {
      "value" : "f4:15:63:4e:59:19"
    }
  }, {
    "tags" : {
      "im.name" : "network-interface-mtu",
      "name" : "5.1"
    },
    "value" : {
      "value" : "9198"
    }
  }, {
    "tags" : {
      "im.name" : "network-interface-mtu",
      "name" : "6.1"
    },
    "value" : {
      "value" : "9198"
    }
  }, {
    "tags" : {
      "im.dstype" : "counter",
      "im.dstype.displaytype" : "bytes",
      "im.name" : "network-interface-rx-bytes",
      "name" : "3.2"
    },
    "value" : "0.0"
  }, {
    "tags" : {
      "im.dstype" : "counter",
      "im.dstype.displaytype" : "number",
      "im.name" : "network-interface-rx-drops",
      "name" : "1.2"
    },
    "value" : "0.0"
  }, {
    "tags" : {
      "im.dstype" : "counter",
      "im.dstype.displaytype" : "number",
      "im.name" : "network-interface-rx-drops",
      "name" : "2.0"
    },
    "value" : "0.0"
  }, {
    "tags" : {
      "im.dstype" : "counter",
      "im.dstype.displaytype" : "number",
      "im.name" : "network-interface-rx-drops",
      "name" : "2.1"
    },
    "value" : "5932.0"
  }, {
    "tags" : {
      "im.dstype" : "counter",
      "im.dstype.displaytype" : "number",
      "im.name" : "network-interface-rx-drops",
      "name" : "2.3"
    },
    "value" : "0.0"
  }, {
    "tags" : {
      "im.name" : "network-interface-mac",
      "name" : "3.3"
    },
    "value" : {
      "value" : "f4:15:63:4e:59:10"
    }
  }, {
    "tags" : {
      "im.name" : "network-interface-mtu",
      "name" : "4.0"
    },
    "value" : {
      "value" : "9198"
    }
  }, {
    "tags" : {
      "im.dstype" : "counter",
      "im.dstype.displaytype" : "bytes",
      "im.name" : "network-interface-rx-bytes",
      "name" : "2.4"
    },
    "value" : "0.0"
  }, {
    "tags" : {
      "im.dstype" : "counter",
      "im.dstype.displaytype" : "bytes",
      "im.name" : "network-interface-rx-bytes",
      "name" : "4.3"
    },
    "value" : "0.0"
  }, {
    "tags" : {
      "im.dstype.displaytype" : "state",
      "im.name" : "network-interface-admin-state",
      "name" : "2.2"
    },
    "value" : "1.0"
  }, {
    "tags" : {
      "im.dstype.displaytype" : "state",
      "im.name" : "network-interface-admin-state",
      "name" : "2.3"
    },
    "value" : "1.0"
  }, {
    "tags" : {
      "im.dstype.displaytype" : "state",
      "im.name" : "network-interface-admin-state",
      "name" : "2.4"
    },
    "value" : "1.0"
  }, {
    "tags" : {
      "im.dstype.displaytype" : "state",
      "im.name" : "network-interface-admin-state",
      "name" : "3.0"
    },
    "value" : "1.0"
  }, {
    "tags" : {
      "im.dstype.displaytype" : "state",
      "im.name" : "network-interface-admin-state",
      "name" : "3.1"
    },
    "value" : "1.0"
  }, {
    "tags" : {
      "im.dstype.displaytype" : "state",
      "im.name" : "network-interface-admin-state",
      "name" : "3.3"
    },
    "value" : "1.0"
  }, {
    "tags" : {
      "im.dstype.displaytype" : "state",
      "im.name" : "network-interface-admin-state",
      "name" : "4.0"
    },
    "value" : "1.0"
  }, {
    "tags" : {
      "im.dstype.displaytype" : "state",
      "im.name" : "network-interface-admin-state",
      "name" : "4.4"
    },
    "value" : "1.0"
  }, {
    "tags" : {
      "im.dstype.displaytype" : "state",
      "im.name" : "network-interface-admin-state",
      "name" : "5.1"
    },
    "value" : "1.0"
  }, {
    "tags" : {
      "im.dstype.displaytype" : "state",
      "im.name" : "network-interface-admin-state",
      "name" : "5.4"
    },
    "value" : "1.0"
  }, {
    "tags" : {
      "im.dstype.displaytype" : "state",
      "im.name" : "network-interface-admin-state",
      "name" : "6.0"
    },
    "value" : "1.0"
  }, {
    "tags" : {
      "im.dstype.displaytype" : "state",
      "im.name" : "network-interface-admin-state",
      "name" : "mgmt"
    },
    "value" : "1.0"
  }, {
    "tags" : {
      "im.dstype.displaytype" : "state",
      "im.name" : "network-interface-state",
      "name" : "1.1"
    },
    "value" : "1.0"
  }, {
    "tags" : {
      "im.dstype.displaytype" : "state",
      "im.name" : "network-interface-state",
      "name" : "mgmt"
    },
    "value" : "1.0"
  }, {
    "tags" : {
      "im.dstype" : "counter",
      "im.dstype.displaytype" : "bytes",
      "im.name" : "network-interface-rx-bytes",
      "name" : "4.4"
    },
    "value" : "0.0"
  }, {
    "tags" : {
      "im.dstype" : "counter",
      "im.dstype.displaytype" : "bytes",
      "im.name" : "network-interface-tx-bytes",
      "name" : "3.0"
    },
    "value" : "0.0"
  }, {
    "tags" : {
      "im.name" : "network-interface-mac",
      "name" : "2.4"
    },
    "value" : {
      "value" : "f4:15:63:4e:59:0c"
    }
  }, {
    "tags" : {
      "im.name" : "network-interface-mtu",
      "name" : "1.0"
    },
    "value" : {
      "value" : "9198"
    }
  }, {
    "tags" : {
      "im.dstype" : "counter",
      "im.dstype.displaytype" : "bytes",
      "im.name" : "network-interface-tx-bytes",
      "name" : "4.0"
    },
    "value" : "0.0"
  }, {
    "tags" : {
      "im.dstype" : "counter",
      "im.dstype.displaytype" : "bytes",
      "im.name" : "network-interface-tx-bytes",
      "name" : "4.1"
    },
    "value" : "0.0"
  }, {
    "tags" : {
      "im.dstype" : "counter",
      "im.dstype.displaytype" : "bytes",
      "im.name" : "network-interface-tx-bytes",
      "name" : "5.1"
    },
    "value" : "0.0"
  }, {
    "tags" : {
      "im.name" : "network-interface-mac",
      "name" : "6.1"
    },
    "value" : {
      "value" : "f4:15:63:4e:59:1d"
    }
  }, {
    "tags" : {
      "im.dstype.displaytype" : "state",
      "im.name" : "network-interface-admin-state",
      "name" : "2.0"
    },
    "value" : "1.0"
  }, {
    "tags" : {
      "im.dstype" : "counter",
      "im.dstype.displaytype" : "bytes",
      "im.name" : "network-interface-rx-bytes",
      "name" : "5.4"
    },
    "value" : "0.0"
  }, {
    "tags" : {
      "im.dstype" : "counter",
      "im.dstype.displaytype" : "bytes",
      "im.name" : "network-interface-rx-bytes",
      "name" : "6.1"
    },
    "value" : "0.0"
  }, {
    "tags" : {
      "im.dstype" : "counter",
      "im.dstype.displaytype" : "number",
      "im.name" : "network-interface-rx-drops",
      "name" : "3.1"
    },
    "value" : "0.0"
  }, {
    "tags" : {
      "im.dstype" : "counter",
      "im.dstype.displaytype" : "number",
      "im.name" : "network-interface-rx-drops",
      "name" : "3.3"
    },
    "value" : "0.0"
  }, {
    "tags" : {
      "im.dstype" : "counter",
      "im.dstype.displaytype" : "number",
      "im.name" : "network-interface-rx-drops",
      "name" : "3.4"
    },
    "value" : "0.0"
  }, {
    "tags" : {
      "im.dstype" : "counter",
      "im.dstype.displaytype" : "number",
      "im.name" : "network-interface-rx-drops",
      "name" : "4.4"
    },
    "value" : "0.0"
  }, {
    "tags" : {
      "im.dstype" : "counter",
      "im.dstype.displaytype" : "number",
      "im.name" : "network-interface-rx-drops",
      "name" : "5.1"
    },
    "value" : "0.0"
  }, {
    "tags" : {
      "im.dstype" : "counter",
      "im.dstype.displaytype" : "number",
      "im.name" : "network-interface-rx-drops",
      "name" : "5.2"
    },
    "value" : "0.0"
  }, {
    "tags" : {
      "im.dstype" : "counter",
      "im.dstype.displaytype" : "number",
      "im.name" : "network-interface-rx-drops",
      "name" : "5.3"
    },
    "value" : "0.0"
  }, {
    "tags" : {
      "im.dstype" : "counter",
      "im.dstype.displaytype" : "number",
      "im.name" : "network-interface-rx-drops",
      "name" : "6.0"
    },
    "value" : "0.0"
  }, {
    "tags" : {
      "im.dstype" : "counter",
      "im.dstype.displaytype" : "number",
      "im.name" : "network-interface-rx-drops",
      "name" : "6.1"
    },
    "value" : "0.0"
  }, {
    "tags" : {
      "im.name" : "network-interface-mac",
      "name" : "6.0"
    },
    "value" : {
      "value" : "f4:15:63:4e:59:1c"
    }
  }, {
    "tags" : {
      "im.name" : "network-interface-mac",
      "name" : "6.3"
    },
    "value" : {
      "value" : "f4:15:63:4e:59:1f"
    }
  }, {
    "tags" : {
      "im.name" : "network-interface-mac",
      "name" : "mgmt"
    },
    "value" : {
      "value" : "f4:15:63:4e:59:02"
    }
  }, {
    "tags" : {
      "im.name" : "network-interface-mtu",
      "name" : "2.1"
    },
    "value" : {
      "value" : "9198"
    }
  }, {
    "tags" : {
      "im.name" : "network-interface-mtu",
      "name" : "4.1"
    },
    "value" : {
      "value" : "9198"
    }
  }, {
    "tags" : {
      "im.dstype.displaytype" : "state",
      "im.name" : "network-interface-admin-state",
      "name" : "1.4"
    },
    "value" : "0.0"
  }, {
    "tags" : {
      "im.dstype.displaytype" : "state",
      "im.name" : "network-interface-admin-state",
      "name" : "3.4"
    },
    "value" : "1.0"
  }, {
    "tags" : {
      "im.dstype" : "counter",
      "im.dstype.displaytype" : "bytes",
      "im.name" : "network-interface-rx-bytes",
      "name" : "1.0"
    },
    "value" : "0.0"
  }, {
    "tags" : {
      "im.dstype" : "counter",
      "im.dstype.displaytype" : "bytes",
      "im.name" : "network-interface-rx-bytes",
      "name" : "2.1"
    },
    "value" : "8.00554E13"
  }, {
    "tags" : {
      "im.dstype" : "counter",
      "im.dstype.displaytype" : "bytes",
      "im.name" : "network-interface-rx-bytes",
      "name" : "2.2"
    },
    "value" : "8.06416E13"
  }, {
    "tags" : {
      "im.dstype.displaytype" : "state",
      "im.name" : "network-interface-admin-state",
      "name" : "2.1"
    },
    "value" : "1.0"
  }, {
    "tags" : {
      "im.dstype.displaytype" : "state",
      "im.name" : "network-interface-admin-state",
      "name" : "4.1"
    },
    "value" : "1.0"
  }, {
    "tags" : {
      "im.dstype.displaytype" : "state",
      "im.name" : "network-interface-admin-state",
      "name" : "4.2"
    },
    "value" : "1.0"
  }, {
    "tags" : {
      "im.dstype" : "counter",
      "im.dstype.displaytype" : "bytes",
      "im.name" : "network-interface-rx-bytes",
      "name" : "1.1"
    },
    "value" : "5.92986E12"
  }, {
    "tags" : {
      "im.name" : "network-interface-mac",
      "name" : "1.0"
    },
    "value" : {
      "value" : "f4:15:63:4e:59:03"
    }
  }, {
    "tags" : {
      "im.name" : "network-interface-mac",
      "name" : "2.2"
    },
    "value" : {
      "value" : "f4:15:63:4e:59:0a"
    }
  }, {
    "tags" : {
      "im.name" : "network-interface-mac",
      "name" : "4.3"
    },
    "value" : {
      "value" : "f4:15:63:4e:59:15"
    }
  }, {
    "tags" : {
      "im.name" : "network-interface-mac",
      "name" : "5.3"
    },
    "value" : {
      "value" : "f4:15:63:4e:59:1a"
    }
  }, {
    "tags" : {
      "im.name" : "network-interface-speed",
      "name" : "1.1"
    },
    "value" : {
      "value" : "1000M"
    }
  }, {
    "tags" : {
      "im.dstype.displaytype" : "state",
      "im.name" : "network-interface-admin-state",
      "name" : "4.3"
    },
    "value" : "1.0"
  }, {
    "tags" : {
      "im.dstype.displaytype" : "state",
      "im.name" : "network-interface-admin-state",
      "name" : "5.0"
    },
    "value" : "1.0"
  }, {
    "tags" : {
      "im.dstype.displaytype" : "state",
      "im.name" : "network-interface-admin-state",
      "name" : "6.2"
    },
    "value" : "1.0"
  }, {
    "tags" : {
      "im.dstype.displaytype" : "state",
      "im.name" : "network-interface-state",
      "name" : "1.3"
    },
    "value" : "1.0"
  }, {
    "tags" : {
      "im.dstype.displaytype" : "state",
      "im.name" : "network-interface-state",
      "name" : "2.1"
    },
    "value" : "1.0"
  }, {
    "tags" : {
      "im.dstype.displaytype" : "state",
      "im.name" : "network-interface-state",
      "name" : "2.2"
    },
    "value" : "1.0"
  }, {
    "tags" : {
      "im.name" : "network-interface-mac",
      "name" : "6.2"
    },
    "value" : {
      "value" : "f4:15:63:4e:59:1e"
    }
  }, {
    "tags" : {
      "im.name" : "network-interface-mtu",
      "name" : "1.1"
    },
    "value" : {
      "value" : "9198"
    }
  }, {
    "tags" : {
      "im.name" : "network-interface-mtu",
      "name" : "1.4"
    },
    "value" : {
      "value" : "9198"
    }
  }, {
    "tags" : {
      "im.name" : "network-interface-mtu",
      "name" : "3.3"
    },
    "value" : {
      "value" : "9198"
    }
  }, {
    "tags" : {
      "im.name" : "network-interface-mtu",
      "name" : "3.4"
    },
    "value" : {
      "value" : "9198"
    }
  }, {
    "tags" : {
      "im.name" : "network-interface-speed",
      "name" : "2.2"
    },
    "value" : {
      "value" : "10000M"
    }
  }, {
    "tags" : {
      "im.name" : "network-interface-type",
      "name" : "1.1"
    },
    "value" : {
      "value" : "T"
    }
  }, {
    "tags" : {
      "im.name" : "network-interface-type",
      "name" : "1.3"
    },
    "value" : {
      "value" : "T"
    }
  }, {
    "tags" : {
      "im.name" : "network-interface-type",
      "name" : "2.1"
    },
    "value" : {
      "value" : "SR"
    }
  }, {
    "tags" : {
      "im.name" : "network-interface-type",
      "name" : "mgmt"
    },
    "value" : {
      "value" : "T"
    }
  }, {
    "tags" : {
      "im.dstype" : "counter",
      "im.dstype.displaytype" : "bytes",
      "im.name" : "network-interface-rx-bytes",
      "name" : "2.0"
    },
    "value" : "0.0"
  }, {
    "tags" : {
      "im.dstype.displaytype" : "state",
      "im.name" : "network-interface-admin-state",
      "name" : "5.3"
    },
    "value" : "1.0"
  }, {
    "tags" : {
      "im.dstype.displaytype" : "state",
      "im.name" : "network-interface-admin-state",
      "name" : "6.1"
    },
    "value" : "1.0"
  }, {
    "tags" : {
      "im.dstype.displaytype" : "state",
      "im.name" : "network-interface-admin-state",
      "name" : "6.3"
    },
    "value" : "1.0"
  }, {
    "tags" : {
      "im.name" : "network-interface-mac",
      "name" : "4.2"
    },
    "value" : {
      "value" : "f4:15:63:4e:59:14"
    }
  }, {
    "tags" : {
      "im.dstype" : "counter",
      "im.dstype.displaytype" : "bytes",
      "im.name" : "network-interface-rx-bytes",
      "name" : "3.0"
    },
    "value" : "0.0"
  }, {
    "tags" : {
      "im.dstype.displaytype" : "state",
      "im.name" : "network-interface-admin-state",
      "name" : "1.2"
    },
    "value" : "0.0"
  }, {
    "tags" : {
      "im.name" : "network-interface-mtu",
      "name" : "2.3"
    },
    "value" : {
      "value" : "9198"
    }
  }, {
    "tags" : {
      "im.name" : "network-interface-mtu",
      "name" : "3.1"
    },
    "value" : {
      "value" : "9198"
    }
  }, {
    "tags" : {
      "im.name" : "network-interface-mtu",
      "name" : "5.2"
    },
    "value" : {
      "value" : "9198"
    }
  }, {
    "tags" : {
      "im.dstype" : "counter",
      "im.dstype.displaytype" : "bytes",
      "im.name" : "network-interface-rx-bytes",
      "name" : "3.4"
    },
    "value" : "0.0"
  }, {
    "tags" : {
      "im.dstype" : "counter",
      "im.dstype.displaytype" : "bytes",
      "im.name" : "network-interface-rx-bytes",
      "name" : "5.0"
    },
    "value" : "0.0"
  }, {
    "tags" : {
      "im.dstype" : "counter",
      "im.dstype.displaytype" : "bytes",
      "im.name" : "network-interface-rx-bytes",
      "name" : "5.2"
    },
    "value" : "0.0"
  }, {
    "tags" : {
      "im.dstype" : "counter",
      "im.dstype.displaytype" : "bytes",
      "im.name" : "network-interface-rx-bytes",
      "name" : "6.3"
    },
    "value" : "0.0"
  }, {
    "tags" : {
      "im.dstype" : "counter",
      "im.dstype.displaytype" : "bytes",
      "im.name" : "network-interface-rx-bytes",
      "name" : "mgmt"
    },
    "value" : "2.6416E9"
  }, {
    "tags" : {
      "im.dstype" : "counter",
      "im.dstype.displaytype" : "number",
      "im.name" : "network-interface-rx-drops",
      "name" : "1.4"
    },
    "value" : "0.0"
  }, {
    "tags" : {
      "im.dstype" : "counter",
      "im.dstype.displaytype" : "bytes",
      "im.name" : "network-interface-tx-bytes",
      "name" : "1.2"
    },
    "value" : "0.0"
  }, {
    "tags" : {
      "im.dstype" : "counter",
      "im.dstype.displaytype" : "bytes",
      "im.name" : "network-interface-tx-bytes",
      "name" : "2.3"
    },
    "value" : "0.0"
  }, {
    "tags" : {
      "im.dstype" : "counter",
      "im.dstype.displaytype" : "bytes",
      "im.name" : "network-interface-tx-bytes",
      "name" : "3.4"
    },
    "value" : "0.0"
  }, {
    "tags" : {
      "im.dstype" : "counter",
      "im.dstype.displaytype" : "bytes",
      "im.name" : "network-interface-tx-bytes",
      "name" : "5.3"
    },
    "value" : "0.0"
  }, {
    "tags" : {
      "im.dstype" : "counter",
      "im.dstype.displaytype" : "bytes",
      "im.name" : "network-interface-tx-bytes",
      "name" : "6.4"
    },
    "value" : "0.0"
  }, {
    "tags" : {
      "im.dstype" : "counter",
      "im.dstype.displaytype" : "bytes",
      "im.name" : "network-interface-tx-bytes",
      "name" : "mgmt"
    },
    "value" : "3.46446E9"
  }, {
    "tags" : {
      "im.dstype" : "counter",
      "im.dstype.displaytype" : "number",
      "im.name" : "network-interface-rx-drops",
      "name" : "1.1"
    },
    "value" : "74.0"
  }, {
    "tags" : {
      "im.dstype" : "counter",
      "im.dstype.displaytype" : "number",
      "im.name" : "network-interface-rx-drops",
      "name" : "2.2"
    },
    "value" : "790369.0"
  }, {
    "tags" : {
      "im.dstype" : "counter",
      "im.dstype.displaytype" : "number",
      "im.name" : "network-interface-rx-drops",
      "name" : "2.4"
    },
    "value" : "0.0"
  }, {
    "tags" : {
      "im.dstype" : "counter",
      "im.dstype.displaytype" : "number",
      "im.name" : "network-interface-rx-drops",
      "name" : "3.0"
    },
    "value" : "0.0"
  }, {
    "tags" : {
      "im.dstype" : "counter",
      "im.dstype.displaytype" : "number",
      "im.name" : "network-interface-rx-drops",
      "name" : "3.2"
    },
    "value" : "0.0"
  }, {
    "tags" : {
      "im.dstype" : "counter",
      "im.dstype.displaytype" : "number",
      "im.name" : "network-interface-rx-drops",
      "name" : "4.0"
    },
    "value" : "0.0"
  }, {
    "tags" : {
      "im.dstype" : "counter",
      "im.dstype.displaytype" : "number",
      "im.name" : "network-interface-rx-drops",
      "name" : "4.1"
    },
    "value" : "0.0"
  }, {
    "tags" : {
      "im.dstype" : "counter",
      "im.dstype.displaytype" : "number",
      "im.name" : "network-interface-rx-drops",
      "name" : "4.2"
    },
    "value" : "0.0"
  }, {
    "tags" : {
      "im.dstype" : "counter",
      "im.dstype.displaytype" : "number",
      "im.name" : "network-interface-rx-drops",
      "name" : "4.3"
    },
    "value" : "0.0"
  }, {
    "tags" : {
      "im.dstype" : "counter",
      "im.dstype.displaytype" : "number",
      "im.name" : "network-interface-rx-drops",
      "name" : "5.0"
    },
    "value" : "0.0"
  }, {
    "tags" : {
      "im.dstype" : "counter",
      "im.dstype.displaytype" : "number",
      "im.name" : "network-interface-rx-drops",
      "name" : "5.4"
    },
    "value" : "0.0"
  }, {
    "tags" : {
      "im.dstype" : "counter",
      "im.dstype.displaytype" : "number",
      "im.name" : "network-interface-rx-drops",
      "name" : "6.2"
    },
    "value" : "0.0"
  }, {
    "tags" : {
      "im.dstype" : "counter",
      "im.dstype.displaytype" : "number",
      "im.name" : "network-interface-rx-drops",
      "name" : "6.3"
    },
    "value" : "0.0"
  }, {
    "tags" : {
      "im.dstype" : "counter",
      "im.dstype.displaytype" : "number",
      "im.name" : "network-interface-rx-drops",
      "name" : "6.4"
    },
    "value" : "0.0"
  }, {
    "tags" : {
      "im.dstype" : "counter",
      "im.dstype.displaytype" : "number",
      "im.name" : "network-interface-rx-drops",
      "name" : "mgmt"
    },
    "value" : "0.0"
  }, {
    "tags" : {
      "im.dstype" : "counter",
      "im.dstype.displaytype" : "number",
      "im.name" : "network-interface-rx-errors",
      "name" : "1.0"
    },
    "value" : "0.0"
  }, {
    "tags" : {
      "im.dstype" : "counter",
      "im.dstype.displaytype" : "number",
      "im.name" : "network-interface-rx-errors",
      "name" : "1.1"
    },
    "value" : "0.0"
  }, {
    "tags" : {
      "im.dstype" : "counter",
      "im.dstype.displaytype" : "number",
      "im.name" : "network-interface-rx-errors",
      "name" : "1.2"
    },
    "value" : "0.0"
  }, {
    "tags" : {
      "im.dstype" : "counter",
      "im.dstype.displaytype" : "number",
      "im.name" : "network-interface-rx-errors",
      "name" : "1.3"
    },
    "value" : "0.0"
  }, {
    "tags" : {
      "im.dstype" : "counter",
      "im.dstype.displaytype" : "number",
      "im.name" : "network-interface-rx-errors",
      "name" : "1.4"
    },
    "value" : "0.0"
  }, {
    "tags" : {
      "im.dstype" : "counter",
      "im.dstype.displaytype" : "number",
      "im.name" : "network-interface-rx-errors",
      "name" : "2.0"
    },
    "value" : "0.0"
  }, {
    "tags" : {
      "im.dstype" : "counter",
      "im.dstype.displaytype" : "number",
      "im.name" : "network-interface-rx-errors",
      "name" : "2.1"
    },
    "value" : "0.0"
  }, {
    "tags" : {
      "im.dstype" : "counter",
      "im.dstype.displaytype" : "number",
      "im.name" : "network-interface-rx-errors",
      "name" : "2.2"
    },
    "value" : "0.0"
  }, {
    "tags" : {
      "im.dstype" : "counter",
      "im.dstype.displaytype" : "number",
      "im.name" : "network-interface-rx-errors",
      "name" : "2.3"
    },
    "value" : "0.0"
  }, {
    "tags" : {
      "im.dstype" : "counter",
      "im.dstype.displaytype" : "number",
      "im.name" : "network-interface-rx-errors",
      "name" : "2.4"
    },
    "value" : "0.0"
  }, {
    "tags" : {
      "im.dstype" : "counter",
      "im.dstype.displaytype" : "number",
      "im.name" : "network-interface-rx-errors",
      "name" : "3.0"
    },
    "value" : "0.0"
  }, {
    "tags" : {
      "im.dstype" : "counter",
      "im.dstype.displaytype" : "number",
      "im.name" : "network-interface-rx-errors",
      "name" : "3.1"
    },
    "value" : "0.0"
  }, {
    "tags" : {
      "im.dstype" : "counter",
      "im.dstype.displaytype" : "number",
      "im.name" : "network-interface-rx-errors",
      "name" : "3.2"
    },
    "value" : "0.0"
  }, {
    "tags" : {
      "im.dstype" : "counter",
      "im.dstype.displaytype" : "number",
      "im.name" : "network-interface-rx-errors",
      "name" : "3.3"
    },
    "value" : "0.0"
  }, {
    "tags" : {
      "im.dstype" : "counter",
      "im.dstype.displaytype" : "number",
      "im.name" : "network-interface-rx-errors",
      "name" : "3.4"
    },
    "value" : "0.0"
  }, {
    "tags" : {
      "im.dstype" : "counter",
      "im.dstype.displaytype" : "number",
      "im.name" : "network-interface-rx-errors",
      "name" : "4.0"
    },
    "value" : "0.0"
  }, {
    "tags" : {
      "im.dstype" : "counter",
      "im.dstype.displaytype" : "number",
      "im.name" : "network-interface-rx-errors",
      "name" : "4.1"
    },
    "value" : "0.0"
  }, {
    "tags" : {
      "im.dstype" : "counter",
      "im.dstype.displaytype" : "number",
      "im.name" : "network-interface-rx-errors",
      "name" : "4.2"
    },
    "value" : "0.0"
  }, {
    "tags" : {
      "im.dstype" : "counter",
      "im.dstype.displaytype" : "number",
      "im.name" : "network-interface-rx-errors",
      "name" : "4.3"
    },
    "value" : "0.0"
  }, {
    "tags" : {
      "im.dstype" : "counter",
      "im.dstype.displaytype" : "number",
      "im.name" : "network-interface-rx-errors",
      "name" : "5.0"
    },
    "value" : "0.0"
  }, {
    "tags" : {
      "im.dstype" : "counter",
      "im.dstype.displaytype" : "number",
      "im.name" : "network-interface-rx-errors",
      "name" : "5.1"
    },
    "value" : "0.0"
  }, {
    "tags" : {
      "im.dstype" : "counter",
      "im.dstype.displaytype" : "number",
      "im.name" : "network-interface-rx-errors",
      "name" : "5.2"
    },
    "value" : "0.0"
  }, {
    "tags" : {
      "im.dstype" : "counter",
      "im.dstype.displaytype" : "number",
      "im.name" : "network-interface-rx-errors",
      "name" : "5.3"
    },
    "value" : "0.0"
  }, {
    "tags" : {
      "im.dstype" : "counter",
      "im.dstype.displaytype" : "number",
      "im.name" : "network-interface-rx-errors",
      "name" : "5.4"
    },
    "value" : "0.0"
  }, {
    "tags" : {
      "im.dstype" : "counter",
      "im.dstype.displaytype" : "number",
      "im.name" : "network-interface-rx-errors",
      "name" : "6.0"
    },
    "value" : "0.0"
  }, {
    "tags" : {
      "im.dstype" : "counter",
      "im.dstype.displaytype" : "number",
      "im.name" : "network-interface-rx-errors",
      "name" : "6.1"
    },
    "value" : "0.0"
  }, {
    "tags" : {
      "im.dstype" : "counter",
      "im.dstype.displaytype" : "number",
      "im.name" : "network-interface-rx-errors",
      "name" : "6.2"
    },
    "value" : "0.0"
  }, {
    "tags" : {
      "im.dstype" : "counter",
      "im.dstype.displaytype" : "number",
      "im.name" : "network-interface-rx-errors",
      "name" : "6.3"
    },
    "value" : "0.0"
  }, {
    "tags" : {
      "im.dstype" : "counter",
      "im.dstype.displaytype" : "number",
      "im.name" : "network-interface-rx-errors",
      "name" : "mgmt"
    },
    "value" : "0.0"
  }, {
    "tags" : {
      "im.dstype" : "counter",
      "im.dstype.displaytype" : "number",
      "im.name" : "network-interface-rx-packets",
      "name" : "1.0"
    },
    "value" : "0.0"
  }, {
    "tags" : {
      "im.dstype" : "counter",
      "im.dstype.displaytype" : "number",
      "im.name" : "network-interface-rx-packets",
      "name" : "1.1"
    },
    "value" : "2.0296056144E10"
  }, {
    "tags" : {
      "im.dstype" : "counter",
      "im.dstype.displaytype" : "number",
      "im.name" : "network-interface-rx-packets",
      "name" : "1.2"
    },
    "value" : "0.0"
  }, {
    "tags" : {
      "im.dstype" : "counter",
      "im.dstype.displaytype" : "number",
      "im.name" : "network-interface-rx-packets",
      "name" : "1.3"
    },
    "value" : "3.4772792E7"
  }, {
    "tags" : {
      "im.dstype.displaytype" : "state",
      "im.name" : "network-interface-admin-state",
      "name" : "5.2"
    },
    "value" : "1.0"
  }, {
    "tags" : {
      "im.dstype.displaytype" : "state",
      "im.name" : "network-interface-admin-state",
      "name" : "6.4"
    },
    "value" : "1.0"
  }, {
    "tags" : {
      "im.name" : "network-interface-mac",
      "name" : "1.2"
    },
    "value" : {
      "value" : "f4:15:63:4e:59:05"
    }
  }, {
    "tags" : {
      "im.dstype" : "counter",
      "im.dstype.displaytype" : "number",
      "im.name" : "network-interface-rx-packets",
      "name" : "1.4"
    },
    "value" : "0.0"
  }, {
    "tags" : {
      "im.dstype" : "counter",
      "im.dstype.displaytype" : "number",
      "im.name" : "network-interface-rx-packets",
      "name" : "2.0"
    },
    "value" : "0.0"
  }, {
    "tags" : {
      "im.dstype" : "counter",
      "im.dstype.displaytype" : "number",
      "im.name" : "network-interface-rx-packets",
      "name" : "2.1"
    },
    "value" : "9.237105173E10"
  }, {
    "tags" : {
      "im.dstype" : "counter",
      "im.dstype.displaytype" : "number",
      "im.name" : "network-interface-rx-packets",
      "name" : "2.2"
    },
    "value" : "9.3254202297E10"
  }, {
    "tags" : {
      "im.dstype" : "counter",
      "im.dstype.displaytype" : "number",
      "im.name" : "network-interface-rx-packets",
      "name" : "2.3"
    },
    "value" : "0.0"
  }, {
    "tags" : {
      "im.dstype" : "counter",
      "im.dstype.displaytype" : "number",
      "im.name" : "network-interface-rx-packets",
      "name" : "3.0"
    },
    "value" : "0.0"
  }, {
    "tags" : {
      "im.dstype" : "counter",
      "im.dstype.displaytype" : "number",
      "im.name" : "network-interface-rx-packets",
      "name" : "3.1"
    },
    "value" : "0.0"
  }, {
    "tags" : {
      "im.dstype" : "counter",
      "im.dstype.displaytype" : "number",
      "im.name" : "network-interface-rx-packets",
      "name" : "3.2"
    },
    "value" : "0.0"
  }, {
    "tags" : {
      "im.dstype" : "counter",
      "im.dstype.displaytype" : "number",
      "im.name" : "network-interface-rx-packets",
      "name" : "3.3"
    },
    "value" : "0.0"
  }, {
    "tags" : {
      "im.dstype" : "counter",
      "im.dstype.displaytype" : "number",
      "im.name" : "network-interface-rx-packets",
      "name" : "3.4"
    },
    "value" : "0.0"
  }, {
    "tags" : {
      "im.dstype" : "counter",
      "im.dstype.displaytype" : "number",
      "im.name" : "network-interface-rx-packets",
      "name" : "4.0"
    },
    "value" : "0.0"
  }, {
    "tags" : {
      "im.dstype" : "counter",
      "im.dstype.displaytype" : "number",
      "im.name" : "network-interface-rx-packets",
      "name" : "4.1"
    },
    "value" : "0.0"
  }, {
    "tags" : {
      "im.dstype" : "counter",
      "im.dstype.displaytype" : "number",
      "im.name" : "network-interface-rx-packets",
      "name" : "4.2"
    },
    "value" : "0.0"
  }, {
    "tags" : {
      "im.dstype" : "counter",
      "im.dstype.displaytype" : "number",
      "im.name" : "network-interface-rx-packets",
      "name" : "4.3"
    },
    "value" : "0.0"
  }, {
    "tags" : {
      "im.dstype" : "counter",
      "im.dstype.displaytype" : "number",
      "im.name" : "network-interface-rx-packets",
      "name" : "4.4"
    },
    "value" : "0.0"
  }, {
    "tags" : {
      "im.dstype" : "counter",
      "im.dstype.displaytype" : "number",
      "im.name" : "network-interface-rx-packets",
      "name" : "5.0"
    },
    "value" : "0.0"
  }, {
    "tags" : {
      "im.dstype" : "counter",
      "im.dstype.displaytype" : "number",
      "im.name" : "network-interface-rx-packets",
      "name" : "5.1"
    },
    "value" : "0.0"
  }, {
    "tags" : {
      "im.dstype" : "counter",
      "im.dstype.displaytype" : "number",
      "im.name" : "network-interface-rx-packets",
      "name" : "5.2"
    },
    "value" : "0.0"
  }, {
    "tags" : {
      "im.dstype" : "counter",
      "im.dstype.displaytype" : "number",
      "im.name" : "network-interface-rx-packets",
      "name" : "5.3"
    },
    "value" : "0.0"
  }, {
    "tags" : {
      "im.dstype" : "counter",
      "im.dstype.displaytype" : "number",
      "im.name" : "network-interface-rx-packets",
      "name" : "5.4"
    },
    "value" : "0.0"
  }, {
    "tags" : {
      "im.dstype" : "counter",
      "im.dstype.displaytype" : "number",
      "im.name" : "network-interface-rx-packets",
      "name" : "6.0"
    },
    "value" : "0.0"
  }, {
    "tags" : {
      "im.dstype" : "counter",
      "im.dstype.displaytype" : "number",
      "im.name" : "network-interface-rx-packets",
      "name" : "6.1"
    },
    "value" : "0.0"
  }, {
    "tags" : {
      "im.dstype" : "counter",
      "im.dstype.displaytype" : "number",
      "im.name" : "network-interface-rx-packets",
      "name" : "6.2"
    },
    "value" : "0.0"
  }, {
    "tags" : {
      "im.dstype" : "counter",
      "im.dstype.displaytype" : "number",
      "im.name" : "network-interface-rx-packets",
      "name" : "6.3"
    },
    "value" : "0.0"
  }, {
    "tags" : {
      "im.dstype" : "counter",
      "im.dstype.displaytype" : "number",
      "im.name" : "network-interface-rx-packets",
      "name" : "6.4"
    },
    "value" : "0.0"
  }, {
    "tags" : {
      "im.dstype" : "counter",
      "im.dstype.displaytype" : "number",
      "im.name" : "network-interface-rx-packets",
      "name" : "mgmt"
    },
    "value" : "2.5155486E7"
  }, {
    "tags" : {
      "im.name" : "network-interface-mac",
      "name" : "1.4"
    },
    "value" : {
      "value" : "f4:15:63:4e:59:07"
    }
  }, {
    "tags" : {
      "im.name" : "network-interface-mac",
      "name" : "3.4"
    },
    "value" : {
      "value" : "f4:15:63:4e:59:11"
    }
  }, {
    "tags" : {
      "im.name" : "network-interface-mac",
      "name" : "6.4"
    },
    "value" : {
      "value" : "f4:15:63:4e:59:20"
    }
  }, {
    "tags" : {
      "im.name" : "network-interface-mtu",
      "name" : "4.4"
    },
    "value" : {
      "value" : "9198"
    }
  }, {
    "tags" : {
      "im.dstype" : "counter",
      "im.dstype.displaytype" : "bytes",
      "im.name" : "network-interface-tx-bytes",
      "name" : "1.0"
    },
    "value" : "0.0"
  }, {
    "tags" : {
      "im.dstype" : "counter",
      "im.dstype.displaytype" : "bytes",
      "im.name" : "network-interface-tx-bytes",
      "name" : "1.3"
    },
    "value" : "9.54663E9"
  }, {
    "tags" : {
      "im.dstype" : "counter",
      "im.dstype.displaytype" : "bytes",
      "im.name" : "network-interface-tx-bytes",
      "name" : "1.4"
    },
    "value" : "0.0"
  }, {
    "tags" : {
      "im.dstype" : "counter",
      "im.dstype.displaytype" : "bytes",
      "im.name" : "network-interface-tx-bytes",
      "name" : "2.1"
    },
    "value" : "5.44349E13"
  }, {
    "tags" : {
      "im.dstype" : "counter",
      "im.dstype.displaytype" : "bytes",
      "im.name" : "network-interface-tx-bytes",
      "name" : "2.2"
    },
    "value" : "5.376E13"
  }, {
    "tags" : {
      "im.dstype" : "counter",
      "im.dstype.displaytype" : "bytes",
      "im.name" : "network-interface-tx-bytes",
      "name" : "2.4"
    },
    "value" : "0.0"
  }, {
    "tags" : {
      "im.dstype" : "counter",
      "im.dstype.displaytype" : "bytes",
      "im.name" : "network-interface-tx-bytes",
      "name" : "5.4"
    },
    "value" : "0.0"
  }, {
    "tags" : {
      "im.dstype" : "counter",
      "im.dstype.displaytype" : "bytes",
      "im.name" : "network-interface-tx-bytes",
      "name" : "6.1"
    },
    "value" : "0.0"
  }, {
    "tags" : {
      "im.dstype" : "counter",
      "im.dstype.displaytype" : "number",
      "im.name" : "network-interface-rx-packets",
      "name" : "2.4"
    },
    "value" : "0.0"
  }, {
    "tags" : {
      "im.dstype" : "counter",
      "im.dstype.displaytype" : "number",
      "im.name" : "network-interface-tx-drops",
      "name" : "1.0"
    },
    "value" : "0.0"
  }, {
    "tags" : {
      "im.dstype" : "counter",
      "im.dstype.displaytype" : "number",
      "im.name" : "network-interface-tx-drops",
      "name" : "1.2"
    },
    "value" : "0.0"
  }, {
    "tags" : {
      "im.dstype" : "counter",
      "im.dstype.displaytype" : "number",
      "im.name" : "network-interface-tx-drops",
      "name" : "1.3"
    },
    "value" : "0.0"
  }, {
    "tags" : {
      "im.dstype" : "counter",
      "im.dstype.displaytype" : "number",
      "im.name" : "network-interface-tx-drops",
      "name" : "1.4"
    },
    "value" : "0.0"
  }, {
    "tags" : {
      "im.dstype" : "counter",
      "im.dstype.displaytype" : "number",
      "im.name" : "network-interface-tx-drops",
      "name" : "2.0"
    },
    "value" : "0.0"
  }, {
    "tags" : {
      "im.dstype" : "counter",
      "im.dstype.displaytype" : "number",
      "im.name" : "network-interface-tx-drops",
      "name" : "2.1"
    },
    "value" : "0.0"
  }, {
    "tags" : {
      "im.dstype" : "counter",
      "im.dstype.displaytype" : "number",
      "im.name" : "network-interface-tx-drops",
      "name" : "2.2"
    },
    "value" : "0.0"
  }, {
    "tags" : {
      "im.dstype" : "counter",
      "im.dstype.displaytype" : "number",
      "im.name" : "network-interface-tx-drops",
      "name" : "2.3"
    },
    "value" : "0.0"
  }, {
    "tags" : {
      "im.dstype" : "counter",
      "im.dstype.displaytype" : "number",
      "im.name" : "network-interface-tx-drops",
      "name" : "2.4"
    },
    "value" : "0.0"
  }, {
    "tags" : {
      "im.dstype" : "counter",
      "im.dstype.displaytype" : "number",
      "im.name" : "network-interface-tx-drops",
      "name" : "3.0"
    },
    "value" : "0.0"
  }, {
    "tags" : {
      "im.dstype" : "counter",
      "im.dstype.displaytype" : "number",
      "im.name" : "network-interface-tx-drops",
      "name" : "3.1"
    },
    "value" : "0.0"
  }, {
    "tags" : {
      "im.dstype" : "counter",
      "im.dstype.displaytype" : "number",
      "im.name" : "network-interface-tx-drops",
      "name" : "3.2"
    },
    "value" : "0.0"
  }, {
    "tags" : {
      "im.dstype" : "counter",
      "im.dstype.displaytype" : "number",
      "im.name" : "network-interface-tx-drops",
      "name" : "3.3"
    },
    "value" : "0.0"
  }, {
    "tags" : {
      "im.dstype" : "counter",
      "im.dstype.displaytype" : "number",
      "im.name" : "network-interface-tx-drops",
      "name" : "3.4"
    },
    "value" : "0.0"
  }, {
    "tags" : {
      "im.dstype" : "counter",
      "im.dstype.displaytype" : "number",
      "im.name" : "network-interface-tx-drops",
      "name" : "4.0"
    },
    "value" : "0.0"
  }, {
    "tags" : {
      "im.dstype" : "counter",
      "im.dstype.displaytype" : "number",
      "im.name" : "network-interface-tx-drops",
      "name" : "4.1"
    },
    "value" : "0.0"
  }, {
    "tags" : {
      "im.dstype" : "counter",
      "im.dstype.displaytype" : "number",
      "im.name" : "network-interface-tx-drops",
      "name" : "4.2"
    },
    "value" : "0.0"
  }, {
    "tags" : {
      "im.dstype" : "counter",
      "im.dstype.displaytype" : "number",
      "im.name" : "network-interface-tx-drops",
      "name" : "4.3"
    },
    "value" : "0.0"
  }, {
    "tags" : {
      "im.dstype" : "counter",
      "im.dstype.displaytype" : "number",
      "im.name" : "network-interface-tx-drops",
      "name" : "4.4"
    },
    "value" : "0.0"
  }, {
    "tags" : {
      "im.dstype" : "counter",
      "im.dstype.displaytype" : "number",
      "im.name" : "network-interface-tx-drops",
      "name" : "5.0"
    },
    "value" : "0.0"
  }, {
    "tags" : {
      "im.dstype" : "counter",
      "im.dstype.displaytype" : "number",
      "im.name" : "network-interface-tx-drops",
      "name" : "5.1"
    },
    "value" : "0.0"
  }, {
    "tags" : {
      "im.dstype" : "counter",
      "im.dstype.displaytype" : "number",
      "im.name" : "network-interface-tx-drops",
      "name" : "5.2"
    },
    "value" : "0.0"
  }, {
    "tags" : {
      "im.dstype" : "counter",
      "im.dstype.displaytype" : "number",
      "im.name" : "network-interface-tx-drops",
      "name" : "5.3"
    },
    "value" : "0.0"
  }, {
    "tags" : {
      "im.dstype" : "counter",
      "im.dstype.displaytype" : "number",
      "im.name" : "network-interface-tx-drops",
      "name" : "5.4"
    },
    "value" : "0.0"
  }, {
    "tags" : {
      "im.dstype" : "counter",
      "im.dstype.displaytype" : "number",
      "im.name" : "network-interface-tx-drops",
      "name" : "6.0"
    },
    "value" : "0.0"
  }, {
    "tags" : {
      "im.dstype" : "counter",
      "im.dstype.displaytype" : "number",
      "im.name" : "network-interface-tx-drops",
      "name" : "6.3"
    },
    "value" : "0.0"
  }, {
    "tags" : {
      "im.dstype" : "counter",
      "im.dstype.displaytype" : "number",
      "im.name" : "network-interface-tx-drops",
      "name" : "6.4"
    },
    "value" : "0.0"
  }, {
    "tags" : {
      "im.dstype" : "counter",
      "im.dstype.displaytype" : "number",
      "im.name" : "network-interface-tx-drops",
      "name" : "mgmt"
    },
    "value" : "0.0"
  }, {
    "tags" : {
      "im.dstype" : "counter",
      "im.dstype.displaytype" : "number",
      "im.name" : "network-interface-tx-errors",
      "name" : "1.0"
    },
    "value" : "0.0"
  }, {
    "tags" : {
      "im.dstype" : "counter",
      "im.dstype.displaytype" : "number",
      "im.name" : "network-interface-tx-errors",
      "name" : "1.1"
    },
    "value" : "0.0"
  }, {
    "tags" : {
      "im.dstype" : "counter",
      "im.dstype.displaytype" : "number",
      "im.name" : "network-interface-tx-errors",
      "name" : "1.2"
    },
    "value" : "0.0"
  }, {
    "tags" : {
      "im.dstype" : "counter",
      "im.dstype.displaytype" : "number",
      "im.name" : "network-interface-tx-errors",
      "name" : "1.3"
    },
    "value" : "0.0"
  }, {
    "tags" : {
      "im.dstype" : "counter",
      "im.dstype.displaytype" : "number",
      "im.name" : "network-interface-tx-errors",
      "name" : "1.4"
    },
    "value" : "0.0"
  }, {
    "tags" : {
      "im.dstype.displaytype" : "state",
      "im.name" : "network-interface-admin-state",
      "name" : "1.3"
    },
    "value" : "1.0"
  }, {
    "tags" : {
      "im.dstype" : "counter",
      "im.dstype.displaytype" : "bytes",
      "im.name" : "network-interface-tx-bytes",
      "name" : "3.2"
    },
    "value" : "0.0"
  }, {
    "tags" : {
      "im.dstype" : "counter",
      "im.dstype.displaytype" : "number",
      "im.name" : "network-interface-tx-errors",
      "name" : "2.0"
    },
    "value" : "0.0"
  }, {
    "tags" : {
      "im.dstype" : "counter",
      "im.dstype.displaytype" : "number",
      "im.name" : "network-interface-tx-errors",
      "name" : "2.1"
    },
    "value" : "0.0"
  }, {
    "tags" : {
      "im.dstype" : "counter",
      "im.dstype.displaytype" : "number",
      "im.name" : "network-interface-tx-errors",
      "name" : "2.2"
    },
    "value" : "0.0"
  }, {
    "tags" : {
      "im.dstype" : "counter",
      "im.dstype.displaytype" : "number",
      "im.name" : "network-interface-tx-errors",
      "name" : "2.3"
    },
    "value" : "0.0"
  }, {
    "tags" : {
      "im.dstype" : "counter",
      "im.dstype.displaytype" : "number",
      "im.name" : "network-interface-tx-errors",
      "name" : "2.4"
    },
    "value" : "0.0"
  }, {
    "tags" : {
      "im.dstype" : "counter",
      "im.dstype.displaytype" : "number",
      "im.name" : "network-interface-tx-errors",
      "name" : "3.0"
    },
    "value" : "0.0"
  }, {
    "tags" : {
      "im.dstype" : "counter",
      "im.dstype.displaytype" : "number",
      "im.name" : "network-interface-tx-errors",
      "name" : "3.1"
    },
    "value" : "0.0"
  }, {
    "tags" : {
      "im.dstype" : "counter",
      "im.dstype.displaytype" : "number",
      "im.name" : "network-interface-tx-errors",
      "name" : "3.2"
    },
    "value" : "0.0"
  }, {
    "tags" : {
      "im.dstype" : "counter",
      "im.dstype.displaytype" : "number",
      "im.name" : "network-interface-tx-errors",
      "name" : "3.3"
    },
    "value" : "0.0"
  }, {
    "tags" : {
      "im.dstype" : "counter",
      "im.dstype.displaytype" : "number",
      "im.name" : "network-interface-tx-errors",
      "name" : "3.4"
    },
    "value" : "0.0"
  }, {
    "tags" : {
      "im.dstype" : "counter",
      "im.dstype.displaytype" : "number",
      "im.name" : "network-interface-tx-errors",
      "name" : "4.0"
    },
    "value" : "0.0"
  }, {
    "tags" : {
      "im.dstype" : "counter",
      "im.dstype.displaytype" : "number",
      "im.name" : "network-interface-tx-errors",
      "name" : "4.1"
    },
    "value" : "0.0"
  }, {
    "tags" : {
      "im.dstype" : "counter",
      "im.dstype.displaytype" : "number",
      "im.name" : "network-interface-tx-errors",
      "name" : "4.2"
    },
    "value" : "0.0"
  }, {
    "tags" : {
      "im.dstype" : "counter",
      "im.dstype.displaytype" : "number",
      "im.name" : "network-interface-tx-errors",
      "name" : "4.3"
    },
    "value" : "0.0"
  }, {
    "tags" : {
      "im.dstype" : "counter",
      "im.dstype.displaytype" : "number",
      "im.name" : "network-interface-tx-errors",
      "name" : "4.4"
    },
    "value" : "0.0"
  }, {
    "tags" : {
      "im.dstype" : "counter",
      "im.dstype.displaytype" : "number",
      "im.name" : "network-interface-tx-errors",
      "name" : "5.0"
    },
    "value" : "0.0"
  }, {
    "tags" : {
      "im.dstype" : "counter",
      "im.dstype.displaytype" : "number",
      "im.name" : "network-interface-tx-errors",
      "name" : "5.2"
    },
    "value" : "0.0"
  }, {
    "tags" : {
      "im.dstype" : "counter",
      "im.dstype.displaytype" : "number",
      "im.name" : "network-interface-tx-errors",
      "name" : "5.3"
    },
    "value" : "0.0"
  }, {
    "tags" : {
      "im.dstype" : "counter",
      "im.dstype.displaytype" : "number",
      "im.name" : "network-interface-tx-errors",
      "name" : "5.4"
    },
    "value" : "0.0"
  }, {
    "tags" : {
      "im.dstype" : "counter",
      "im.dstype.displaytype" : "number",
      "im.name" : "network-interface-tx-errors",
      "name" : "6.0"
    },
    "value" : "0.0"
  }, {
    "tags" : {
      "im.dstype" : "counter",
      "im.dstype.displaytype" : "number",
      "im.name" : "network-interface-tx-errors",
      "name" : "6.1"
    },
    "value" : "0.0"
  }, {
    "tags" : {
      "im.dstype" : "counter",
      "im.dstype.displaytype" : "number",
      "im.name" : "network-interface-tx-errors",
      "name" : "6.2"
    },
    "value" : "0.0"
  }, {
    "tags" : {
      "im.dstype" : "counter",
      "im.dstype.displaytype" : "number",
      "im.name" : "network-interface-tx-errors",
      "name" : "6.3"
    },
    "value" : "0.0"
  }, {
    "tags" : {
      "im.dstype" : "counter",
      "im.dstype.displaytype" : "number",
      "im.name" : "network-interface-tx-errors",
      "name" : "6.4"
    },
    "value" : "0.0"
  }, {
    "tags" : {
      "im.dstype" : "counter",
      "im.dstype.displaytype" : "number",
      "im.name" : "network-interface-tx-errors",
      "name" : "mgmt"
    },
    "value" : "0.0"
  }, {
    "tags" : {
      "im.dstype" : "counter",
      "im.dstype.displaytype" : "number",
      "im.name" : "network-interface-tx-packets",
      "name" : "1.0"
    },
    "value" : "0.0"
  }, {
    "tags" : {
      "im.dstype" : "counter",
      "im.dstype.displaytype" : "number",
      "im.name" : "network-interface-tx-packets",
      "name" : "1.1"
    },
    "value" : "2.9198623458E10"
  }, {
    "tags" : {
      "im.dstype" : "counter",
      "im.dstype.displaytype" : "number",
      "im.name" : "network-interface-tx-packets",
      "name" : "1.2"
    },
    "value" : "0.0"
  }, {
    "tags" : {
      "im.dstype" : "counter",
      "im.dstype.displaytype" : "number",
      "im.name" : "network-interface-tx-packets",
      "name" : "1.3"
    },
    "value" : "3.5746832E7"
  }, {
    "tags" : {
      "im.dstype" : "counter",
      "im.dstype.displaytype" : "number",
      "im.name" : "network-interface-tx-packets",
      "name" : "1.4"
    },
    "value" : "0.0"
  }, {
    "tags" : {
      "im.dstype" : "counter",
      "im.dstype.displaytype" : "number",
      "im.name" : "network-interface-tx-packets",
      "name" : "2.0"
    },
    "value" : "0.0"
  }, {
    "tags" : {
      "im.dstype" : "counter",
      "im.dstype.displaytype" : "number",
      "im.name" : "network-interface-tx-packets",
      "name" : "2.1"
    },
    "value" : "8.651617082E10"
  }, {
    "tags" : {
      "im.dstype" : "counter",
      "im.dstype.displaytype" : "number",
      "im.name" : "network-interface-tx-packets",
      "name" : "2.2"
    },
    "value" : "8.5704573473E10"
  }, {
    "tags" : {
      "im.dstype" : "counter",
      "im.dstype.displaytype" : "number",
      "im.name" : "network-interface-tx-packets",
      "name" : "2.3"
    },
    "value" : "0.0"
  }, {
    "tags" : {
      "im.dstype" : "counter",
      "im.dstype.displaytype" : "number",
      "im.name" : "network-interface-tx-packets",
      "name" : "2.4"
    },
    "value" : "0.0"
  }, {
    "tags" : {
      "im.dstype" : "counter",
      "im.dstype.displaytype" : "number",
      "im.name" : "network-interface-tx-packets",
      "name" : "3.0"
    },
    "value" : "0.0"
  }, {
    "tags" : {
      "im.dstype" : "counter",
      "im.dstype.displaytype" : "number",
      "im.name" : "network-interface-tx-packets",
      "name" : "3.1"
    },
    "value" : "0.0"
  }, {
    "tags" : {
      "im.dstype" : "counter",
      "im.dstype.displaytype" : "number",
      "im.name" : "network-interface-tx-packets",
      "name" : "3.2"
    },
    "value" : "0.0"
  }, {
    "tags" : {
      "im.dstype" : "counter",
      "im.dstype.displaytype" : "number",
      "im.name" : "network-interface-tx-packets",
      "name" : "3.3"
    },
    "value" : "0.0"
  }, {
    "tags" : {
      "im.dstype" : "counter",
      "im.dstype.displaytype" : "number",
      "im.name" : "network-interface-tx-packets",
      "name" : "3.4"
    },
    "value" : "0.0"
  }, {
    "tags" : {
      "im.dstype" : "counter",
      "im.dstype.displaytype" : "number",
      "im.name" : "network-interface-tx-packets",
      "name" : "4.0"
    },
    "value" : "0.0"
  }, {
    "tags" : {
      "im.dstype" : "counter",
      "im.dstype.displaytype" : "number",
      "im.name" : "network-interface-tx-packets",
      "name" : "4.2"
    },
    "value" : "0.0"
  }, {
    "tags" : {
      "im.dstype" : "counter",
      "im.dstype.displaytype" : "number",
      "im.name" : "network-interface-tx-packets",
      "name" : "4.3"
    },
    "value" : "0.0"
  }, {
    "tags" : {
      "im.dstype" : "counter",
      "im.dstype.displaytype" : "number",
      "im.name" : "network-interface-tx-packets",
      "name" : "4.4"
    },
    "value" : "0.0"
  }, {
    "tags" : {
      "im.dstype" : "counter",
      "im.dstype.displaytype" : "number",
      "im.name" : "network-interface-tx-packets",
      "name" : "5.0"
    },
    "value" : "0.0"
  }, {
    "tags" : {
      "im.dstype" : "counter",
      "im.dstype.displaytype" : "number",
      "im.name" : "network-interface-tx-packets",
      "name" : "5.1"
    },
    "value" : "0.0"
  }, {
    "tags" : {
      "im.dstype" : "counter",
      "im.dstype.displaytype" : "number",
      "im.name" : "network-interface-tx-packets",
      "name" : "5.2"
    },
    "value" : "0.0"
  }, {
    "tags" : {
      "im.dstype" : "counter",
      "im.dstype.displaytype" : "number",
      "im.name" : "network-interface-tx-packets",
      "name" : "5.3"
    },
    "value" : "0.0"
  }, {
    "tags" : {
      "im.dstype" : "counter",
      "im.dstype.displaytype" : "number",
      "im.name" : "network-interface-tx-packets",
      "name" : "5.4"
    },
    "value" : "0.0"
  }, {
    "tags" : {
      "im.dstype" : "counter",
      "im.dstype.displaytype" : "number",
      "im.name" : "network-interface-tx-packets",
      "name" : "6.0"
    },
    "value" : "0.0"
  }, {
    "tags" : {
      "im.dstype" : "counter",
      "im.dstype.displaytype" : "number",
      "im.name" : "network-interface-tx-packets",
      "name" : "6.1"
    },
    "value" : "0.0"
  }, {
    "tags" : {
      "im.dstype" : "counter",
      "im.dstype.displaytype" : "number",
      "im.name" : "network-interface-tx-packets",
      "name" : "6.2"
    },
    "value" : "0.0"
  }, {
    "tags" : {
      "im.dstype" : "counter",
      "im.dstype.displaytype" : "number",
      "im.name" : "network-interface-tx-packets",
      "name" : "6.3"
    },
    "value" : "0.0"
  }, {
    "tags" : {
      "im.dstype" : "counter",
      "im.dstype.displaytype" : "number",
      "im.name" : "network-interface-tx-packets",
      "name" : "6.4"
    },
    "value" : "0.0"
  }, {
    "tags" : {
      "im.dstype" : "counter",
      "im.dstype.displaytype" : "number",
      "im.name" : "network-interface-tx-packets",
      "name" : "mgmt"
    },
    "value" : "1.2751693E7"
  }, {
    "tags" : {
      "im.name" : "network-interface-mac",
      "name" : "3.2"
    },
    "value" : {
      "value" : "f4:15:63:4e:59:0f"
    }
  }, {
    "tags" : {
      "im.dstype.displaytype" : "state",
      "im.name" : "network-interface-admin-state",
      "name" : "3.2"
    },
    "value" : "1.0"
  }, {
    "tags" : {
      "im.name" : "network-interface-mtu",
      "name" : "2.4"
    },
    "value" : {
      "value" : "9198"
    }
  }, {
    "tags" : {
      "im.name" : "network-interface-mtu",
      "name" : "5.4"
    },
    "value" : {
      "value" : "9198"
    }
  }, {
    "tags" : {
      "im.name" : "network-interface-mtu",
      "name" : "6.3"
    },
    "value" : {
      "value" : "9198"
    }
  }, {
    "tags" : {
      "im.name" : "network-interface-mtu",
      "name" : "6.4"
    },
    "value" : {
      "value" : "9198"
    }
  }, {
    "tags" : {
      "im.name" : "network-interface-mtu",
      "name" : "mgmt"
    },
    "value" : {
      "value" : "1500"
    }
  }, {
    "tags" : {
      "im.name" : "network-interface-speed",
      "name" : "1.3"
    },
    "value" : {
      "value" : "1000M"
    }
  }, {
    "tags" : {
      "im.name" : "network-interface-speed",
      "name" : "2.1"
    },
    "value" : {
      "value" : "10000M"
    }
  }, {
    "tags" : {
      "im.name" : "network-interface-type",
      "name" : "2.2"
    },
    "value" : {
      "value" : "SR"
    }
  }, {
    "tags" : {
      "im.dstype" : "counter",
      "im.dstype.displaytype" : "bytes",
      "im.name" : "network-interface-rx-bytes",
      "name" : "3.1"
    },
    "value" : "0.0"
  }, {
    "tags" : {
      "im.dstype" : "counter",
      "im.dstype.displaytype" : "bytes",
      "im.name" : "network-interface-rx-bytes",
      "name" : "4.1"
    },
    "value" : "0.0"
  }, {
    "tags" : {
      "im.dstype" : "counter",
      "im.dstype.displaytype" : "number",
      "im.name" : "network-interface-rx-errors",
      "name" : "4.4"
    },
    "value" : "0.0"
  }, {
    "tags" : {
      "im.dstype" : "counter",
      "im.dstype.displaytype" : "number",
      "im.name" : "network-interface-rx-errors",
      "name" : "6.4"
    },
    "value" : "0.0"
  }, {
    "tags" : {
      "im.dstype" : "counter",
      "im.dstype.displaytype" : "number",
      "im.name" : "network-interface-tx-drops",
      "name" : "1.1"
    },
    "value" : "0.0"
  }, {
    "tags" : {
      "im.dstype" : "counter",
      "im.dstype.displaytype" : "number",
      "im.name" : "network-interface-tx-drops",
      "name" : "6.1"
    },
    "value" : "0.0"
  }, {
    "tags" : {
      "im.dstype" : "counter",
      "im.dstype.displaytype" : "number",
      "im.name" : "network-interface-tx-drops",
      "name" : "6.2"
    },
    "value" : "0.0"
  }, {
    "tags" : {
      "im.dstype" : "counter",
      "im.dstype.displaytype" : "number",
      "im.name" : "network-interface-tx-packets",
      "name" : "4.1"
    },
    "value" : "0.0"
  }, {
    "tags" : {
      "im.name" : "network-interface-mac",
      "name" : "5.1"
    },
    "value" : {
      "value" : "f4:15:63:4e:59:18"
    }
  }, {
    "tags" : {
      "im.name" : "network-interface-mtu",
      "name" : "1.2"
    },
    "value" : {
      "value" : "9198"
    }
  }, {
    "tags" : {
      "im.name" : "network-interface-speed",
      "name" : "mgmt"
    },
    "value" : {
      "value" : "1000M"
    }
  }, {
    "tags" : {
      "im.dstype" : "counter",
      "im.dstype.displaytype" : "bytes",
      "im.name" : "network-interface-tx-bytes",
      "name" : "5.0"
    },
    "value" : "0.0"
  }, {
    "tags" : {
      "im.dstype" : "counter",
      "im.dstype.displaytype" : "number",
      "im.name" : "network-interface-tx-errors",
      "name" : "5.1"
    },
    "value" : "0.0"
  } ]
}
