{
  "command" : "nexus-show-vrrp",
  "metrics" : [ {
    "tags" : {
      "display-name" : "VRRP - Preemption",
      "im.dstype.displaytype" : "boolean",
      "im.identity-tags" : "name",
      "im.name" : "cluster-preemption-enabled",
      "live-config" : "true",
      "name" : "vrrp:Vlan101:99:10.30.1.1"
    },
    "value" : "1.0"
  }, {
    "tags" : {
      "display-name" : "VRRP- Cluster State",
      "group-vip" : "10.24.3.1",
      "im.dstype.displaytype" : "state",
      "im.identity-tags" : "name",
      "im.name" : "cluster-state",
      "live-config" : "true",
      "name" : "vrrp:Vlan503:53:10.24.3.1"
    },
    "value" : "1.0"
  }, {
    "tags" : {
      "display-name" : "VRRP- Cluster State",
      "group-vip" : "10.24.4.1",
      "im.dstype.displaytype" : "state",
      "im.identity-tags" : "name",
      "im.name" : "cluster-state",
      "live-config" : "true",
      "name" : "vrrp:Vlan504:53:10.24.4.1"
    },
    "value" : "1.0"
  }, {
    "tags" : {
      "display-name" : "VRRP- Cluster State",
      "group-vip" : "10.30.10.1",
      "im.dstype.displaytype" : "state",
      "im.identity-tags" : "name",
      "im.name" : "cluster-state",
      "live-config" : "true",
      "name" : "vrrp:Vlan110:99:10.30.10.1"
    },
    "value" : "1.0"
  }, {
    "tags" : {
      "display-name" : "VRRP - Preemption",
      "im.dstype.displaytype" : "boolean",
      "im.identity-tags" : "name",
      "im.name" : "cluster-preemption-enabled",
      "live-config" : "true",
      "name" : "vrrp:Vlan102:99:10.30.2.1"
    },
    "value" : "1.0"
  }, {
    "tags" : {
      "display-name" : "VRRP - Preemption",
      "im.dstype.displaytype" : "boolean",
      "im.identity-tags" : "name",
      "im.name" : "cluster-preemption-enabled",
      "live-config" : "true",
      "name" : "vrrp:Vlan104:99:10.30.4.1"
    },
    "value" : "1.0"
  }, {
    "tags" : {
      "display-name" : "VRRP - Preemption",
      "im.dstype.displaytype" : "boolean",
      "im.identity-tags" : "name",
      "im.name" : "cluster-preemption-enabled",
      "live-config" : "true",
      "name" : "vrrp:Vlan2001:99:10.31.1.1"
    },
    "value" : "1.0"
  }, {
    "tags" : {
      "display-name" : "VRRP - Preemption",
      "im.dstype.displaytype" : "boolean",
      "im.identity-tags" : "name",
      "im.name" : "cluster-preemption-enabled",
      "live-config" : "true",
      "name" : "vrrp:Vlan505:53:10.24.5.1"
    },
    "value" : "1.0"
  }, {
    "tags" : {
      "display-name" : "VRRP - Preemption",
      "im.dstype.displaytype" : "boolean",
      "im.identity-tags" : "name",
      "im.name" : "cluster-preemption-enabled",
      "live-config" : "true",
      "name" : "vrrp:Vlan67:99:10.30.67.1"
    },
    "value" : "1.0"
  }, {
    "tags" : {
      "display-name" : "VRRP - This Member State",
      "im.dstype.displaytype" : "state",
      "im.identity-tags" : "name",
      "im.name" : "cluster-member-active",
      "live-config" : "true",
      "name" : "vrrp:Vlan101:99:10.30.1.1"
    },
    "value" : "1.0"
  }, {
    "tags" : {
      "display-name" : "VRRP - This Member State",
      "im.dstype.displaytype" : "state",
      "im.identity-tags" : "name",
      "im.name" : "cluster-member-active",
      "live-config" : "true",
      "name" : "vrrp:Vlan116:53:10.30.16.1"
    },
    "value" : "1.0"
  }, {
    "tags" : {
      "display-name" : "VRRP- Cluster State",
      "group-vip" : "10.30.16.1",
      "im.dstype.displaytype" : "state",
      "im.identity-tags" : "name",
      "im.name" : "cluster-state",
      "live-config" : "true",
      "name" : "vrrp:Vlan116:53:10.30.16.1"
    },
    "value" : "1.0"
  }, {
    "tags" : {
      "display-name" : "VRRP- Cluster State",
      "group-vip" : "10.30.192.1",
      "im.dstype.displaytype" : "state",
      "im.identity-tags" : "name",
      "im.name" : "cluster-state",
      "live-config" : "true",
      "name" : "vrrp:Vlan192:99:10.30.192.1"
    },
    "value" : "1.0"
  }, {
    "tags" : {
      "display-name" : "VRRP- Cluster State",
      "group-vip" : "10.30.32.1",
      "im.dstype.displaytype" : "state",
      "im.identity-tags" : "name",
      "im.name" : "cluster-state",
      "live-config" : "true",
      "name" : "vrrp:Vlan132:53:10.30.32.1"
    },
    "value" : "1.0"
  }, {
    "tags" : {
      "display-name" : "VRRP- Cluster State",
      "group-vip" : "10.30.65.1",
      "im.dstype.displaytype" : "state",
      "im.identity-tags" : "name",
      "im.name" : "cluster-state",
      "live-config" : "true",
      "name" : "vrrp:Vlan65:99:10.30.65.1"
    },
    "value" : "1.0"
  }, {
    "tags" : {
      "display-name" : "VRRP- Cluster State",
      "group-vip" : "10.31.0.1",
      "im.dstype.displaytype" : "state",
      "im.identity-tags" : "name",
      "im.name" : "cluster-state",
      "live-config" : "true",
      "name" : "vrrp:Vlan2000:99:10.31.0.1"
    },
    "value" : "1.0"
  }, {
    "tags" : {
      "display-name" : "VRRP- Cluster State",
      "group-vip" : "204.11.110.129",
      "im.dstype.displaytype" : "state",
      "im.identity-tags" : "name",
      "im.name" : "cluster-state",
      "live-config" : "true",
      "name" : "vrrp:Vlan3:99:204.11.110.129"
    },
    "value" : "1.0"
  }, {
    "tags" : {
      "display-name" : "VRRP - This Member State",
      "im.dstype.displaytype" : "state",
      "im.identity-tags" : "name",
      "im.name" : "cluster-member-active",
      "live-config" : "true",
      "name" : "vrrp:Vlan132:53:10.30.32.1"
    },
    "value" : "1.0"
  }, {
    "tags" : {
      "display-name" : "VRRP - Preemption",
      "im.dstype.displaytype" : "boolean",
      "im.identity-tags" : "name",
      "im.name" : "cluster-preemption-enabled",
      "live-config" : "true",
      "name" : "vrrp:Vlan3:99:204.11.110.129"
    },
    "value" : "1.0"
  }, {
    "tags" : {
      "display-name" : "VRRP - Preemption",
      "im.dstype.displaytype" : "boolean",
      "im.identity-tags" : "name",
      "im.name" : "cluster-preemption-enabled",
      "live-config" : "true",
      "name" : "vrrp:Vlan506:56:10.24.6.1"
    },
    "value" : "1.0"
  }, {
    "tags" : {
      "display-name" : "VRRP - Preemption",
      "im.dstype.displaytype" : "boolean",
      "im.identity-tags" : "name",
      "im.name" : "cluster-preemption-enabled",
      "live-config" : "true",
      "name" : "vrrp:Vlan65:99:10.30.65.1"
    },
    "value" : "1.0"
  }, {
    "tags" : {
      "display-name" : "VRRP - This Member State",
      "im.dstype.displaytype" : "state",
      "im.identity-tags" : "name",
      "im.name" : "cluster-member-active",
      "live-config" : "true",
      "name" : "vrrp:Vlan2000:99:10.31.0.1"
    },
    "value" : "1.0"
  }, {
    "tags" : {
      "display-name" : "VRRP- Cluster State",
      "group-vip" : "10.24.5.1",
      "im.dstype.displaytype" : "state",
      "im.identity-tags" : "name",
      "im.name" : "cluster-state",
      "live-config" : "true",
      "name" : "vrrp:Vlan505:53:10.24.5.1"
    },
    "value" : "1.0"
  }, {
    "tags" : {
      "display-name" : "VRRP- Cluster State",
      "group-vip" : "10.30.68.1",
      "im.dstype.displaytype" : "state",
      "im.identity-tags" : "name",
      "im.name" : "cluster-state",
      "live-config" : "true",
      "name" : "vrrp:Vlan68:99:10.30.68.1"
    },
    "value" : "1.0"
  }, {
    "tags" : {
      "display-name" : "VRRP- Cluster State",
      "group-vip" : "10.31.1.1",
      "im.dstype.displaytype" : "state",
      "im.identity-tags" : "name",
      "im.name" : "cluster-state",
      "live-config" : "true",
      "name" : "vrrp:Vlan2001:99:10.31.1.1"
    },
    "value" : "0.0"
  }, {
    "tags" : {
      "display-name" : "VRRP- Cluster State",
      "group-vip" : "204.11.110.1",
      "im.dstype.displaytype" : "state",
      "im.identity-tags" : "name",
      "im.name" : "cluster-state",
      "live-config" : "true",
      "name" : "vrrp:Vlan2:99:204.11.110.1"
    },
    "value" : "1.0"
  }, {
    "tags" : {
      "display-name" : "VRRP - Preemption",
      "im.dstype.displaytype" : "boolean",
      "im.identity-tags" : "name",
      "im.name" : "cluster-preemption-enabled",
      "live-config" : "true",
      "name" : "vrrp:Vlan110:99:10.30.10.1"
    },
    "value" : "1.0"
  }, {
    "tags" : {
      "display-name" : "VRRP - This Member State",
      "im.dstype.displaytype" : "state",
      "im.identity-tags" : "name",
      "im.name" : "cluster-member-active",
      "live-config" : "true",
      "name" : "vrrp:Vlan104:99:10.30.4.1"
    },
    "value" : "1.0"
  }, {
    "tags" : {
      "display-name" : "VRRP - This Member State",
      "im.dstype.displaytype" : "state",
      "im.identity-tags" : "name",
      "im.name" : "cluster-member-active",
      "live-config" : "true",
      "name" : "vrrp:Vlan110:99:10.30.10.1"
    },
    "value" : "1.0"
  }, {
    "tags" : {
      "display-name" : "VRRP- Cluster State",
      "group-vip" : "10.24.6.1",
      "im.dstype.displaytype" : "state",
      "im.identity-tags" : "name",
      "im.name" : "cluster-state",
      "live-config" : "true",
      "name" : "vrrp:Vlan506:56:10.24.6.1"
    },
    "value" : "1.0"
  }, {
    "tags" : {
      "display-name" : "VRRP- Cluster State",
      "group-vip" : "10.30.2.1",
      "im.dstype.displaytype" : "state",
      "im.identity-tags" : "name",
      "im.name" : "cluster-state",
      "live-config" : "true",
      "name" : "vrrp:Vlan102:99:10.30.2.1"
    },
    "value" : "1.0"
  }, {
    "tags" : {
      "display-name" : "VRRP - This Member State",
      "im.dstype.displaytype" : "state",
      "im.identity-tags" : "name",
      "im.name" : "cluster-member-active",
      "live-config" : "true",
      "name" : "vrrp:Vlan2001:99:10.31.1.1"
    },
    "value" : "0.0"
  }, {
    "tags" : {
      "display-name" : "VRRP - This Member State",
      "im.dstype.displaytype" : "state",
      "im.identity-tags" : "name",
      "im.name" : "cluster-member-active",
      "live-config" : "true",
      "name" : "vrrp:Vlan2:99:204.11.110.1"
    },
    "value" : "1.0"
  }, {
    "tags" : {
      "display-name" : "VRRP - This Member State",
      "im.dstype.displaytype" : "state",
      "im.identity-tags" : "name",
      "im.name" : "cluster-member-active",
      "live-config" : "true",
      "name" : "vrrp:Vlan3:99:204.11.110.129"
    },
    "value" : "1.0"
  }, {
    "tags" : {
      "display-name" : "VRRP - This Member State",
      "im.dstype.displaytype" : "state",
      "im.identity-tags" : "name",
      "im.name" : "cluster-member-active",
      "live-config" : "true",
      "name" : "vrrp:Vlan503:53:10.24.3.1"
    },
    "value" : "1.0"
  }, {
    "tags" : {
      "display-name" : "VRRP - Preemption",
      "im.dstype.displaytype" : "boolean",
      "im.identity-tags" : "name",
      "im.name" : "cluster-preemption-enabled",
      "live-config" : "true",
      "name" : "vrrp:Vlan116:53:10.30.16.1"
    },
    "value" : "1.0"
  }, {
    "tags" : {
      "display-name" : "VRRP - Preemption",
      "im.dstype.displaytype" : "boolean",
      "im.identity-tags" : "name",
      "im.name" : "cluster-preemption-enabled",
      "live-config" : "true",
      "name" : "vrrp:Vlan132:53:10.30.32.1"
    },
    "value" : "1.0"
  }, {
    "tags" : {
      "display-name" : "VRRP - Preemption",
      "im.dstype.displaytype" : "boolean",
      "im.identity-tags" : "name",
      "im.name" : "cluster-preemption-enabled",
      "live-config" : "true",
      "name" : "vrrp:Vlan192:99:10.30.192.1"
    },
    "value" : "1.0"
  }, {
    "tags" : {
      "display-name" : "VRRP - Preemption",
      "im.dstype.displaytype" : "boolean",
      "im.identity-tags" : "name",
      "im.name" : "cluster-preemption-enabled",
      "live-config" : "true",
      "name" : "vrrp:Vlan2000:99:10.31.0.1"
    },
    "value" : "1.0"
  }, {
    "tags" : {
      "display-name" : "VRRP - Preemption",
      "im.dstype.displaytype" : "boolean",
      "im.identity-tags" : "name",
      "im.name" : "cluster-preemption-enabled",
      "live-config" : "true",
      "name" : "vrrp:Vlan2032:99:10.31.32.1"
    },
    "value" : "1.0"
  }, {
    "tags" : {
      "display-name" : "VRRP - Preemption",
      "im.dstype.displaytype" : "boolean",
      "im.identity-tags" : "name",
      "im.name" : "cluster-preemption-enabled",
      "live-config" : "true",
      "name" : "vrrp:Vlan2:99:204.11.110.1"
    },
    "value" : "1.0"
  }, {
    "tags" : {
      "display-name" : "VRRP - Preemption",
      "im.dstype.displaytype" : "boolean",
      "im.identity-tags" : "name",
      "im.name" : "cluster-preemption-enabled",
      "live-config" : "true",
      "name" : "vrrp:Vlan504:53:10.24.4.1"
    },
    "value" : "1.0"
  }, {
    "tags" : {
      "display-name" : "VRRP - Preemption",
      "im.dstype.displaytype" : "boolean",
      "im.identity-tags" : "name",
      "im.name" : "cluster-preemption-enabled",
      "live-config" : "true",
      "name" : "vrrp:Vlan66:99:10.30.66.1"
    },
    "value" : "1.0"
  }, {
    "tags" : {
      "display-name" : "VRRP - Preemption",
      "im.dstype.displaytype" : "boolean",
      "im.identity-tags" : "name",
      "im.name" : "cluster-preemption-enabled",
      "live-config" : "true",
      "name" : "vrrp:Vlan68:99:10.30.68.1"
    },
    "value" : "1.0"
  }, {
    "tags" : {
      "display-name" : "VRRP- Cluster State",
      "group-vip" : "10.30.1.1",
      "im.dstype.displaytype" : "state",
      "im.identity-tags" : "name",
      "im.name" : "cluster-state",
      "live-config" : "true",
      "name" : "vrrp:Vlan101:99:10.30.1.1"
    },
    "value" : "1.0"
  }, {
    "tags" : {
      "display-name" : "VRRP - This Member State",
      "im.dstype.displaytype" : "state",
      "im.identity-tags" : "name",
      "im.name" : "cluster-member-active",
      "live-config" : "true",
      "name" : "vrrp:Vlan102:99:10.30.2.1"
    },
    "value" : "1.0"
  }, {
    "tags" : {
      "display-name" : "VRRP - This Member State",
      "im.dstype.displaytype" : "state",
      "im.identity-tags" : "name",
      "im.name" : "cluster-member-active",
      "live-config" : "true",
      "name" : "vrrp:Vlan2032:99:10.31.32.1"
    },
    "value" : "1.0"
  }, {
    "tags" : {
      "display-name" : "VRRP - This Member State",
      "im.dstype.displaytype" : "state",
      "im.identity-tags" : "name",
      "im.name" : "cluster-member-active",
      "live-config" : "true",
      "name" : "vrrp:Vlan504:53:10.24.4.1"
    },
    "value" : "1.0"
  }, {
    "tags" : {
      "display-name" : "VRRP - This Member State",
      "im.dstype.displaytype" : "state",
      "im.identity-tags" : "name",
      "im.name" : "cluster-member-active",
      "live-config" : "true",
      "name" : "vrrp:Vlan505:53:10.24.5.1"
    },
    "value" : "1.0"
  }, {
    "tags" : {
      "display-name" : "VRRP - This Member State",
      "im.dstype.displaytype" : "state",
      "im.identity-tags" : "name",
      "im.name" : "cluster-member-active",
      "live-config" : "true",
      "name" : "vrrp:Vlan506:56:10.24.6.1"
    },
    "value" : "1.0"
  }, {
    "tags" : {
      "display-name" : "VRRP - This Member State",
      "im.dstype.displaytype" : "state",
      "im.identity-tags" : "name",
      "im.name" : "cluster-member-active",
      "live-config" : "true",
      "name" : "vrrp:Vlan65:99:10.30.65.1"
    },
    "value" : "1.0"
  }, {
    "tags" : {
      "display-name" : "VRRP - This Member State",
      "im.dstype.displaytype" : "state",
      "im.identity-tags" : "name",
      "im.name" : "cluster-member-active",
      "live-config" : "true",
      "name" : "vrrp:Vlan66:99:10.30.66.1"
    },
    "value" : "1.0"
  }, {
    "tags" : {
      "display-name" : "VRRP - This Member State",
      "im.dstype.displaytype" : "state",
      "im.identity-tags" : "name",
      "im.name" : "cluster-member-active",
      "live-config" : "true",
      "name" : "vrrp:Vlan67:99:10.30.67.1"
    },
    "value" : "1.0"
  }, {
    "tags" : {
      "display-name" : "VRRP- Cluster Groups",
      "im.dstype.displaytype" : "state",
      "im.identity-tags" : "name",
      "im.name" : "virtual-redundancy-groups",
      "live-config" : "true",
      "name" : "vrrp"
    },
    "value" : [ {
      "virtual-group" : "vrrp:Vlan132:53:10.30.32.1"
    }, {
      "virtual-group" : "vrrp:Vlan67:99:10.30.67.1"
    }, {
      "virtual-group" : "vrrp:Vlan68:99:10.30.68.1"
    }, {
      "virtual-group" : "vrrp:Vlan116:53:10.30.16.1"
    }, {
      "virtual-group" : "vrrp:Vlan66:99:10.30.66.1"
    }, {
      "virtual-group" : "vrrp:Vlan504:53:10.24.4.1"
    }, {
      "virtual-group" : "vrrp:Vlan2001:99:10.31.1.1"
    }, {
      "virtual-group" : "vrrp:Vlan65:99:10.30.65.1"
    }, {
      "virtual-group" : "vrrp:Vlan192:99:10.30.192.1"
    }, {
      "virtual-group" : "vrrp:Vlan104:99:10.30.4.1"
    }, {
      "virtual-group" : "vrrp:Vlan101:99:10.30.1.1"
    }, {
      "virtual-group" : "vrrp:Vlan102:99:10.30.2.1"
    }, {
      "virtual-group" : "vrrp:Vlan3:99:204.11.110.129"
    }, {
      "virtual-group" : "vrrp:Vlan2000:99:10.31.0.1"
    }, {
      "virtual-group" : "vrrp:Vlan2032:99:10.31.32.1"
    }, {
      "virtual-group" : "vrrp:Vlan2:99:204.11.110.1"
    }, {
      "virtual-group" : "vrrp:Vlan503:53:10.24.3.1"
    }, {
      "virtual-group" : "vrrp:Vlan110:99:10.30.10.1"
    }, {
      "virtual-group" : "vrrp:Vlan505:53:10.24.5.1"
    }, {
      "virtual-group" : "vrrp:Vlan506:56:10.24.6.1"
    } ]
  }, {
    "tags" : {
      "display-name" : "VRRP- Cluster State",
      "group-vip" : "10.30.4.1",
      "im.dstype.displaytype" : "state",
      "im.identity-tags" : "name",
      "im.name" : "cluster-state",
      "live-config" : "true",
      "name" : "vrrp:Vlan104:99:10.30.4.1"
    },
    "value" : "1.0"
  }, {
    "tags" : {
      "display-name" : "VRRP- Cluster State",
      "group-vip" : "10.30.66.1",
      "im.dstype.displaytype" : "state",
      "im.identity-tags" : "name",
      "im.name" : "cluster-state",
      "live-config" : "true",
      "name" : "vrrp:Vlan66:99:10.30.66.1"
    },
    "value" : "1.0"
  }, {
    "tags" : {
      "display-name" : "VRRP- Cluster State",
      "group-vip" : "10.30.67.1",
      "im.dstype.displaytype" : "state",
      "im.identity-tags" : "name",
      "im.name" : "cluster-state",
      "live-config" : "true",
      "name" : "vrrp:Vlan67:99:10.30.67.1"
    },
    "value" : "1.0"
  }, {
    "tags" : {
      "display-name" : "VRRP- Cluster State",
      "group-vip" : "10.31.32.1",
      "im.dstype.displaytype" : "state",
      "im.identity-tags" : "name",
      "im.name" : "cluster-state",
      "live-config" : "true",
      "name" : "vrrp:Vlan2032:99:10.31.32.1"
    },
    "value" : "1.0"
  }, {
    "tags" : {
      "display-name" : "VRRP - Preemption",
      "im.dstype.displaytype" : "boolean",
      "im.identity-tags" : "name",
      "im.name" : "cluster-preemption-enabled",
      "live-config" : "true",
      "name" : "vrrp:Vlan503:53:10.24.3.1"
    },
    "value" : "1.0"
  }, {
    "tags" : {
      "display-name" : "VRRP - This Member State",
      "im.dstype.displaytype" : "state",
      "im.identity-tags" : "name",
      "im.name" : "cluster-member-active",
      "live-config" : "true",
      "name" : "vrrp:Vlan192:99:10.30.192.1"
    },
    "value" : "1.0"
  }, {
    "tags" : {
      "display-name" : "VRRP - This Member State",
      "im.dstype.displaytype" : "state",
      "im.identity-tags" : "name",
      "im.name" : "cluster-member-active",
      "live-config" : "true",
      "name" : "vrrp:Vlan68:99:10.30.68.1"
    },
    "value" : "1.0"
  } ]
}
