{
  "command" : "nexus-show-environment",
  "metrics" : [ {
    "tags" : {
      "display-name" : "Fan Status",
      "im.dstype.displaytype" : "state",
      "im.identity-tags" : "name",
      "im.name" : "hardware-element-status",
      "live-config" : "true",
      "name" : "Fan Fan-1"
    },
    "value" : "1.0"
  }, {
    "tags" : {
      "display-name" : "Fan Status",
      "im.dstype.displaytype" : "state",
      "im.identity-tags" : "name",
      "im.name" : "hardware-element-status",
      "live-config" : "true",
      "name" : "Fan PS-1"
    },
    "value" : "1.0"
  }, {
    "tags" : {
      "display-name" : "Fan Status",
      "im.dstype.displaytype" : "state",
      "im.identity-tags" : "name",
      "im.name" : "hardware-element-status",
      "live-config" : "true",
      "name" : "Fan PS-2"
    },
    "value" : "1.0"
  }, {
    "tags" : {
      "display-name" : "Module Power Status",
      "im.dstype.displaytype" : "state",
      "im.identity-tags" : "name",
      "im.name" : "hardware-element-status",
      "live-config" : "true",
      "name" : "Module 1 (N3K-C3048TP-1GE-SUP)"
    },
    "value" : "1.0"
  }, {
    "tags" : {
      "display-name" : "Power Supply Status",
      "im.dstype.displaytype" : "state",
      "im.identity-tags" : "name",
      "im.name" : "hardware-element-status",
      "live-config" : "true",
      "name" : "Power Supply 1"
    },
    "value" : "1.0"
  }, {
    "tags" : {
      "display-name" : "Power Supply Status",
      "im.dstype.displaytype" : "state",
      "im.identity-tags" : "name",
      "im.name" : "hardware-element-status",
      "live-config" : "true",
      "name" : "Power Supply 2"
    },
    "value" : "1.0"
  }, {
    "tags" : {
      "display-name" : "Temperature Status",
      "im.dstype.displaytype" : "state",
      "im.identity-tags" : "name",
      "im.name" : "hardware-element-status",
      "live-config" : "true",
      "name" : "Temperature Module 1 Sensor Back"
    },
    "value" : "1.0"
  }, {
    "tags" : {
      "display-name" : "Temperature Status",
      "im.dstype.displaytype" : "state",
      "im.identity-tags" : "name",
      "im.name" : "hardware-element-status",
      "live-config" : "true",
      "name" : "Temperature Module 1 Sensor Front Lef"
    },
    "value" : "1.0"
  }, {
    "tags" : {
      "display-name" : "Temperature Status",
      "im.dstype.displaytype" : "state",
      "im.identity-tags" : "name",
      "im.name" : "hardware-element-status",
      "live-config" : "true",
      "name" : "Temperature Module 1 Sensor Front Mid"
    },
    "value" : "1.0"
  }, {
    "tags" : {
      "display-name" : "Temperature Status",
      "im.dstype.displaytype" : "state",
      "im.identity-tags" : "name",
      "im.name" : "hardware-element-status",
      "live-config" : "true",
      "name" : "Temperature Module 1 Sensor Front Rig"
    },
    "value" : "1.0"
  } ]
}
