{
  "command" : "nexus-show-processes-cpu",
  "metrics" : [ {
    "tags" : {
      "im.dstype" : "gauge",
      "im.metric-type" : "ts",
      "im.name" : "process-cpu",
      "im.step" : "60",
      "name" : "11",
      "process-name" : "watchdog/2"
    },
    "value" : "0.0"
  }, {
    "tags" : {
      "im.dstype" : "gauge",
      "im.metric-type" : "ts",
      "im.name" : "process-cpu",
      "im.step" : "60",
      "name" : "12",
      "process-name" : "migration/3"
    },
    "value" : "0.0"
  }, {
    "tags" : {
      "im.dstype" : "gauge",
      "im.metric-type" : "ts",
      "im.name" : "process-cpu",
      "im.step" : "60",
      "name" : "14",
      "process-name" : "watchdog/3"
    },
    "value" : "0.0"
  }, {
    "tags" : {
      "im.dstype" : "gauge",
      "im.metric-type" : "ts",
      "im.name" : "process-cpu",
      "im.step" : "60",
      "name" : "14783",
      "process-name" : "ppm"
    },
    "value" : "0.0"
  }, {
    "tags" : {
      "im.dstype" : "gauge",
      "im.metric-type" : "ts",
      "im.name" : "process-cpu",
      "im.step" : "60",
      "name" : "15",
      "process-name" : "migration/4"
    },
    "value" : "0.0"
  }, {
    "tags" : {
      "im.dstype" : "gauge",
      "im.metric-type" : "ts",
      "im.name" : "process-cpu",
      "im.step" : "60",
      "name" : "16",
      "process-name" : "ksoftirqd/4"
    },
    "value" : "0.0"
  }, {
    "tags" : {
      "description" : "Process adjmgr is required for normal system operation",
      "im.dstype" : "gauge",
      "im.metric-type" : "ts",
      "im.name" : "process-state",
      "im.step" : "300",
      "name" : "3738",
      "process-name" : "adjmgr"
    },
    "value" : "1.0"
  }, {
    "tags" : {
      "description" : "Process arp is required for normal system operation",
      "im.dstype" : "gauge",
      "im.metric-type" : "ts",
      "im.name" : "process-state",
      "im.step" : "300",
      "name" : "3776",
      "process-name" : "arp"
    },
    "value" : "1.0"
  }, {
    "tags" : {
      "description" : "Process cisco is required for normal system operation",
      "im.dstype" : "gauge",
      "im.metric-type" : "ts",
      "im.name" : "process-state",
      "im.step" : "300",
      "name" : "3628",
      "process-name" : "cisco"
    },
    "value" : "1.0"
  }, {
    "tags" : {
      "description" : "Process confcheck is required for normal system operation",
      "im.dstype" : "gauge",
      "im.metric-type" : "ts",
      "im.name" : "process-state",
      "im.step" : "300",
      "name" : "3619",
      "process-name" : "confcheck"
    },
    "value" : "1.0"
  }, {
    "tags" : {
      "description" : "Process feature-mgr is required for normal system operation",
      "im.dstype" : "gauge",
      "im.metric-type" : "ts",
      "im.name" : "process-state",
      "im.step" : "300",
      "name" : "3617",
      "process-name" : "feature-mgr"
    },
    "value" : "1.0"
  }, {
    "tags" : {
      "description" : "Process rpc.statd is required for normal system operation",
      "im.dstype" : "gauge",
      "im.metric-type" : "ts",
      "im.name" : "process-state",
      "im.step" : "300",
      "name" : "1938",
      "process-name" : "rpc.statd"
    },
    "value" : "1.0"
  }, {
    "tags" : {
      "description" : "Process sysmgr is required for normal system operation",
      "im.dstype" : "gauge",
      "im.metric-type" : "ts",
      "im.name" : "process-state",
      "im.step" : "300",
      "name" : "1989",
      "process-name" : "sysmgr"
    },
    "value" : "1.0"
  }, {
    "tags" : {
      "description" : "Process ttyd is required for normal system operation",
      "im.dstype" : "gauge",
      "im.metric-type" : "ts",
      "im.name" : "process-state",
      "im.step" : "300",
      "name" : "3661",
      "process-name" : "ttyd"
    },
    "value" : "1.0"
  }, {
    "tags" : {
      "description" : "Process xinetd is required for normal system operation",
      "im.dstype" : "gauge",
      "im.metric-type" : "ts",
      "im.name" : "process-state",
      "im.step" : "300",
      "name" : "3927",
      "process-name" : "xinetd"
    },
    "value" : "1.0"
  }, {
    "tags" : {
      "im.dstype" : "gauge",
      "im.metric-type" : "ts",
      "im.name" : "process-cpu",
      "im.step" : "60",
      "name" : "13",
      "process-name" : "ksoftirqd/3"
    },
    "value" : "0.0"
  }, {
    "tags" : {
      "im.dstype" : "gauge",
      "im.metric-type" : "ts",
      "im.name" : "process-cpu",
      "im.step" : "60",
      "name" : "1381",
      "process-name" : "kjournald"
    },
    "value" : "0.0"
  }, {
    "tags" : {
      "im.dstype" : "gauge",
      "im.metric-type" : "ts",
      "im.name" : "process-cpu",
      "im.step" : "60",
      "name" : "1390",
      "process-name" : "kjournald"
    },
    "value" : "0.0"
  }, {
    "tags" : {
      "im.dstype" : "gauge",
      "im.metric-type" : "ts",
      "im.name" : "process-cpu",
      "im.step" : "60",
      "name" : "14773",
      "process-name" : "ppm"
    },
    "value" : "0.0"
  }, {
    "tags" : {
      "im.dstype" : "gauge",
      "im.metric-type" : "ts",
      "im.name" : "process-cpu",
      "im.step" : "60",
      "name" : "17",
      "process-name" : "watchdog/4"
    },
    "value" : "0.0"
  }, {
    "tags" : {
      "description" : "Process bootvar is required for normal system operation",
      "im.dstype" : "gauge",
      "im.metric-type" : "ts",
      "im.name" : "process-state",
      "im.step" : "300",
      "name" : "3688",
      "process-name" : "bootvar"
    },
    "value" : "1.0"
  }, {
    "tags" : {
      "description" : "Process core-dmon is required for normal system operation",
      "im.dstype" : "gauge",
      "im.metric-type" : "ts",
      "im.name" : "process-state",
      "im.step" : "300",
      "name" : "3686",
      "process-name" : "core-dmon"
    },
    "value" : "1.0"
  }, {
    "tags" : {
      "description" : "Process dcos-xinetd is required for normal system operation",
      "im.dstype" : "gauge",
      "im.metric-type" : "ts",
      "im.name" : "process-state",
      "im.step" : "300",
      "name" : "3927",
      "process-name" : "dcos-xinetd"
    },
    "value" : "1.0"
  }, {
    "tags" : {
      "description" : "Process fs-daemon is required for normal system operation",
      "im.dstype" : "gauge",
      "im.metric-type" : "ts",
      "im.name" : "process-state",
      "im.step" : "300",
      "name" : "3616",
      "process-name" : "fs-daemon"
    },
    "value" : "1.0"
  }, {
    "tags" : {
      "description" : "Process ifmgr is required for normal system operation",
      "im.dstype" : "gauge",
      "im.metric-type" : "ts",
      "im.name" : "process-state",
      "im.step" : "300",
      "name" : "3679",
      "process-name" : "ifmgr"
    },
    "value" : "1.0"
  }, {
    "tags" : {
      "description" : "Process init is required for normal system operation",
      "im.dstype" : "gauge",
      "im.metric-type" : "ts",
      "im.name" : "process-state",
      "im.step" : "300",
      "name" : "1",
      "process-name" : "init"
    },
    "value" : "1.0"
  }, {
    "tags" : {
      "description" : "Process klogd is required for normal system operation",
      "im.dstype" : "gauge",
      "im.metric-type" : "ts",
      "im.name" : "process-state",
      "im.step" : "300",
      "name" : "3634",
      "process-name" : "klogd"
    },
    "value" : "1.0"
  }, {
    "tags" : {
      "description" : "Process licmgr is required for normal system operation",
      "im.dstype" : "gauge",
      "im.metric-type" : "ts",
      "im.name" : "process-state",
      "im.step" : "300",
      "name" : "3615",
      "process-name" : "licmgr"
    },
    "value" : "1.0"
  }, {
    "tags" : {
      "description" : "Process pktmgr is required for normal system operation",
      "im.dstype" : "gauge",
      "im.metric-type" : "ts",
      "im.name" : "process-state",
      "im.step" : "300",
      "name" : "3781",
      "process-name" : "pktmgr"
    },
    "value" : "1.0"
  }, {
    "tags" : {
      "description" : "Process securityd is required for normal system operation",
      "im.dstype" : "gauge",
      "im.metric-type" : "ts",
      "im.name" : "process-state",
      "im.step" : "300",
      "name" : "3696",
      "process-name" : "securityd"
    },
    "value" : "1.0"
  }, {
    "tags" : {
      "description" : "Process sysinfo is required for normal system operation",
      "im.dstype" : "gauge",
      "im.metric-type" : "ts",
      "im.name" : "process-state",
      "im.step" : "300",
      "name" : "3662",
      "process-name" : "sysinfo"
    },
    "value" : "1.0"
  }, {
    "tags" : {
      "description" : "Process syslogd is required for normal system operation",
      "im.dstype" : "gauge",
      "im.metric-type" : "ts",
      "im.name" : "process-state",
      "im.step" : "300",
      "name" : "3562",
      "process-name" : "syslogd"
    },
    "value" : "1.0"
  }, {
    "tags" : {
      "im.dstype" : "gauge",
      "im.metric-type" : "ts",
      "im.name" : "process-cpu",
      "im.step" : "60",
      "name" : "1",
      "process-name" : "init"
    },
    "value" : "0.0"
  }, {
    "tags" : {
      "im.dstype" : "gauge",
      "im.metric-type" : "ts",
      "im.name" : "process-cpu",
      "im.step" : "60",
      "name" : "10",
      "process-name" : "ksoftirqd/2"
    },
    "value" : "0.0"
  }, {
    "tags" : {
      "im.dstype" : "gauge",
      "im.metric-type" : "ts",
      "im.name" : "process-cpu",
      "im.step" : "60",
      "name" : "18",
      "process-name" : "migration/5"
    },
    "value" : "0.0"
  }, {
    "tags" : {
      "im.dstype" : "gauge",
      "im.metric-type" : "ts",
      "im.name" : "process-cpu",
      "im.step" : "60",
      "name" : "19",
      "process-name" : "ksoftirqd/5"
    },
    "value" : "0.0"
  }, {
    "tags" : {
      "im.dstype" : "gauge",
      "im.metric-type" : "ts",
      "im.name" : "process-cpu",
      "im.step" : "60",
      "name" : "1929",
      "process-name" : "portmap"
    },
    "value" : "0.0"
  }, {
    "tags" : {
      "im.dstype" : "gauge",
      "im.metric-type" : "ts",
      "im.name" : "process-cpu",
      "im.step" : "60",
      "name" : "1938",
      "process-name" : "rpc.statd"
    },
    "value" : "0.0"
  }, {
    "tags" : {
      "im.dstype" : "gauge",
      "im.metric-type" : "ts",
      "im.name" : "process-cpu",
      "im.step" : "60",
      "name" : "1953",
      "process-name" : "lockd"
    },
    "value" : "0.0"
  }, {
    "tags" : {
      "im.dstype" : "gauge",
      "im.metric-type" : "ts",
      "im.name" : "process-cpu",
      "im.step" : "60",
      "name" : "1954",
      "process-name" : "nfsd"
    },
    "value" : "0.0"
  }, {
    "tags" : {
      "im.dstype" : "gauge",
      "im.metric-type" : "ts",
      "im.name" : "process-cpu",
      "im.step" : "60",
      "name" : "1955",
      "process-name" : "nfsd"
    },
    "value" : "0.0"
  }, {
    "tags" : {
      "im.dstype" : "gauge",
      "im.metric-type" : "ts",
      "im.name" : "process-cpu",
      "im.step" : "60",
      "name" : "1956",
      "process-name" : "nfsd"
    },
    "value" : "0.0"
  }, {
    "tags" : {
      "im.dstype" : "gauge",
      "im.metric-type" : "ts",
      "im.name" : "process-cpu",
      "im.step" : "60",
      "name" : "1957",
      "process-name" : "nfsd"
    },
    "value" : "0.0"
  }, {
    "tags" : {
      "im.dstype" : "gauge",
      "im.metric-type" : "ts",
      "im.name" : "process-cpu",
      "im.step" : "60",
      "name" : "1958",
      "process-name" : "nfsd"
    },
    "value" : "0.0"
  }, {
    "tags" : {
      "im.dstype" : "gauge",
      "im.metric-type" : "ts",
      "im.name" : "process-cpu",
      "im.step" : "60",
      "name" : "1959",
      "process-name" : "nfsd"
    },
    "value" : "0.0"
  }, {
    "tags" : {
      "im.dstype" : "gauge",
      "im.metric-type" : "ts",
      "im.name" : "process-cpu",
      "im.step" : "60",
      "name" : "1960",
      "process-name" : "nfsd"
    },
    "value" : "0.0"
  }, {
    "tags" : {
      "im.dstype" : "gauge",
      "im.metric-type" : "ts",
      "im.name" : "process-cpu",
      "im.step" : "60",
      "name" : "1961",
      "process-name" : "nfsd"
    },
    "value" : "0.0"
  }, {
    "tags" : {
      "im.dstype" : "gauge",
      "im.metric-type" : "ts",
      "im.name" : "process-cpu",
      "im.step" : "60",
      "name" : "1966",
      "process-name" : "rpc.mountd"
    },
    "value" : "0.0"
  }, {
    "tags" : {
      "im.dstype" : "gauge",
      "im.metric-type" : "ts",
      "im.name" : "process-cpu",
      "im.step" : "60",
      "name" : "1989",
      "process-name" : "sysmgr"
    },
    "value" : "0.0"
  }, {
    "tags" : {
      "im.dstype" : "gauge",
      "im.metric-type" : "ts",
      "im.name" : "process-cpu",
      "im.step" : "60",
      "name" : "2",
      "process-name" : "kthreadd"
    },
    "value" : "0.0"
  }, {
    "tags" : {
      "im.dstype" : "gauge",
      "im.metric-type" : "ts",
      "im.name" : "process-cpu",
      "im.step" : "60",
      "name" : "20",
      "process-name" : "watchdog/5"
    },
    "value" : "0.0"
  }, {
    "tags" : {
      "im.dstype" : "gauge",
      "im.metric-type" : "ts",
      "im.name" : "process-cpu",
      "im.step" : "60",
      "name" : "21",
      "process-name" : "migration/6"
    },
    "value" : "0.0"
  }, {
    "tags" : {
      "im.dstype" : "gauge",
      "im.metric-type" : "ts",
      "im.name" : "process-cpu",
      "im.step" : "60",
      "name" : "22",
      "process-name" : "ksoftirqd/6"
    },
    "value" : "0.0"
  }, {
    "tags" : {
      "im.dstype" : "gauge",
      "im.metric-type" : "ts",
      "im.name" : "process-cpu",
      "im.step" : "60",
      "name" : "23",
      "process-name" : "watchdog/6"
    },
    "value" : "0.0"
  }, {
    "tags" : {
      "im.dstype" : "gauge",
      "im.metric-type" : "ts",
      "im.name" : "process-cpu",
      "im.step" : "60",
      "name" : "24",
      "process-name" : "migration/7"
    },
    "value" : "0.0"
  }, {
    "tags" : {
      "im.dstype" : "gauge",
      "im.metric-type" : "ts",
      "im.name" : "process-cpu",
      "im.step" : "60",
      "name" : "25",
      "process-name" : "ksoftirqd/7"
    },
    "value" : "0.0"
  }, {
    "tags" : {
      "im.dstype" : "gauge",
      "im.metric-type" : "ts",
      "im.name" : "process-cpu",
      "im.step" : "60",
      "name" : "25115",
      "process-name" : "dcos_sshd"
    },
    "value" : "0.0"
  }, {
    "tags" : {
      "im.dstype" : "gauge",
      "im.metric-type" : "ts",
      "im.name" : "process-cpu",
      "im.step" : "60",
      "name" : "25118",
      "process-name" : "vsh"
    },
    "value" : "0.0"
  }, {
    "tags" : {
      "im.dstype" : "gauge",
      "im.metric-type" : "ts",
      "im.name" : "process-cpu",
      "im.step" : "60",
      "name" : "25185",
      "process-name" : "vsh"
    },
    "value" : "0.0"
  }, {
    "tags" : {
      "im.dstype" : "gauge",
      "im.metric-type" : "ts",
      "im.name" : "process-cpu",
      "im.step" : "60",
      "name" : "25186",
      "process-name" : "ps"
    },
    "value" : "0.0"
  }, {
    "tags" : {
      "im.dstype" : "gauge",
      "im.metric-type" : "ts",
      "im.name" : "process-cpu",
      "im.step" : "60",
      "name" : "26",
      "process-name" : "watchdog/7"
    },
    "value" : "0.0"
  }, {
    "tags" : {
      "im.dstype" : "gauge",
      "im.metric-type" : "ts",
      "im.name" : "process-cpu",
      "im.step" : "60",
      "name" : "27",
      "process-name" : "events/0"
    },
    "value" : "0.0"
  }, {
    "tags" : {
      "im.dstype" : "gauge",
      "im.metric-type" : "ts",
      "im.name" : "process-cpu",
      "im.step" : "60",
      "name" : "2768",
      "process-name" : "mping-thread"
    },
    "value" : "0.0"
  }, {
    "tags" : {
      "im.dstype" : "gauge",
      "im.metric-type" : "ts",
      "im.name" : "process-cpu",
      "im.step" : "60",
      "name" : "28",
      "process-name" : "events/1"
    },
    "value" : "0.0"
  }, {
    "tags" : {
      "im.dstype" : "gauge",
      "im.metric-type" : "ts",
      "im.name" : "process-cpu",
      "im.step" : "60",
      "name" : "29",
      "process-name" : "events/2"
    },
    "value" : "0.0"
  }, {
    "tags" : {
      "im.dstype" : "gauge",
      "im.metric-type" : "ts",
      "im.name" : "process-cpu",
      "im.step" : "60",
      "name" : "3",
      "process-name" : "migration/0"
    },
    "value" : "0.0"
  }, {
    "tags" : {
      "im.dstype" : "gauge",
      "im.metric-type" : "ts",
      "im.name" : "process-cpu",
      "im.step" : "60",
      "name" : "30",
      "process-name" : "events/3"
    },
    "value" : "0.0"
  }, {
    "tags" : {
      "im.dstype" : "gauge",
      "im.metric-type" : "ts",
      "im.name" : "process-cpu",
      "im.step" : "60",
      "name" : "3043",
      "process-name" : "insmod"
    },
    "value" : "0.0"
  }, {
    "tags" : {
      "im.dstype" : "gauge",
      "im.metric-type" : "ts",
      "im.name" : "process-cpu",
      "im.step" : "60",
      "name" : "3079",
      "process-name" : "fcp_thread_intr"
    },
    "value" : "0.0"
  }, {
    "tags" : {
      "im.dstype" : "gauge",
      "im.metric-type" : "ts",
      "im.name" : "process-cpu",
      "im.step" : "60",
      "name" : "31",
      "process-name" : "events/4"
    },
    "value" : "0.0"
  }, {
    "tags" : {
      "im.dstype" : "gauge",
      "im.metric-type" : "ts",
      "im.name" : "process-cpu",
      "im.step" : "60",
      "name" : "3196",
      "process-name" : "bond0"
    },
    "value" : "0.0"
  }, {
    "tags" : {
      "im.dstype" : "gauge",
      "im.metric-type" : "ts",
      "im.name" : "process-cpu",
      "im.step" : "60",
      "name" : "32",
      "process-name" : "events/5"
    },
    "value" : "0.0"
  }, {
    "tags" : {
      "im.dstype" : "gauge",
      "im.metric-type" : "ts",
      "im.name" : "process-cpu",
      "im.step" : "60",
      "name" : "33",
      "process-name" : "events/6"
    },
    "value" : "0.0"
  }, {
    "tags" : {
      "im.dstype" : "gauge",
      "im.metric-type" : "ts",
      "im.name" : "process-cpu",
      "im.step" : "60",
      "name" : "34",
      "process-name" : "events/7"
    },
    "value" : "0.0"
  }, {
    "tags" : {
      "im.dstype" : "gauge",
      "im.metric-type" : "ts",
      "im.name" : "process-cpu",
      "im.step" : "60",
      "name" : "35",
      "process-name" : "khelper"
    },
    "value" : "0.0"
  }, {
    "tags" : {
      "im.dstype" : "gauge",
      "im.metric-type" : "ts",
      "im.name" : "process-cpu",
      "im.step" : "60",
      "name" : "3560",
      "process-name" : "xinetd"
    },
    "value" : "0.0"
  }, {
    "tags" : {
      "im.dstype" : "gauge",
      "im.metric-type" : "ts",
      "im.name" : "process-cpu",
      "im.step" : "60",
      "name" : "3561",
      "process-name" : "tftpd"
    },
    "value" : "0.0"
  }, {
    "tags" : {
      "im.dstype" : "gauge",
      "im.metric-type" : "ts",
      "im.name" : "process-cpu",
      "im.step" : "60",
      "name" : "3562",
      "process-name" : "syslogd"
    },
    "value" : "0.0"
  }, {
    "tags" : {
      "im.dstype" : "gauge",
      "im.metric-type" : "ts",
      "im.name" : "process-cpu",
      "im.step" : "60",
      "name" : "3563",
      "process-name" : "sdwrapd"
    },
    "value" : "0.0"
  }, {
    "tags" : {
      "im.dstype" : "gauge",
      "im.metric-type" : "ts",
      "im.name" : "process-cpu",
      "im.step" : "60",
      "name" : "3564",
      "process-name" : "pfma"
    },
    "value" : "0.0"
  }, {
    "tags" : {
      "im.dstype" : "gauge",
      "im.metric-type" : "ts",
      "im.name" : "process-cpu",
      "im.step" : "60",
      "name" : "3577",
      "process-name" : "ls-notify-mts-t"
    },
    "value" : "0.0"
  }, {
    "tags" : {
      "im.dstype" : "gauge",
      "im.metric-type" : "ts",
      "im.name" : "process-cpu",
      "im.step" : "60",
      "name" : "3589",
      "process-name" : "usd_mts_kthread"
    },
    "value" : "0.0"
  }, {
    "tags" : {
      "im.dstype" : "gauge",
      "im.metric-type" : "ts",
      "im.name" : "process-cpu",
      "im.step" : "60",
      "name" : "36",
      "process-name" : "netns"
    },
    "value" : "0.0"
  }, {
    "tags" : {
      "im.dstype" : "gauge",
      "im.metric-type" : "ts",
      "im.name" : "process-cpu",
      "im.step" : "60",
      "name" : "3611",
      "process-name" : "vshd"
    },
    "value" : "0.0"
  }, {
    "tags" : {
      "im.dstype" : "gauge",
      "im.metric-type" : "ts",
      "im.name" : "process-cpu",
      "im.step" : "60",
      "name" : "3612",
      "process-name" : "smm"
    },
    "value" : "0.0"
  }, {
    "tags" : {
      "im.dstype" : "gauge",
      "im.metric-type" : "ts",
      "im.name" : "process-cpu",
      "im.step" : "60",
      "name" : "3613",
      "process-name" : "psshelper"
    },
    "value" : "0.0"
  }, {
    "tags" : {
      "im.dstype" : "gauge",
      "im.metric-type" : "ts",
      "im.name" : "process-cpu",
      "im.step" : "60",
      "name" : "3614",
      "process-name" : "lmgrd"
    },
    "value" : "0.0"
  }, {
    "tags" : {
      "im.dstype" : "gauge",
      "im.metric-type" : "ts",
      "im.name" : "process-cpu",
      "im.step" : "60",
      "name" : "3615",
      "process-name" : "licmgr"
    },
    "value" : "0.0"
  }, {
    "tags" : {
      "im.dstype" : "gauge",
      "im.metric-type" : "ts",
      "im.name" : "process-cpu",
      "im.step" : "60",
      "name" : "3616",
      "process-name" : "fs-daemon"
    },
    "value" : "0.0"
  }, {
    "tags" : {
      "im.dstype" : "gauge",
      "im.metric-type" : "ts",
      "im.name" : "process-cpu",
      "im.step" : "60",
      "name" : "3617",
      "process-name" : "feature-mgr"
    },
    "value" : "0.0"
  }, {
    "tags" : {
      "im.dstype" : "gauge",
      "im.metric-type" : "ts",
      "im.name" : "process-cpu",
      "im.step" : "60",
      "name" : "3618",
      "process-name" : "fcfwd"
    },
    "value" : "0.0"
  }, {
    "tags" : {
      "im.dstype" : "gauge",
      "im.metric-type" : "ts",
      "im.name" : "process-cpu",
      "im.step" : "60",
      "name" : "3619",
      "process-name" : "confcheck"
    },
    "value" : "0.0"
  }, {
    "tags" : {
      "im.dstype" : "gauge",
      "im.metric-type" : "ts",
      "im.name" : "process-cpu",
      "im.step" : "60",
      "name" : "3620",
      "process-name" : "capability"
    },
    "value" : "0.0"
  }, {
    "tags" : {
      "im.dstype" : "gauge",
      "im.metric-type" : "ts",
      "im.name" : "process-cpu",
      "im.step" : "60",
      "name" : "3621",
      "process-name" : "psshelper_gsvc"
    },
    "value" : "0.0"
  }, {
    "tags" : {
      "im.dstype" : "gauge",
      "im.metric-type" : "ts",
      "im.name" : "process-cpu",
      "im.step" : "60",
      "name" : "3628",
      "process-name" : "cisco"
    },
    "value" : "0.0"
  }, {
    "tags" : {
      "im.dstype" : "gauge",
      "im.metric-type" : "ts",
      "im.name" : "process-cpu",
      "im.step" : "60",
      "name" : "3632",
      "process-name" : "clis"
    },
    "value" : "0.0"
  }, {
    "tags" : {
      "im.dstype" : "gauge",
      "im.metric-type" : "ts",
      "im.name" : "process-cpu",
      "im.step" : "60",
      "name" : "3634",
      "process-name" : "klogd"
    },
    "value" : "0.0"
  }, {
    "tags" : {
      "im.dstype" : "gauge",
      "im.metric-type" : "ts",
      "im.name" : "process-cpu",
      "im.step" : "60",
      "name" : "3641",
      "process-name" : "port-profile"
    },
    "value" : "0.0"
  }, {
    "tags" : {
      "im.dstype" : "gauge",
      "im.metric-type" : "ts",
      "im.name" : "process-cpu",
      "im.step" : "60",
      "name" : "3642",
      "process-name" : "provision"
    },
    "value" : "0.0"
  }, {
    "tags" : {
      "im.dstype" : "gauge",
      "im.metric-type" : "ts",
      "im.name" : "process-cpu",
      "im.step" : "60",
      "name" : "3655",
      "process-name" : "zschk"
    },
    "value" : "0.0"
  }, {
    "tags" : {
      "im.dstype" : "gauge",
      "im.metric-type" : "ts",
      "im.name" : "process-cpu",
      "im.step" : "60",
      "name" : "3656",
      "process-name" : "xmpp"
    },
    "value" : "0.0"
  }, {
    "tags" : {
      "im.dstype" : "gauge",
      "im.metric-type" : "ts",
      "im.name" : "process-cpu",
      "im.step" : "60",
      "name" : "3657",
      "process-name" : "xmlma"
    },
    "value" : "0.0"
  }, {
    "tags" : {
      "im.dstype" : "gauge",
      "im.metric-type" : "ts",
      "im.name" : "process-cpu",
      "im.step" : "60",
      "name" : "3658",
      "process-name" : "vmm"
    },
    "value" : "0.0"
  }, {
    "tags" : {
      "im.dstype" : "gauge",
      "im.metric-type" : "ts",
      "im.name" : "process-cpu",
      "im.step" : "60",
      "name" : "3659",
      "process-name" : "vman"
    },
    "value" : "0.0"
  }, {
    "tags" : {
      "im.dstype" : "gauge",
      "im.metric-type" : "ts",
      "im.name" : "process-cpu",
      "im.step" : "60",
      "name" : "3660",
      "process-name" : "vdc_mgr"
    },
    "value" : "0.0"
  }, {
    "tags" : {
      "im.dstype" : "gauge",
      "im.metric-type" : "ts",
      "im.name" : "process-cpu",
      "im.step" : "60",
      "name" : "3661",
      "process-name" : "ttyd"
    },
    "value" : "0.0"
  }, {
    "tags" : {
      "im.dstype" : "gauge",
      "im.metric-type" : "ts",
      "im.name" : "process-cpu",
      "im.step" : "60",
      "name" : "3662",
      "process-name" : "sysinfo"
    },
    "value" : "0.0"
  }, {
    "tags" : {
      "im.dstype" : "gauge",
      "im.metric-type" : "ts",
      "im.name" : "process-cpu",
      "im.step" : "60",
      "name" : "3663",
      "process-name" : "statsprofiler"
    },
    "value" : "0.0"
  }, {
    "tags" : {
      "im.dstype" : "gauge",
      "im.metric-type" : "ts",
      "im.name" : "process-cpu",
      "im.step" : "60",
      "name" : "3664",
      "process-name" : "sksd"
    },
    "value" : "0.0"
  }, {
    "tags" : {
      "im.dstype" : "gauge",
      "im.metric-type" : "ts",
      "im.name" : "process-cpu",
      "im.step" : "60",
      "name" : "3665",
      "process-name" : "sensor"
    },
    "value" : "0.0"
  }, {
    "tags" : {
      "im.dstype" : "gauge",
      "im.metric-type" : "ts",
      "im.name" : "process-cpu",
      "im.step" : "60",
      "name" : "3667",
      "process-name" : "res_mgr"
    },
    "value" : "0.0"
  }, {
    "tags" : {
      "im.dstype" : "gauge",
      "im.metric-type" : "ts",
      "im.name" : "process-cpu",
      "im.step" : "60",
      "name" : "3668",
      "process-name" : "plugin"
    },
    "value" : "0.0"
  }, {
    "tags" : {
      "im.dstype" : "gauge",
      "im.metric-type" : "ts",
      "im.name" : "process-cpu",
      "im.step" : "60",
      "name" : "3669",
      "process-name" : "pltfm_config"
    },
    "value" : "0.0"
  }, {
    "tags" : {
      "im.dstype" : "gauge",
      "im.metric-type" : "ts",
      "im.name" : "process-cpu",
      "im.step" : "60",
      "name" : "3670",
      "process-name" : "plog_sup"
    },
    "value" : "0.0"
  }, {
    "tags" : {
      "im.dstype" : "gauge",
      "im.metric-type" : "ts",
      "im.name" : "process-cpu",
      "im.step" : "60",
      "name" : "3671",
      "process-name" : "pfstat"
    },
    "value" : "0.0"
  }, {
    "tags" : {
      "im.dstype" : "gauge",
      "im.metric-type" : "ts",
      "im.name" : "process-cpu",
      "im.step" : "60",
      "name" : "3672",
      "process-name" : "pacifica"
    },
    "value" : "0.0"
  }, {
    "tags" : {
      "im.dstype" : "gauge",
      "im.metric-type" : "ts",
      "im.name" : "process-cpu",
      "im.step" : "60",
      "name" : "3673",
      "process-name" : "obfl"
    },
    "value" : "0.0"
  }, {
    "tags" : {
      "im.dstype" : "gauge",
      "im.metric-type" : "ts",
      "im.name" : "process-cpu",
      "im.step" : "60",
      "name" : "3674",
      "process-name" : "nohms"
    },
    "value" : "0.0"
  }, {
    "tags" : {
      "im.dstype" : "gauge",
      "im.metric-type" : "ts",
      "im.name" : "process-cpu",
      "im.step" : "60",
      "name" : "3675",
      "process-name" : "nfp"
    },
    "value" : "0.0"
  }, {
    "tags" : {
      "im.dstype" : "gauge",
      "im.metric-type" : "ts",
      "im.name" : "process-cpu",
      "im.step" : "60",
      "name" : "3676",
      "process-name" : "mvsh"
    },
    "value" : "0.0"
  }, {
    "tags" : {
      "im.dstype" : "gauge",
      "im.metric-type" : "ts",
      "im.name" : "process-cpu",
      "im.step" : "60",
      "name" : "3677",
      "process-name" : "mcm"
    },
    "value" : "0.0"
  }, {
    "tags" : {
      "im.dstype" : "gauge",
      "im.metric-type" : "ts",
      "im.name" : "process-cpu",
      "im.step" : "60",
      "name" : "3678",
      "process-name" : "ledmgr"
    },
    "value" : "0.0"
  }, {
    "tags" : {
      "im.dstype" : "gauge",
      "im.metric-type" : "ts",
      "im.name" : "process-cpu",
      "im.step" : "60",
      "name" : "3679",
      "process-name" : "ifmgr"
    },
    "value" : "0.0"
  }, {
    "tags" : {
      "im.dstype" : "gauge",
      "im.metric-type" : "ts",
      "im.name" : "process-cpu",
      "im.step" : "60",
      "name" : "3680",
      "process-name" : "idehsd"
    },
    "value" : "0.0"
  }, {
    "tags" : {
      "im.dstype" : "gauge",
      "im.metric-type" : "ts",
      "im.name" : "process-cpu",
      "im.step" : "60",
      "name" : "3681",
      "process-name" : "evms"
    },
    "value" : "0.0"
  }, {
    "tags" : {
      "im.dstype" : "gauge",
      "im.metric-type" : "ts",
      "im.name" : "process-cpu",
      "im.step" : "60",
      "name" : "3683",
      "process-name" : "evmc"
    },
    "value" : "0.0"
  }, {
    "tags" : {
      "im.dstype" : "gauge",
      "im.metric-type" : "ts",
      "im.name" : "process-cpu",
      "im.step" : "60",
      "name" : "3684",
      "process-name" : "ethpc"
    },
    "value" : "0.0"
  }, {
    "tags" : {
      "im.dstype" : "gauge",
      "im.metric-type" : "ts",
      "im.name" : "process-cpu",
      "im.step" : "60",
      "name" : "3685",
      "process-name" : "eth_dstats"
    },
    "value" : "0.0"
  }, {
    "tags" : {
      "im.dstype" : "gauge",
      "im.metric-type" : "ts",
      "im.name" : "process-cpu",
      "im.step" : "60",
      "name" : "3686",
      "process-name" : "core-dmon"
    },
    "value" : "0.0"
  }, {
    "tags" : {
      "im.dstype" : "gauge",
      "im.metric-type" : "ts",
      "im.name" : "process-cpu",
      "im.step" : "60",
      "name" : "3688",
      "process-name" : "bootvar"
    },
    "value" : "0.0"
  }, {
    "tags" : {
      "im.dstype" : "gauge",
      "im.metric-type" : "ts",
      "im.name" : "process-cpu",
      "im.step" : "60",
      "name" : "3689",
      "process-name" : "bios_daemon"
    },
    "value" : "0.0"
  }, {
    "tags" : {
      "im.dstype" : "gauge",
      "im.metric-type" : "ts",
      "im.name" : "process-cpu",
      "im.step" : "60",
      "name" : "3690",
      "process-name" : "bigsurusd"
    },
    "value" : "0.5"
  }, {
    "tags" : {
      "im.dstype" : "gauge",
      "im.metric-type" : "ts",
      "im.name" : "process-cpu",
      "im.step" : "60",
      "name" : "3691",
      "process-name" : "bfdc"
    },
    "value" : "0.0"
  }, {
    "tags" : {
      "im.dstype" : "gauge",
      "im.metric-type" : "ts",
      "im.name" : "process-cpu",
      "im.step" : "60",
      "name" : "3692",
      "process-name" : "bcm_usd"
    },
    "value" : "0.0"
  }, {
    "tags" : {
      "im.dstype" : "gauge",
      "im.metric-type" : "ts",
      "im.name" : "process-cpu",
      "im.step" : "60",
      "name" : "3693",
      "process-name" : "athertonusd"
    },
    "value" : "0.0"
  }, {
    "tags" : {
      "im.dstype" : "gauge",
      "im.metric-type" : "ts",
      "im.name" : "process-cpu",
      "im.step" : "60",
      "name" : "3694",
      "process-name" : "ascii-cfg"
    },
    "value" : "0.0"
  }, {
    "tags" : {
      "im.dstype" : "gauge",
      "im.metric-type" : "ts",
      "im.name" : "process-cpu",
      "im.step" : "60",
      "name" : "3695",
      "process-name" : "adbm"
    },
    "value" : "0.0"
  }, {
    "tags" : {
      "im.dstype" : "gauge",
      "im.metric-type" : "ts",
      "im.name" : "process-cpu",
      "im.step" : "60",
      "name" : "3696",
      "process-name" : "securityd"
    },
    "value" : "0.0"
  }, {
    "tags" : {
      "im.dstype" : "gauge",
      "im.metric-type" : "ts",
      "im.name" : "process-cpu",
      "im.step" : "60",
      "name" : "3697",
      "process-name" : "cert_enroll"
    },
    "value" : "0.0"
  }, {
    "tags" : {
      "im.dstype" : "gauge",
      "im.metric-type" : "ts",
      "im.name" : "process-cpu",
      "im.step" : "60",
      "name" : "3698",
      "process-name" : "aaa"
    },
    "value" : "0.0"
  }, {
    "tags" : {
      "im.dstype" : "gauge",
      "im.metric-type" : "ts",
      "im.name" : "process-cpu",
      "im.step" : "60",
      "name" : "3699",
      "process-name" : "l3vm"
    },
    "value" : "0.0"
  }, {
    "tags" : {
      "im.dstype" : "gauge",
      "im.metric-type" : "ts",
      "im.name" : "process-cpu",
      "im.step" : "60",
      "name" : "37",
      "process-name" : "kblockd/0"
    },
    "value" : "0.0"
  }, {
    "tags" : {
      "im.dstype" : "gauge",
      "im.metric-type" : "ts",
      "im.name" : "process-cpu",
      "im.step" : "60",
      "name" : "3700",
      "process-name" : "urib"
    },
    "value" : "0.0"
  }, {
    "tags" : {
      "im.dstype" : "gauge",
      "im.metric-type" : "ts",
      "im.name" : "process-cpu",
      "im.step" : "60",
      "name" : "3708",
      "process-name" : "aclmgr"
    },
    "value" : "0.0"
  }, {
    "tags" : {
      "im.dstype" : "gauge",
      "im.metric-type" : "ts",
      "im.name" : "process-cpu",
      "im.step" : "60",
      "name" : "3729",
      "process-name" : "fwm"
    },
    "value" : "0.0"
  }, {
    "tags" : {
      "im.dstype" : "gauge",
      "im.metric-type" : "ts",
      "im.name" : "process-cpu",
      "im.step" : "60",
      "name" : "3730",
      "process-name" : "qd"
    },
    "value" : "0.0"
  }, {
    "tags" : {
      "im.dstype" : "gauge",
      "im.metric-type" : "ts",
      "im.name" : "process-cpu",
      "im.step" : "60",
      "name" : "3731",
      "process-name" : "statsclient"
    },
    "value" : "0.0"
  }, {
    "tags" : {
      "im.dstype" : "gauge",
      "im.metric-type" : "ts",
      "im.name" : "process-cpu",
      "im.step" : "60",
      "name" : "3733",
      "process-name" : "snmpd"
    },
    "value" : "0.0"
  }, {
    "tags" : {
      "im.dstype" : "gauge",
      "im.metric-type" : "ts",
      "im.name" : "process-cpu",
      "im.step" : "60",
      "name" : "3735",
      "process-name" : "core-client"
    },
    "value" : "0.0"
  }, {
    "tags" : {
      "im.dstype" : "gauge",
      "im.metric-type" : "ts",
      "im.name" : "process-cpu",
      "im.step" : "60",
      "name" : "3738",
      "process-name" : "adjmgr"
    },
    "value" : "0.0"
  }, {
    "tags" : {
      "im.dstype" : "gauge",
      "im.metric-type" : "ts",
      "im.name" : "process-cpu",
      "im.step" : "60",
      "name" : "3739",
      "process-name" : "u6rib"
    },
    "value" : "0.0"
  }, {
    "tags" : {
      "im.dstype" : "gauge",
      "im.metric-type" : "ts",
      "im.name" : "process-cpu",
      "im.step" : "60",
      "name" : "3753",
      "process-name" : "copp"
    },
    "value" : "0.0"
  }, {
    "tags" : {
      "im.dstype" : "gauge",
      "im.metric-type" : "ts",
      "im.name" : "process-cpu",
      "im.step" : "60",
      "name" : "3754",
      "process-name" : "npacl"
    },
    "value" : "0.0"
  }, {
    "tags" : {
      "im.dstype" : "gauge",
      "im.metric-type" : "ts",
      "im.name" : "process-cpu",
      "im.step" : "60",
      "name" : "3755",
      "process-name" : "spm"
    },
    "value" : "0.0"
  }, {
    "tags" : {
      "im.dstype" : "gauge",
      "im.metric-type" : "ts",
      "im.name" : "process-cpu",
      "im.step" : "60",
      "name" : "3775",
      "process-name" : "callhome"
    },
    "value" : "0.0"
  }, {
    "tags" : {
      "im.dstype" : "gauge",
      "im.metric-type" : "ts",
      "im.name" : "process-cpu",
      "im.step" : "60",
      "name" : "3776",
      "process-name" : "arp"
    },
    "value" : "0.2"
  }, {
    "tags" : {
      "im.dstype" : "gauge",
      "im.metric-type" : "ts",
      "im.name" : "process-cpu",
      "im.step" : "60",
      "name" : "3778",
      "process-name" : "icmpv6"
    },
    "value" : "0.0"
  }, {
    "tags" : {
      "im.dstype" : "gauge",
      "im.metric-type" : "ts",
      "im.name" : "process-cpu",
      "im.step" : "60",
      "name" : "3781",
      "process-name" : "pktmgr"
    },
    "value" : "0.7"
  }, {
    "tags" : {
      "im.dstype" : "gauge",
      "im.metric-type" : "ts",
      "im.name" : "process-cpu",
      "im.step" : "60",
      "name" : "3782",
      "process-name" : "sal"
    },
    "value" : "0.0"
  }, {
    "tags" : {
      "im.dstype" : "gauge",
      "im.metric-type" : "ts",
      "im.name" : "process-cpu",
      "im.step" : "60",
      "name" : "38",
      "process-name" : "kblockd/1"
    },
    "value" : "0.0"
  }, {
    "tags" : {
      "im.dstype" : "gauge",
      "im.metric-type" : "ts",
      "im.name" : "process-cpu",
      "im.step" : "60",
      "name" : "3832",
      "process-name" : "fex"
    },
    "value" : "0.0"
  }, {
    "tags" : {
      "im.dstype" : "gauge",
      "im.metric-type" : "ts",
      "im.name" : "process-cpu",
      "im.step" : "60",
      "name" : "3835",
      "process-name" : "lldp"
    },
    "value" : "0.0"
  }, {
    "tags" : {
      "im.dstype" : "gauge",
      "im.metric-type" : "ts",
      "im.name" : "process-cpu",
      "im.step" : "60",
      "name" : "3837",
      "process-name" : "netstack"
    },
    "value" : "0.0"
  }, {
    "tags" : {
      "im.dstype" : "gauge",
      "im.metric-type" : "ts",
      "im.name" : "process-cpu",
      "im.step" : "60",
      "name" : "3872",
      "process-name" : "radius"
    },
    "value" : "0.0"
  }, {
    "tags" : {
      "im.dstype" : "gauge",
      "im.metric-type" : "ts",
      "im.name" : "process-cpu",
      "im.step" : "60",
      "name" : "3873",
      "process-name" : "acllog"
    },
    "value" : "0.0"
  }, {
    "tags" : {
      "im.dstype" : "gauge",
      "im.metric-type" : "ts",
      "im.name" : "process-cpu",
      "im.step" : "60",
      "name" : "3874",
      "process-name" : "cdp"
    },
    "value" : "0.0"
  }, {
    "tags" : {
      "im.dstype" : "gauge",
      "im.metric-type" : "ts",
      "im.name" : "process-cpu",
      "im.step" : "60",
      "name" : "3875",
      "process-name" : "cfs"
    },
    "value" : "0.0"
  }, {
    "tags" : {
      "im.dstype" : "gauge",
      "im.metric-type" : "ts",
      "im.name" : "process-cpu",
      "im.step" : "60",
      "name" : "3876",
      "process-name" : "ecp"
    },
    "value" : "0.0"
  }, {
    "tags" : {
      "im.dstype" : "gauge",
      "im.metric-type" : "ts",
      "im.name" : "process-cpu",
      "im.step" : "60",
      "name" : "3877",
      "process-name" : "igmp"
    },
    "value" : "0.0"
  }, {
    "tags" : {
      "im.dstype" : "gauge",
      "im.metric-type" : "ts",
      "im.name" : "process-cpu",
      "im.step" : "60",
      "name" : "3878",
      "process-name" : "ip_dummy"
    },
    "value" : "0.0"
  }, {
    "tags" : {
      "im.dstype" : "gauge",
      "im.metric-type" : "ts",
      "im.name" : "process-cpu",
      "im.step" : "60",
      "name" : "3879",
      "process-name" : "ipv6_dummy"
    },
    "value" : "0.0"
  }, {
    "tags" : {
      "im.dstype" : "gauge",
      "im.metric-type" : "ts",
      "im.name" : "process-cpu",
      "im.step" : "60",
      "name" : "3880",
      "process-name" : "mrib"
    },
    "value" : "0.0"
  }, {
    "tags" : {
      "im.dstype" : "gauge",
      "im.metric-type" : "ts",
      "im.name" : "process-cpu",
      "im.step" : "60",
      "name" : "3881",
      "process-name" : "otm"
    },
    "value" : "0.0"
  }, {
    "tags" : {
      "im.dstype" : "gauge",
      "im.metric-type" : "ts",
      "im.name" : "process-cpu",
      "im.step" : "60",
      "name" : "3882",
      "process-name" : "rpm"
    },
    "value" : "0.0"
  }, {
    "tags" : {
      "im.dstype" : "gauge",
      "im.metric-type" : "ts",
      "im.name" : "process-cpu",
      "im.step" : "60",
      "name" : "3883",
      "process-name" : "tcpudp_dummy"
    },
    "value" : "0.0"
  }, {
    "tags" : {
      "im.dstype" : "gauge",
      "im.metric-type" : "ts",
      "im.name" : "process-cpu",
      "im.step" : "60",
      "name" : "39",
      "process-name" : "kblockd/2"
    },
    "value" : "0.0"
  }, {
    "tags" : {
      "im.dstype" : "gauge",
      "im.metric-type" : "ts",
      "im.name" : "process-cpu",
      "im.step" : "60",
      "name" : "3917",
      "process-name" : "vrrp-cfg"
    },
    "value" : "0.0"
  }, {
    "tags" : {
      "im.dstype" : "gauge",
      "im.metric-type" : "ts",
      "im.name" : "process-cpu",
      "im.step" : "60",
      "name" : "3927",
      "process-name" : "dcos-xinetd"
    },
    "value" : "0.0"
  }, {
    "tags" : {
      "im.dstype" : "gauge",
      "im.metric-type" : "ts",
      "im.name" : "process-cpu",
      "im.step" : "60",
      "name" : "3942",
      "process-name" : "hsrp_engine"
    },
    "value" : "0.0"
  }, {
    "tags" : {
      "im.dstype" : "gauge",
      "im.metric-type" : "ts",
      "im.name" : "process-cpu",
      "im.step" : "60",
      "name" : "3943",
      "process-name" : "mcastfwd"
    },
    "value" : "0.0"
  }, {
    "tags" : {
      "im.dstype" : "gauge",
      "im.metric-type" : "ts",
      "im.name" : "process-cpu",
      "im.step" : "60",
      "name" : "3963",
      "process-name" : "vrrp-eng"
    },
    "value" : "0.0"
  }, {
    "tags" : {
      "im.dstype" : "gauge",
      "im.metric-type" : "ts",
      "im.name" : "process-cpu",
      "im.step" : "60",
      "name" : "3979",
      "process-name" : "afm"
    },
    "value" : "0.0"
  }, {
    "tags" : {
      "im.dstype" : "gauge",
      "im.metric-type" : "ts",
      "im.name" : "process-cpu",
      "im.step" : "60",
      "name" : "3980",
      "process-name" : "m2rib"
    },
    "value" : "0.0"
  }, {
    "tags" : {
      "im.dstype" : "gauge",
      "im.metric-type" : "ts",
      "im.name" : "process-cpu",
      "im.step" : "60",
      "name" : "3981",
      "process-name" : "monitor"
    },
    "value" : "0.0"
  }, {
    "tags" : {
      "im.dstype" : "gauge",
      "im.metric-type" : "ts",
      "im.name" : "process-cpu",
      "im.step" : "60",
      "name" : "3982",
      "process-name" : "stp"
    },
    "value" : "0.2"
  }, {
    "tags" : {
      "im.dstype" : "gauge",
      "im.metric-type" : "ts",
      "im.name" : "process-cpu",
      "im.step" : "60",
      "name" : "3983",
      "process-name" : "ptplc"
    },
    "value" : "0.0"
  }, {
    "tags" : {
      "im.dstype" : "gauge",
      "im.metric-type" : "ts",
      "im.name" : "process-cpu",
      "im.step" : "60",
      "name" : "3984",
      "process-name" : "eth_port_channel"
    },
    "value" : "0.0"
  }, {
    "tags" : {
      "im.dstype" : "gauge",
      "im.metric-type" : "ts",
      "im.name" : "process-cpu",
      "im.step" : "60",
      "name" : "3985",
      "process-name" : "vlan_mgr"
    },
    "value" : "0.0"
  }, {
    "tags" : {
      "im.dstype" : "gauge",
      "im.metric-type" : "ts",
      "im.name" : "process-cpu",
      "im.step" : "60",
      "name" : "3994",
      "process-name" : "ntp"
    },
    "value" : "0.0"
  }, {
    "tags" : {
      "im.dstype" : "gauge",
      "im.metric-type" : "ts",
      "im.name" : "process-cpu",
      "im.step" : "60",
      "name" : "3995",
      "process-name" : "ipqosmgr"
    },
    "value" : "0.0"
  }, {
    "tags" : {
      "im.dstype" : "gauge",
      "im.metric-type" : "ts",
      "im.name" : "process-cpu",
      "im.step" : "60",
      "name" : "3996",
      "process-name" : "lacp"
    },
    "value" : "0.0"
  }, {
    "tags" : {
      "im.dstype" : "gauge",
      "im.metric-type" : "ts",
      "im.name" : "process-cpu",
      "im.step" : "60",
      "name" : "3998",
      "process-name" : "ethpm"
    },
    "value" : "0.0"
  }, {
    "tags" : {
      "im.dstype" : "gauge",
      "im.metric-type" : "ts",
      "im.name" : "process-cpu",
      "im.step" : "60",
      "name" : "3999",
      "process-name" : "interface-vlan"
    },
    "value" : "0.0"
  }, {
    "tags" : {
      "im.dstype" : "gauge",
      "im.metric-type" : "ts",
      "im.name" : "process-cpu",
      "im.step" : "60",
      "name" : "4",
      "process-name" : "ksoftirqd/0"
    },
    "value" : "0.0"
  }, {
    "tags" : {
      "im.dstype" : "gauge",
      "im.metric-type" : "ts",
      "im.name" : "process-cpu",
      "im.step" : "60",
      "name" : "40",
      "process-name" : "kblockd/3"
    },
    "value" : "0.0"
  }, {
    "tags" : {
      "im.dstype" : "gauge",
      "im.metric-type" : "ts",
      "im.name" : "process-cpu",
      "im.step" : "60",
      "name" : "4000",
      "process-name" : "vpc"
    },
    "value" : "0.0"
  }, {
    "tags" : {
      "im.dstype" : "gauge",
      "im.metric-type" : "ts",
      "im.name" : "process-cpu",
      "im.step" : "60",
      "name" : "4004",
      "process-name" : "btcm"
    },
    "value" : "0.0"
  }, {
    "tags" : {
      "im.dstype" : "gauge",
      "im.metric-type" : "ts",
      "im.name" : "process-cpu",
      "im.step" : "60",
      "name" : "4007",
      "process-name" : "ntpd"
    },
    "value" : "0.0"
  }, {
    "tags" : {
      "im.dstype" : "gauge",
      "im.metric-type" : "ts",
      "im.name" : "process-cpu",
      "im.step" : "60",
      "name" : "4010",
      "process-name" : "mfdm"
    },
    "value" : "0.0"
  }, {
    "tags" : {
      "im.dstype" : "gauge",
      "im.metric-type" : "ts",
      "im.name" : "process-cpu",
      "im.step" : "60",
      "name" : "4011",
      "process-name" : "ufdm"
    },
    "value" : "0.0"
  }, {
    "tags" : {
      "im.dstype" : "gauge",
      "im.metric-type" : "ts",
      "im.name" : "process-cpu",
      "im.step" : "60",
      "name" : "41",
      "process-name" : "kblockd/4"
    },
    "value" : "0.0"
  }, {
    "tags" : {
      "im.dstype" : "gauge",
      "im.metric-type" : "ts",
      "im.name" : "process-cpu",
      "im.step" : "60",
      "name" : "42",
      "process-name" : "kblockd/5"
    },
    "value" : "0.0"
  }, {
    "tags" : {
      "im.dstype" : "gauge",
      "im.metric-type" : "ts",
      "im.name" : "process-cpu",
      "im.step" : "60",
      "name" : "43",
      "process-name" : "kblockd/6"
    },
    "value" : "0.0"
  }, {
    "tags" : {
      "im.dstype" : "gauge",
      "im.metric-type" : "ts",
      "im.name" : "process-cpu",
      "im.step" : "60",
      "name" : "44",
      "process-name" : "kblockd/7"
    },
    "value" : "0.0"
  }, {
    "tags" : {
      "im.dstype" : "gauge",
      "im.metric-type" : "ts",
      "im.name" : "process-cpu",
      "im.step" : "60",
      "name" : "4455",
      "process-name" : "hooper_port_mon"
    },
    "value" : "0.0"
  }, {
    "tags" : {
      "im.dstype" : "gauge",
      "im.metric-type" : "ts",
      "im.name" : "process-cpu",
      "im.step" : "60",
      "name" : "4456",
      "process-name" : "hooper_port_mon"
    },
    "value" : "0.0"
  }, {
    "tags" : {
      "im.dstype" : "gauge",
      "im.metric-type" : "ts",
      "im.name" : "process-cpu",
      "im.step" : "60",
      "name" : "4457",
      "process-name" : "hooper_port_mon"
    },
    "value" : "0.0"
  }, {
    "tags" : {
      "im.dstype" : "gauge",
      "im.metric-type" : "ts",
      "im.name" : "process-cpu",
      "im.step" : "60",
      "name" : "4458",
      "process-name" : "hooper_port_mon"
    },
    "value" : "0.0"
  }, {
    "tags" : {
      "im.dstype" : "gauge",
      "im.metric-type" : "ts",
      "im.name" : "process-cpu",
      "im.step" : "60",
      "name" : "4459",
      "process-name" : "hooper_port_mon"
    },
    "value" : "0.0"
  }, {
    "tags" : {
      "im.dstype" : "gauge",
      "im.metric-type" : "ts",
      "im.name" : "process-cpu",
      "im.step" : "60",
      "name" : "4460",
      "process-name" : "hooper_port_mon"
    },
    "value" : "0.0"
  }, {
    "tags" : {
      "im.dstype" : "gauge",
      "im.metric-type" : "ts",
      "im.name" : "process-cpu",
      "im.step" : "60",
      "name" : "4461",
      "process-name" : "hooper_port_mon"
    },
    "value" : "0.0"
  }, {
    "tags" : {
      "im.dstype" : "gauge",
      "im.metric-type" : "ts",
      "im.name" : "process-cpu",
      "im.step" : "60",
      "name" : "4462",
      "process-name" : "hooper_port_mon"
    },
    "value" : "0.0"
  }, {
    "tags" : {
      "im.dstype" : "gauge",
      "im.metric-type" : "ts",
      "im.name" : "process-cpu",
      "im.step" : "60",
      "name" : "4463",
      "process-name" : "wdpunch_thread"
    },
    "value" : "0.0"
  }, {
    "tags" : {
      "im.dstype" : "gauge",
      "im.metric-type" : "ts",
      "im.name" : "process-cpu",
      "im.step" : "60",
      "name" : "45",
      "process-name" : "kacpid"
    },
    "value" : "0.0"
  }, {
    "tags" : {
      "im.dstype" : "gauge",
      "im.metric-type" : "ts",
      "im.name" : "process-cpu",
      "im.step" : "60",
      "name" : "4521",
      "process-name" : "getty"
    },
    "value" : "0.0"
  }, {
    "tags" : {
      "im.dstype" : "gauge",
      "im.metric-type" : "ts",
      "im.name" : "process-cpu",
      "im.step" : "60",
      "name" : "4522",
      "process-name" : "sh"
    },
    "value" : "0.0"
  }, {
    "tags" : {
      "im.dstype" : "gauge",
      "im.metric-type" : "ts",
      "im.name" : "process-cpu",
      "im.step" : "60",
      "name" : "4525",
      "process-name" : "libvirtd"
    },
    "value" : "0.0"
  }, {
    "tags" : {
      "im.dstype" : "gauge",
      "im.metric-type" : "ts",
      "im.name" : "process-cpu",
      "im.step" : "60",
      "name" : "4549",
      "process-name" : "ospf"
    },
    "value" : "0.0"
  }, {
    "tags" : {
      "im.dstype" : "gauge",
      "im.metric-type" : "ts",
      "im.name" : "process-cpu",
      "im.step" : "60",
      "name" : "46",
      "process-name" : "kacpi_notify"
    },
    "value" : "0.0"
  }, {
    "tags" : {
      "im.dstype" : "gauge",
      "im.metric-type" : "ts",
      "im.name" : "process-cpu",
      "im.step" : "60",
      "name" : "4667",
      "process-name" : "ppm"
    },
    "value" : "0.0"
  }, {
    "tags" : {
      "im.dstype" : "gauge",
      "im.metric-type" : "ts",
      "im.name" : "process-cpu",
      "im.step" : "60",
      "name" : "47",
      "process-name" : "ksuspend_usbd"
    },
    "value" : "0.0"
  }, {
    "tags" : {
      "im.dstype" : "gauge",
      "im.metric-type" : "ts",
      "im.name" : "process-cpu",
      "im.step" : "60",
      "name" : "48",
      "process-name" : "khubd"
    },
    "value" : "0.0"
  }, {
    "tags" : {
      "im.dstype" : "gauge",
      "im.metric-type" : "ts",
      "im.name" : "process-cpu",
      "im.step" : "60",
      "name" : "49",
      "process-name" : "pdflush"
    },
    "value" : "0.0"
  }, {
    "tags" : {
      "im.dstype" : "gauge",
      "im.metric-type" : "ts",
      "im.name" : "process-cpu",
      "im.step" : "60",
      "name" : "5",
      "process-name" : "watchdog/0"
    },
    "value" : "0.0"
  }, {
    "tags" : {
      "im.dstype" : "gauge",
      "im.metric-type" : "ts",
      "im.name" : "process-cpu",
      "im.step" : "60",
      "name" : "50",
      "process-name" : "pdflush"
    },
    "value" : "0.0"
  }, {
    "tags" : {
      "im.dstype" : "gauge",
      "im.metric-type" : "ts",
      "im.name" : "process-cpu",
      "im.step" : "60",
      "name" : "51",
      "process-name" : "kswapd0"
    },
    "value" : "0.0"
  }, {
    "tags" : {
      "im.dstype" : "gauge",
      "im.metric-type" : "ts",
      "im.name" : "process-cpu",
      "im.step" : "60",
      "name" : "52",
      "process-name" : "aio/0"
    },
    "value" : "0.0"
  }, {
    "tags" : {
      "im.dstype" : "gauge",
      "im.metric-type" : "ts",
      "im.name" : "process-cpu",
      "im.step" : "60",
      "name" : "53",
      "process-name" : "aio/1"
    },
    "value" : "0.0"
  }, {
    "tags" : {
      "im.dstype" : "gauge",
      "im.metric-type" : "ts",
      "im.name" : "process-cpu",
      "im.step" : "60",
      "name" : "54",
      "process-name" : "aio/2"
    },
    "value" : "0.0"
  }, {
    "tags" : {
      "im.dstype" : "gauge",
      "im.metric-type" : "ts",
      "im.name" : "process-cpu",
      "im.step" : "60",
      "name" : "55",
      "process-name" : "aio/3"
    },
    "value" : "0.0"
  }, {
    "tags" : {
      "im.dstype" : "gauge",
      "im.metric-type" : "ts",
      "im.name" : "process-cpu",
      "im.step" : "60",
      "name" : "552",
      "process-name" : "jffs2_gcd_mtd2"
    },
    "value" : "0.0"
  }, {
    "tags" : {
      "im.dstype" : "gauge",
      "im.metric-type" : "ts",
      "im.name" : "process-cpu",
      "im.step" : "60",
      "name" : "56",
      "process-name" : "aio/4"
    },
    "value" : "0.0"
  }, {
    "tags" : {
      "im.dstype" : "gauge",
      "im.metric-type" : "ts",
      "im.name" : "process-cpu",
      "im.step" : "60",
      "name" : "57",
      "process-name" : "aio/5"
    },
    "value" : "0.0"
  }, {
    "tags" : {
      "im.dstype" : "gauge",
      "im.metric-type" : "ts",
      "im.name" : "process-cpu",
      "im.step" : "60",
      "name" : "58",
      "process-name" : "aio/6"
    },
    "value" : "0.0"
  }, {
    "tags" : {
      "im.dstype" : "gauge",
      "im.metric-type" : "ts",
      "im.name" : "process-cpu",
      "im.step" : "60",
      "name" : "59",
      "process-name" : "aio/7"
    },
    "value" : "0.0"
  }, {
    "tags" : {
      "im.dstype" : "gauge",
      "im.metric-type" : "ts",
      "im.name" : "process-cpu",
      "im.step" : "60",
      "name" : "6",
      "process-name" : "migration/1"
    },
    "value" : "0.0"
  }, {
    "tags" : {
      "im.dstype" : "gauge",
      "im.metric-type" : "ts",
      "im.name" : "process-cpu",
      "im.step" : "60",
      "name" : "60",
      "process-name" : "nfsiod"
    },
    "value" : "0.0"
  }, {
    "tags" : {
      "im.dstype" : "gauge",
      "im.metric-type" : "ts",
      "im.name" : "process-cpu",
      "im.step" : "60",
      "name" : "61",
      "process-name" : "kide/0"
    },
    "value" : "0.0"
  }, {
    "tags" : {
      "im.dstype" : "gauge",
      "im.metric-type" : "ts",
      "im.name" : "process-cpu",
      "im.step" : "60",
      "name" : "62",
      "process-name" : "kide/1"
    },
    "value" : "0.0"
  }, {
    "tags" : {
      "im.dstype" : "gauge",
      "im.metric-type" : "ts",
      "im.name" : "process-cpu",
      "im.step" : "60",
      "name" : "63",
      "process-name" : "kide/2"
    },
    "value" : "0.0"
  }, {
    "tags" : {
      "im.dstype" : "gauge",
      "im.metric-type" : "ts",
      "im.name" : "process-cpu",
      "im.step" : "60",
      "name" : "6316",
      "process-name" : "kauditd"
    },
    "value" : "0.0"
  }, {
    "tags" : {
      "im.dstype" : "gauge",
      "im.metric-type" : "ts",
      "im.name" : "process-cpu",
      "im.step" : "60",
      "name" : "6370",
      "process-name" : "ppm"
    },
    "value" : "0.0"
  }, {
    "tags" : {
      "im.dstype" : "gauge",
      "im.metric-type" : "ts",
      "im.name" : "process-cpu",
      "im.step" : "60",
      "name" : "64",
      "process-name" : "kide/3"
    },
    "value" : "0.0"
  }, {
    "tags" : {
      "im.dstype" : "gauge",
      "im.metric-type" : "ts",
      "im.name" : "process-cpu",
      "im.step" : "60",
      "name" : "6418",
      "process-name" : "ppm"
    },
    "value" : "0.0"
  }, {
    "tags" : {
      "im.dstype" : "gauge",
      "im.metric-type" : "ts",
      "im.name" : "process-cpu",
      "im.step" : "60",
      "name" : "65",
      "process-name" : "kide/4"
    },
    "value" : "0.0"
  }, {
    "tags" : {
      "im.dstype" : "gauge",
      "im.metric-type" : "ts",
      "im.name" : "process-cpu",
      "im.step" : "60",
      "name" : "66",
      "process-name" : "kide/5"
    },
    "value" : "0.0"
  }, {
    "tags" : {
      "im.dstype" : "gauge",
      "im.metric-type" : "ts",
      "im.name" : "process-cpu",
      "im.step" : "60",
      "name" : "67",
      "process-name" : "kide/6"
    },
    "value" : "0.0"
  }, {
    "tags" : {
      "im.dstype" : "gauge",
      "im.metric-type" : "ts",
      "im.name" : "process-cpu",
      "im.step" : "60",
      "name" : "68",
      "process-name" : "kide/7"
    },
    "value" : "0.0"
  }, {
    "tags" : {
      "im.dstype" : "gauge",
      "im.metric-type" : "ts",
      "im.name" : "process-cpu",
      "im.step" : "60",
      "name" : "682",
      "process-name" : "kjournald"
    },
    "value" : "0.0"
  }, {
    "tags" : {
      "im.dstype" : "gauge",
      "im.metric-type" : "ts",
      "im.name" : "process-cpu",
      "im.step" : "60",
      "name" : "687",
      "process-name" : "kjournald"
    },
    "value" : "0.0"
  }, {
    "tags" : {
      "im.dstype" : "gauge",
      "im.metric-type" : "ts",
      "im.name" : "process-cpu",
      "im.step" : "60",
      "name" : "7",
      "process-name" : "ksoftirqd/1"
    },
    "value" : "0.0"
  }, {
    "tags" : {
      "im.dstype" : "gauge",
      "im.metric-type" : "ts",
      "im.name" : "process-cpu",
      "im.step" : "60",
      "name" : "71",
      "process-name" : "scsi_eh_0"
    },
    "value" : "0.0"
  }, {
    "tags" : {
      "im.dstype" : "gauge",
      "im.metric-type" : "ts",
      "im.name" : "process-cpu",
      "im.step" : "60",
      "name" : "72",
      "process-name" : "usb-storage"
    },
    "value" : "0.0"
  }, {
    "tags" : {
      "im.dstype" : "gauge",
      "im.metric-type" : "ts",
      "im.name" : "process-cpu",
      "im.step" : "60",
      "name" : "74",
      "process-name" : "rpciod/0"
    },
    "value" : "0.0"
  }, {
    "tags" : {
      "im.dstype" : "gauge",
      "im.metric-type" : "ts",
      "im.name" : "process-cpu",
      "im.step" : "60",
      "name" : "75",
      "process-name" : "rpciod/1"
    },
    "value" : "0.0"
  }, {
    "tags" : {
      "im.dstype" : "gauge",
      "im.metric-type" : "ts",
      "im.name" : "process-cpu",
      "im.step" : "60",
      "name" : "76",
      "process-name" : "rpciod/2"
    },
    "value" : "0.0"
  }, {
    "tags" : {
      "im.dstype" : "gauge",
      "im.metric-type" : "ts",
      "im.name" : "process-cpu",
      "im.step" : "60",
      "name" : "77",
      "process-name" : "rpciod/3"
    },
    "value" : "0.0"
  }, {
    "tags" : {
      "im.dstype" : "gauge",
      "im.metric-type" : "ts",
      "im.name" : "process-cpu",
      "im.step" : "60",
      "name" : "78",
      "process-name" : "rpciod/4"
    },
    "value" : "0.0"
  }, {
    "tags" : {
      "im.dstype" : "gauge",
      "im.metric-type" : "ts",
      "im.name" : "process-cpu",
      "im.step" : "60",
      "name" : "79",
      "process-name" : "rpciod/5"
    },
    "value" : "0.0"
  }, {
    "tags" : {
      "im.dstype" : "gauge",
      "im.metric-type" : "ts",
      "im.name" : "process-cpu",
      "im.step" : "60",
      "name" : "8",
      "process-name" : "watchdog/1"
    },
    "value" : "0.0"
  }, {
    "tags" : {
      "im.dstype" : "gauge",
      "im.metric-type" : "ts",
      "im.name" : "process-cpu",
      "im.step" : "60",
      "name" : "80",
      "process-name" : "rpciod/6"
    },
    "value" : "0.0"
  }, {
    "tags" : {
      "im.dstype" : "gauge",
      "im.metric-type" : "ts",
      "im.name" : "process-cpu",
      "im.step" : "60",
      "name" : "81",
      "process-name" : "rpciod/7"
    },
    "value" : "0.0"
  }, {
    "tags" : {
      "im.dstype" : "gauge",
      "im.metric-type" : "ts",
      "im.name" : "process-cpu",
      "im.step" : "60",
      "name" : "82",
      "process-name" : "kirqd"
    },
    "value" : "0.0"
  }, {
    "tags" : {
      "im.dstype" : "gauge",
      "im.metric-type" : "ts",
      "im.name" : "process-cpu",
      "im.step" : "60",
      "name" : "9",
      "process-name" : "migration/2"
    },
    "value" : "0.0"
  }, {
    "tags" : {
      "im.dstype" : "gauge",
      "im.metric-type" : "ts",
      "im.name" : "process-cpu",
      "im.step" : "60",
      "name" : "9067",
      "process-name" : "ppm"
    },
    "value" : "0.0"
  }, {
    "tags" : {
      "im.dstype" : "gauge",
      "im.metric-type" : "ts",
      "im.name" : "process-cpu",
      "im.step" : "60",
      "name" : "9078",
      "process-name" : "ppm"
    },
    "value" : "0.0"
  }, {
    "tags" : {
      "im.dstype" : "gauge",
      "im.metric-type" : "ts",
      "im.name" : "process-cpu",
      "im.step" : "60",
      "name" : "9089",
      "process-name" : "ppm"
    },
    "value" : "0.0"
  }, {
    "tags" : {
      "im.dstype" : "gauge",
      "im.metric-type" : "ts",
      "im.name" : "process-cpu",
      "im.step" : "60",
      "name" : "9100",
      "process-name" : "ppm"
    },
    "value" : "0.0"
  } ]
}
