{
  "command" : "nexus-show-processes-cpu",
  "metrics" : [ {
    "tags" : {
      "im.dstype" : "gauge",
      "im.metric-type" : "ts",
      "im.name" : "process-cpu",
      "im.step" : "60",
      "name" : "1",
      "process-name" : "init"
    },
    "value" : "0.0"
  }, {
    "tags" : {
      "im.dstype" : "gauge",
      "im.metric-type" : "ts",
      "im.name" : "process-cpu",
      "im.step" : "60",
      "name" : "10086",
      "process-name" : "gettylogin1"
    },
    "value" : "0.0"
  }, {
    "tags" : {
      "im.dstype" : "gauge",
      "im.metric-type" : "ts",
      "im.name" : "process-cpu",
      "im.step" : "60",
      "name" : "10090",
      "process-name" : "sh"
    },
    "value" : "0.0"
  }, {
    "tags" : {
      "im.dstype" : "gauge",
      "im.metric-type" : "ts",
      "im.name" : "process-cpu",
      "im.step" : "60",
      "name" : "10098",
      "process-name" : "libvirtd"
    },
    "value" : "0.0"
  }, {
    "tags" : {
      "im.dstype" : "gauge",
      "im.metric-type" : "ts",
      "im.name" : "process-cpu",
      "im.step" : "60",
      "name" : "14283",
      "process-name" : "dcos_sshd"
    },
    "value" : "0.0"
  }, {
    "tags" : {
      "im.dstype" : "gauge",
      "im.metric-type" : "ts",
      "im.name" : "process-cpu",
      "im.step" : "60",
      "name" : "14480",
      "process-name" : "vsh"
    },
    "value" : "0.0"
  }, {
    "tags" : {
      "im.dstype" : "gauge",
      "im.metric-type" : "ts",
      "im.name" : "process-cpu",
      "im.step" : "60",
      "name" : "15120",
      "process-name" : "dcos_sshd"
    },
    "value" : "0.0"
  }, {
    "tags" : {
      "im.dstype" : "gauge",
      "im.metric-type" : "ts",
      "im.name" : "process-cpu",
      "im.step" : "60",
      "name" : "15121",
      "process-name" : "vsh"
    },
    "value" : "0.0"
  }, {
    "tags" : {
      "im.dstype" : "gauge",
      "im.metric-type" : "ts",
      "im.name" : "process-cpu",
      "im.step" : "60",
      "name" : "17436",
      "process-name" : "vsh"
    },
    "value" : "0.38"
  }, {
    "tags" : {
      "im.dstype" : "gauge",
      "im.metric-type" : "ts",
      "im.name" : "process-cpu",
      "im.step" : "60",
      "name" : "24261",
      "process-name" : "dcos_sshd"
    },
    "value" : "0.0"
  }, {
    "tags" : {
      "im.dstype" : "gauge",
      "im.metric-type" : "ts",
      "im.name" : "process-cpu",
      "im.step" : "60",
      "name" : "24458",
      "process-name" : "vsh"
    },
    "value" : "0.0"
  }, {
    "tags" : {
      "im.dstype" : "gauge",
      "im.metric-type" : "ts",
      "im.name" : "process-cpu",
      "im.step" : "60",
      "name" : "3266",
      "process-name" : "portmap"
    },
    "value" : "0.0"
  }, {
    "tags" : {
      "im.dstype" : "gauge",
      "im.metric-type" : "ts",
      "im.name" : "process-cpu",
      "im.step" : "60",
      "name" : "3304",
      "process-name" : "rpc.statd"
    },
    "value" : "0.0"
  }, {
    "tags" : {
      "im.dstype" : "gauge",
      "im.metric-type" : "ts",
      "im.name" : "process-cpu",
      "im.step" : "60",
      "name" : "3314",
      "process-name" : "sysmgr"
    },
    "value" : "0.0"
  }, {
    "tags" : {
      "im.dstype" : "gauge",
      "im.metric-type" : "ts",
      "im.name" : "process-cpu",
      "im.step" : "60",
      "name" : "3865",
      "process-name" : "tftpd"
    },
    "value" : "0.0"
  }, {
    "tags" : {
      "im.dstype" : "gauge",
      "im.metric-type" : "ts",
      "im.name" : "process-cpu",
      "im.step" : "60",
      "name" : "3866",
      "process-name" : "syslogd"
    },
    "value" : "0.0"
  }, {
    "tags" : {
      "im.dstype" : "gauge",
      "im.metric-type" : "ts",
      "im.name" : "process-cpu",
      "im.step" : "60",
      "name" : "3867",
      "process-name" : "sdwrapd"
    },
    "value" : "0.0"
  }, {
    "tags" : {
      "im.dstype" : "gauge",
      "im.metric-type" : "ts",
      "im.name" : "process-cpu",
      "im.step" : "60",
      "name" : "3868",
      "process-name" : "pfm_dummy"
    },
    "value" : "0.0"
  }, {
    "tags" : {
      "im.dstype" : "gauge",
      "im.metric-type" : "ts",
      "im.name" : "process-cpu",
      "im.step" : "60",
      "name" : "3869",
      "process-name" : "platform"
    },
    "value" : "0.0"
  }, {
    "tags" : {
      "im.dstype" : "gauge",
      "im.metric-type" : "ts",
      "im.name" : "process-cpu",
      "im.step" : "60",
      "name" : "3881",
      "process-name" : "klogd"
    },
    "value" : "0.0"
  }, {
    "tags" : {
      "im.dstype" : "gauge",
      "im.metric-type" : "ts",
      "im.name" : "process-cpu",
      "im.step" : "60",
      "name" : "3885",
      "process-name" : "vshd"
    },
    "value" : "0.0"
  }, {
    "tags" : {
      "im.dstype" : "gauge",
      "im.metric-type" : "ts",
      "im.name" : "process-cpu",
      "im.step" : "60",
      "name" : "3887",
      "process-name" : "vpc_config_sync"
    },
    "value" : "0.0"
  }, {
    "tags" : {
      "im.dstype" : "gauge",
      "im.metric-type" : "ts",
      "im.name" : "process-cpu",
      "im.step" : "60",
      "name" : "3890",
      "process-name" : "session-mgr"
    },
    "value" : "0.0"
  }, {
    "tags" : {
      "im.dstype" : "gauge",
      "im.metric-type" : "ts",
      "im.name" : "process-cpu",
      "im.step" : "60",
      "name" : "3892",
      "process-name" : "pixm"
    },
    "value" : "0.0"
  }, {
    "tags" : {
      "im.dstype" : "gauge",
      "im.metric-type" : "ts",
      "im.name" : "process-cpu",
      "im.step" : "60",
      "name" : "3893",
      "process-name" : "pdsd"
    },
    "value" : "0.0"
  }, {
    "tags" : {
      "im.dstype" : "gauge",
      "im.metric-type" : "ts",
      "im.name" : "process-cpu",
      "im.step" : "60",
      "name" : "3894",
      "process-name" : "lmgrd"
    },
    "value" : "0.0"
  }, {
    "tags" : {
      "im.dstype" : "gauge",
      "im.metric-type" : "ts",
      "im.name" : "process-cpu",
      "im.step" : "60",
      "name" : "3895",
      "process-name" : "licmgr"
    },
    "value" : "0.0"
  }, {
    "tags" : {
      "im.dstype" : "gauge",
      "im.metric-type" : "ts",
      "im.name" : "process-cpu",
      "im.step" : "60",
      "name" : "3896",
      "process-name" : "fs-daemon"
    },
    "value" : "0.0"
  }, {
    "tags" : {
      "description" : "Process adjmgr is required for normal system operation",
      "im.dstype" : "gauge",
      "im.metric-type" : "ts",
      "im.name" : "process-state",
      "im.step" : "300",
      "name" : "3986",
      "process-name" : "adjmgr"
    },
    "value" : "1.0"
  }, {
    "tags" : {
      "description" : "Process arp is required for normal system operation",
      "im.dstype" : "gauge",
      "im.metric-type" : "ts",
      "im.name" : "process-state",
      "im.step" : "300",
      "name" : "4032",
      "process-name" : "arp"
    },
    "value" : "1.0"
  }, {
    "tags" : {
      "description" : "Process bootvar is required for normal system operation",
      "im.dstype" : "gauge",
      "im.metric-type" : "ts",
      "im.name" : "process-state",
      "im.step" : "300",
      "name" : "4012",
      "process-name" : "bootvar"
    },
    "value" : "1.0"
  }, {
    "tags" : {
      "description" : "Process cisco is required for normal system operation",
      "im.dstype" : "gauge",
      "im.metric-type" : "ts",
      "im.name" : "process-state",
      "im.step" : "300",
      "name" : "3907",
      "process-name" : "cisco"
    },
    "value" : "1.0"
  }, {
    "tags" : {
      "description" : "Process confcheck is required for normal system operation",
      "im.dstype" : "gauge",
      "im.metric-type" : "ts",
      "im.name" : "process-state",
      "im.step" : "300",
      "name" : "3898",
      "process-name" : "confcheck"
    },
    "value" : "1.0"
  }, {
    "tags" : {
      "description" : "Process core-dmon is required for normal system operation",
      "im.dstype" : "gauge",
      "im.metric-type" : "ts",
      "im.name" : "process-state",
      "im.step" : "300",
      "name" : "3948",
      "process-name" : "core-dmon"
    },
    "value" : "1.0"
  }, {
    "tags" : {
      "description" : "Process dcos-xinetd is required for normal system operation",
      "im.dstype" : "gauge",
      "im.metric-type" : "ts",
      "im.name" : "process-state",
      "im.step" : "300",
      "name" : "4179",
      "process-name" : "dcos-xinetd"
    },
    "value" : "1.0"
  }, {
    "tags" : {
      "description" : "Process feature-mgr is required for normal system operation",
      "im.dstype" : "gauge",
      "im.metric-type" : "ts",
      "im.name" : "process-state",
      "im.step" : "300",
      "name" : "3897",
      "process-name" : "feature-mgr"
    },
    "value" : "1.0"
  }, {
    "tags" : {
      "description" : "Process fs-daemon is required for normal system operation",
      "im.dstype" : "gauge",
      "im.metric-type" : "ts",
      "im.name" : "process-state",
      "im.step" : "300",
      "name" : "3896",
      "process-name" : "fs-daemon"
    },
    "value" : "1.0"
  }, {
    "tags" : {
      "description" : "Process ifmgr is required for normal system operation",
      "im.dstype" : "gauge",
      "im.metric-type" : "ts",
      "im.name" : "process-state",
      "im.step" : "300",
      "name" : "4015",
      "process-name" : "ifmgr"
    },
    "value" : "1.0"
  }, {
    "tags" : {
      "description" : "Process init is required for normal system operation",
      "im.dstype" : "gauge",
      "im.metric-type" : "ts",
      "im.name" : "process-state",
      "im.step" : "300",
      "name" : "1",
      "process-name" : "init"
    },
    "value" : "1.0"
  }, {
    "tags" : {
      "description" : "Process klogd is required for normal system operation",
      "im.dstype" : "gauge",
      "im.metric-type" : "ts",
      "im.name" : "process-state",
      "im.step" : "300",
      "name" : "3881",
      "process-name" : "klogd"
    },
    "value" : "1.0"
  }, {
    "tags" : {
      "description" : "Process licmgr is required for normal system operation",
      "im.dstype" : "gauge",
      "im.metric-type" : "ts",
      "im.name" : "process-state",
      "im.step" : "300",
      "name" : "3895",
      "process-name" : "licmgr"
    },
    "value" : "1.0"
  }, {
    "tags" : {
      "description" : "Process pktmgr is required for normal system operation",
      "im.dstype" : "gauge",
      "im.metric-type" : "ts",
      "im.name" : "process-state",
      "im.step" : "300",
      "name" : "4072",
      "process-name" : "pktmgr"
    },
    "value" : "1.0"
  }, {
    "tags" : {
      "description" : "Process rpc.statd is required for normal system operation",
      "im.dstype" : "gauge",
      "im.metric-type" : "ts",
      "im.name" : "process-state",
      "im.step" : "300",
      "name" : "3304",
      "process-name" : "rpc.statd"
    },
    "value" : "1.0"
  }, {
    "tags" : {
      "im.dstype" : "gauge",
      "im.metric-type" : "ts",
      "im.name" : "process-cpu",
      "im.step" : "60",
      "name" : "10221",
      "process-name" : "getty"
    },
    "value" : "0.0"
  }, {
    "tags" : {
      "description" : "Process securityd is required for normal system operation",
      "im.dstype" : "gauge",
      "im.metric-type" : "ts",
      "im.name" : "process-state",
      "im.step" : "300",
      "name" : "3952",
      "process-name" : "securityd"
    },
    "value" : "1.0"
  }, {
    "tags" : {
      "description" : "Process sysinfo is required for normal system operation",
      "im.dstype" : "gauge",
      "im.metric-type" : "ts",
      "im.name" : "process-state",
      "im.step" : "300",
      "name" : "3929",
      "process-name" : "sysinfo"
    },
    "value" : "1.0"
  }, {
    "tags" : {
      "description" : "Process syslogd is required for normal system operation",
      "im.dstype" : "gauge",
      "im.metric-type" : "ts",
      "im.name" : "process-state",
      "im.step" : "300",
      "name" : "3866",
      "process-name" : "syslogd"
    },
    "value" : "1.0"
  }, {
    "tags" : {
      "description" : "Process sysmgr is required for normal system operation",
      "im.dstype" : "gauge",
      "im.metric-type" : "ts",
      "im.name" : "process-state",
      "im.step" : "300",
      "name" : "3314",
      "process-name" : "sysmgr"
    },
    "value" : "1.0"
  }, {
    "tags" : {
      "description" : "Process ttyd is required for normal system operation",
      "im.dstype" : "gauge",
      "im.metric-type" : "ts",
      "im.name" : "process-state",
      "im.step" : "300",
      "name" : "3928",
      "process-name" : "ttyd"
    },
    "value" : "1.0"
  }, {
    "tags" : {
      "description" : "Process xinetd is required for normal system operation",
      "im.dstype" : "gauge",
      "im.metric-type" : "ts",
      "im.name" : "process-state",
      "im.step" : "300",
      "name" : "4179",
      "process-name" : "xinetd"
    },
    "value" : "1.0"
  }, {
    "tags" : {
      "im.dstype" : "gauge",
      "im.metric-type" : "ts",
      "im.name" : "process-cpu",
      "im.step" : "60",
      "name" : "17042",
      "process-name" : "dcos_sshd"
    },
    "value" : "0.38"
  }, {
    "tags" : {
      "im.dstype" : "gauge",
      "im.metric-type" : "ts",
      "im.name" : "process-cpu",
      "im.step" : "60",
      "name" : "23417",
      "process-name" : "ospf"
    },
    "value" : "0.38"
  }, {
    "tags" : {
      "im.dstype" : "gauge",
      "im.metric-type" : "ts",
      "im.name" : "process-cpu",
      "im.step" : "60",
      "name" : "3864",
      "process-name" : "xinetd"
    },
    "value" : "0.0"
  }, {
    "tags" : {
      "im.dstype" : "gauge",
      "im.metric-type" : "ts",
      "im.name" : "process-cpu",
      "im.step" : "60",
      "name" : "3888",
      "process-name" : "smm"
    },
    "value" : "0.0"
  }, {
    "tags" : {
      "im.dstype" : "gauge",
      "im.metric-type" : "ts",
      "im.name" : "process-cpu",
      "im.step" : "60",
      "name" : "3891",
      "process-name" : "psshelper"
    },
    "value" : "0.0"
  }, {
    "tags" : {
      "im.dstype" : "gauge",
      "im.metric-type" : "ts",
      "im.name" : "process-cpu",
      "im.step" : "60",
      "name" : "3897",
      "process-name" : "feature-mgr"
    },
    "value" : "0.0"
  }, {
    "tags" : {
      "im.dstype" : "gauge",
      "im.metric-type" : "ts",
      "im.name" : "process-cpu",
      "im.step" : "60",
      "name" : "3898",
      "process-name" : "confcheck"
    },
    "value" : "0.0"
  }, {
    "tags" : {
      "im.dstype" : "gauge",
      "im.metric-type" : "ts",
      "im.name" : "process-cpu",
      "im.step" : "60",
      "name" : "3899",
      "process-name" : "capability"
    },
    "value" : "0.0"
  }, {
    "tags" : {
      "im.dstype" : "gauge",
      "im.metric-type" : "ts",
      "im.name" : "process-cpu",
      "im.step" : "60",
      "name" : "3900",
      "process-name" : "psshelper_gsvc"
    },
    "value" : "0.0"
  }, {
    "tags" : {
      "im.dstype" : "gauge",
      "im.metric-type" : "ts",
      "im.name" : "process-cpu",
      "im.step" : "60",
      "name" : "3907",
      "process-name" : "cisco"
    },
    "value" : "0.0"
  }, {
    "tags" : {
      "im.dstype" : "gauge",
      "im.metric-type" : "ts",
      "im.name" : "process-cpu",
      "im.step" : "60",
      "name" : "3911",
      "process-name" : "clis"
    },
    "value" : "0.0"
  }, {
    "tags" : {
      "im.dstype" : "gauge",
      "im.metric-type" : "ts",
      "im.name" : "process-cpu",
      "im.step" : "60",
      "name" : "3917",
      "process-name" : "port-profile"
    },
    "value" : "0.0"
  }, {
    "tags" : {
      "im.dstype" : "gauge",
      "im.metric-type" : "ts",
      "im.name" : "process-cpu",
      "im.step" : "60",
      "name" : "3924",
      "process-name" : "xmlma"
    },
    "value" : "0.0"
  }, {
    "tags" : {
      "im.dstype" : "gauge",
      "im.metric-type" : "ts",
      "im.name" : "process-cpu",
      "im.step" : "60",
      "name" : "3925",
      "process-name" : "vmm"
    },
    "value" : "0.0"
  }, {
    "tags" : {
      "im.dstype" : "gauge",
      "im.metric-type" : "ts",
      "im.name" : "process-cpu",
      "im.step" : "60",
      "name" : "3926",
      "process-name" : "vman"
    },
    "value" : "0.0"
  }, {
    "tags" : {
      "im.dstype" : "gauge",
      "im.metric-type" : "ts",
      "im.name" : "process-cpu",
      "im.step" : "60",
      "name" : "3927",
      "process-name" : "vdc_mgr"
    },
    "value" : "0.0"
  }, {
    "tags" : {
      "im.dstype" : "gauge",
      "im.metric-type" : "ts",
      "im.name" : "process-cpu",
      "im.step" : "60",
      "name" : "3928",
      "process-name" : "ttyd"
    },
    "value" : "0.0"
  }, {
    "tags" : {
      "im.dstype" : "gauge",
      "im.metric-type" : "ts",
      "im.name" : "process-cpu",
      "im.step" : "60",
      "name" : "3929",
      "process-name" : "sysinfo"
    },
    "value" : "0.58"
  }, {
    "tags" : {
      "im.dstype" : "gauge",
      "im.metric-type" : "ts",
      "im.name" : "process-cpu",
      "im.step" : "60",
      "name" : "3931",
      "process-name" : "dhcpd"
    },
    "value" : "0.0"
  }, {
    "tags" : {
      "im.dstype" : "gauge",
      "im.metric-type" : "ts",
      "im.name" : "process-cpu",
      "im.step" : "60",
      "name" : "3932",
      "process-name" : "sksd"
    },
    "value" : "0.0"
  }, {
    "tags" : {
      "im.dstype" : "gauge",
      "im.metric-type" : "ts",
      "im.name" : "process-cpu",
      "im.step" : "60",
      "name" : "3935",
      "process-name" : "res_mgr"
    },
    "value" : "0.0"
  }, {
    "tags" : {
      "im.dstype" : "gauge",
      "im.metric-type" : "ts",
      "im.name" : "process-cpu",
      "im.step" : "60",
      "name" : "3936",
      "process-name" : "plugin"
    },
    "value" : "0.0"
  }, {
    "tags" : {
      "im.dstype" : "gauge",
      "im.metric-type" : "ts",
      "im.name" : "process-cpu",
      "im.step" : "60",
      "name" : "3937",
      "process-name" : "patch-installer"
    },
    "value" : "0.0"
  }, {
    "tags" : {
      "im.dstype" : "gauge",
      "im.metric-type" : "ts",
      "im.name" : "process-cpu",
      "im.step" : "60",
      "name" : "3938",
      "process-name" : "mvsh"
    },
    "value" : "0.0"
  }, {
    "tags" : {
      "im.dstype" : "gauge",
      "im.metric-type" : "ts",
      "im.name" : "process-cpu",
      "im.step" : "60",
      "name" : "3939",
      "process-name" : "mping_server"
    },
    "value" : "0.0"
  }, {
    "tags" : {
      "im.dstype" : "gauge",
      "im.metric-type" : "ts",
      "im.name" : "process-cpu",
      "im.step" : "60",
      "name" : "3940",
      "process-name" : "module"
    },
    "value" : "0.0"
  }, {
    "tags" : {
      "im.dstype" : "gauge",
      "im.metric-type" : "ts",
      "im.name" : "process-cpu",
      "im.step" : "60",
      "name" : "3943",
      "process-name" : "evms"
    },
    "value" : "0.0"
  }, {
    "tags" : {
      "im.dstype" : "gauge",
      "im.metric-type" : "ts",
      "im.name" : "process-cpu",
      "im.step" : "60",
      "name" : "3946",
      "process-name" : "evmc"
    },
    "value" : "0.0"
  }, {
    "tags" : {
      "im.dstype" : "gauge",
      "im.metric-type" : "ts",
      "im.name" : "process-cpu",
      "im.step" : "60",
      "name" : "3947",
      "process-name" : "crdcfg_server"
    },
    "value" : "0.0"
  }, {
    "tags" : {
      "im.dstype" : "gauge",
      "im.metric-type" : "ts",
      "im.name" : "process-cpu",
      "im.step" : "60",
      "name" : "3948",
      "process-name" : "core-dmon"
    },
    "value" : "0.0"
  }, {
    "tags" : {
      "im.dstype" : "gauge",
      "im.metric-type" : "ts",
      "im.name" : "process-cpu",
      "im.step" : "60",
      "name" : "3949",
      "process-name" : "cli_acl"
    },
    "value" : "0.0"
  }, {
    "tags" : {
      "im.dstype" : "gauge",
      "im.metric-type" : "ts",
      "im.name" : "process-cpu",
      "im.step" : "60",
      "name" : "3950",
      "process-name" : "ascii-cfg"
    },
    "value" : "0.0"
  }, {
    "tags" : {
      "im.dstype" : "gauge",
      "im.metric-type" : "ts",
      "im.name" : "process-cpu",
      "im.step" : "60",
      "name" : "3952",
      "process-name" : "securityd"
    },
    "value" : "0.0"
  }, {
    "tags" : {
      "im.dstype" : "gauge",
      "im.metric-type" : "ts",
      "im.name" : "process-cpu",
      "im.step" : "60",
      "name" : "3953",
      "process-name" : "cert_enroll"
    },
    "value" : "0.0"
  }, {
    "tags" : {
      "im.dstype" : "gauge",
      "im.metric-type" : "ts",
      "im.name" : "process-cpu",
      "im.step" : "60",
      "name" : "3954",
      "process-name" : "aaa"
    },
    "value" : "0.0"
  }, {
    "tags" : {
      "im.dstype" : "gauge",
      "im.metric-type" : "ts",
      "im.name" : "process-cpu",
      "im.step" : "60",
      "name" : "3955",
      "process-name" : "l3vm"
    },
    "value" : "0.0"
  }, {
    "tags" : {
      "im.dstype" : "gauge",
      "im.metric-type" : "ts",
      "im.name" : "process-cpu",
      "im.step" : "60",
      "name" : "3956",
      "process-name" : "urib"
    },
    "value" : "0.0"
  }, {
    "tags" : {
      "im.dstype" : "gauge",
      "im.metric-type" : "ts",
      "im.name" : "process-cpu",
      "im.step" : "60",
      "name" : "3961",
      "process-name" : "aclmgr"
    },
    "value" : "0.0"
  }, {
    "tags" : {
      "im.dstype" : "gauge",
      "im.metric-type" : "ts",
      "im.name" : "process-cpu",
      "im.step" : "60",
      "name" : "3965",
      "process-name" : "ori_fwd"
    },
    "value" : "0.19"
  }, {
    "tags" : {
      "im.dstype" : "gauge",
      "im.metric-type" : "ts",
      "im.name" : "process-cpu",
      "im.step" : "60",
      "name" : "3968",
      "process-name" : "port_client"
    },
    "value" : "0.38"
  }, {
    "tags" : {
      "im.dstype" : "gauge",
      "im.metric-type" : "ts",
      "im.name" : "process-cpu",
      "im.step" : "60",
      "name" : "3970",
      "process-name" : "statsclient"
    },
    "value" : "0.0"
  }, {
    "tags" : {
      "im.dstype" : "gauge",
      "im.metric-type" : "ts",
      "im.name" : "process-cpu",
      "im.step" : "60",
      "name" : "3974",
      "process-name" : "snmpd"
    },
    "value" : "0.38"
  }, {
    "tags" : {
      "im.dstype" : "gauge",
      "im.metric-type" : "ts",
      "im.name" : "process-cpu",
      "im.step" : "60",
      "name" : "3976",
      "process-name" : "eem_policy_dir"
    },
    "value" : "0.0"
  }, {
    "tags" : {
      "im.dstype" : "gauge",
      "im.metric-type" : "ts",
      "im.name" : "process-cpu",
      "im.step" : "60",
      "name" : "3985",
      "process-name" : "npacl"
    },
    "value" : "0.0"
  }, {
    "tags" : {
      "im.dstype" : "gauge",
      "im.metric-type" : "ts",
      "im.name" : "process-cpu",
      "im.step" : "60",
      "name" : "3986",
      "process-name" : "adjmgr"
    },
    "value" : "0.19"
  }, {
    "tags" : {
      "im.dstype" : "gauge",
      "im.metric-type" : "ts",
      "im.name" : "process-cpu",
      "im.step" : "60",
      "name" : "3987",
      "process-name" : "u6rib"
    },
    "value" : "0.0"
  }, {
    "tags" : {
      "im.dstype" : "gauge",
      "im.metric-type" : "ts",
      "im.name" : "process-cpu",
      "im.step" : "60",
      "name" : "4005",
      "process-name" : "callhome"
    },
    "value" : "0.0"
  }, {
    "tags" : {
      "im.dstype" : "gauge",
      "im.metric-type" : "ts",
      "im.name" : "process-cpu",
      "im.step" : "60",
      "name" : "4009",
      "process-name" : "ExceptionLog"
    },
    "value" : "0.0"
  }, {
    "tags" : {
      "im.dstype" : "gauge",
      "im.metric-type" : "ts",
      "im.name" : "process-cpu",
      "im.step" : "60",
      "name" : "4012",
      "process-name" : "bootvar"
    },
    "value" : "0.0"
  }, {
    "tags" : {
      "im.dstype" : "gauge",
      "im.metric-type" : "ts",
      "im.name" : "process-cpu",
      "im.step" : "60",
      "name" : "4015",
      "process-name" : "ifmgr"
    },
    "value" : "0.0"
  }, {
    "tags" : {
      "im.dstype" : "gauge",
      "im.metric-type" : "ts",
      "im.name" : "process-cpu",
      "im.step" : "60",
      "name" : "4019",
      "process-name" : "tcap"
    },
    "value" : "0.0"
  }, {
    "tags" : {
      "im.dstype" : "gauge",
      "im.metric-type" : "ts",
      "im.name" : "process-cpu",
      "im.step" : "60",
      "name" : "4032",
      "process-name" : "arp"
    },
    "value" : "0.19"
  }, {
    "tags" : {
      "im.dstype" : "gauge",
      "im.metric-type" : "ts",
      "im.name" : "process-cpu",
      "im.step" : "60",
      "name" : "4037",
      "process-name" : "icmpv6"
    },
    "value" : "0.0"
  }, {
    "tags" : {
      "im.dstype" : "gauge",
      "im.metric-type" : "ts",
      "im.name" : "process-cpu",
      "im.step" : "60",
      "name" : "4070",
      "process-name" : "l2fwd"
    },
    "value" : "2.53"
  }, {
    "tags" : {
      "im.dstype" : "gauge",
      "im.metric-type" : "ts",
      "im.name" : "process-cpu",
      "im.step" : "60",
      "name" : "4072",
      "process-name" : "pktmgr"
    },
    "value" : "0.97"
  }, {
    "tags" : {
      "im.dstype" : "gauge",
      "im.metric-type" : "ts",
      "im.name" : "process-cpu",
      "im.step" : "60",
      "name" : "4091",
      "process-name" : "netstack"
    },
    "value" : "3.31"
  }, {
    "tags" : {
      "im.dstype" : "gauge",
      "im.metric-type" : "ts",
      "im.name" : "process-cpu",
      "im.step" : "60",
      "name" : "4153",
      "process-name" : "radius"
    },
    "value" : "0.0"
  }, {
    "tags" : {
      "im.dstype" : "gauge",
      "im.metric-type" : "ts",
      "im.name" : "process-cpu",
      "im.step" : "60",
      "name" : "4157",
      "process-name" : "cdp"
    },
    "value" : "0.0"
  }, {
    "tags" : {
      "im.dstype" : "gauge",
      "im.metric-type" : "ts",
      "im.name" : "process-cpu",
      "im.step" : "60",
      "name" : "4161",
      "process-name" : "cfs"
    },
    "value" : "0.19"
  }, {
    "tags" : {
      "im.dstype" : "gauge",
      "im.metric-type" : "ts",
      "im.name" : "process-cpu",
      "im.step" : "60",
      "name" : "4164",
      "process-name" : "ip_dummy"
    },
    "value" : "0.0"
  }, {
    "tags" : {
      "im.dstype" : "gauge",
      "im.metric-type" : "ts",
      "im.name" : "process-cpu",
      "im.step" : "60",
      "name" : "4166",
      "process-name" : "ipv6_dummy"
    },
    "value" : "0.0"
  }, {
    "tags" : {
      "im.dstype" : "gauge",
      "im.metric-type" : "ts",
      "im.name" : "process-cpu",
      "im.step" : "60",
      "name" : "4167",
      "process-name" : "ntp"
    },
    "value" : "0.0"
  }, {
    "tags" : {
      "im.dstype" : "gauge",
      "im.metric-type" : "ts",
      "im.name" : "process-cpu",
      "im.step" : "60",
      "name" : "4170",
      "process-name" : "otm"
    },
    "value" : "0.0"
  }, {
    "tags" : {
      "im.dstype" : "gauge",
      "im.metric-type" : "ts",
      "im.name" : "process-cpu",
      "im.step" : "60",
      "name" : "4171",
      "process-name" : "tcpudp_dummy"
    },
    "value" : "0.0"
  }, {
    "tags" : {
      "im.dstype" : "gauge",
      "im.metric-type" : "ts",
      "im.name" : "process-cpu",
      "im.step" : "60",
      "name" : "4179",
      "process-name" : "dcos-xinetd"
    },
    "value" : "0.0"
  }, {
    "tags" : {
      "im.dstype" : "gauge",
      "im.metric-type" : "ts",
      "im.name" : "process-cpu",
      "im.step" : "60",
      "name" : "4441",
      "process-name" : "ntpd"
    },
    "value" : "0.0"
  }, {
    "tags" : {
      "im.dstype" : "gauge",
      "im.metric-type" : "ts",
      "im.name" : "process-cpu",
      "im.step" : "60",
      "name" : "4975",
      "process-name" : "vlan_mgr"
    },
    "value" : "0.0"
  }, {
    "tags" : {
      "im.dstype" : "gauge",
      "im.metric-type" : "ts",
      "im.name" : "process-cpu",
      "im.step" : "60",
      "name" : "4992",
      "process-name" : "rpm"
    },
    "value" : "0.0"
  }, {
    "tags" : {
      "im.dstype" : "gauge",
      "im.metric-type" : "ts",
      "im.name" : "process-cpu",
      "im.step" : "60",
      "name" : "4993",
      "process-name" : "pltfm_config"
    },
    "value" : "0.0"
  }, {
    "tags" : {
      "im.dstype" : "gauge",
      "im.metric-type" : "ts",
      "im.name" : "process-cpu",
      "im.step" : "60",
      "name" : "4994",
      "process-name" : "plsm"
    },
    "value" : "0.0"
  }, {
    "tags" : {
      "im.dstype" : "gauge",
      "im.metric-type" : "ts",
      "im.name" : "process-cpu",
      "im.step" : "60",
      "name" : "4997",
      "process-name" : "plcmgr"
    },
    "value" : "0.0"
  }, {
    "tags" : {
      "im.dstype" : "gauge",
      "im.metric-type" : "ts",
      "im.name" : "process-cpu",
      "im.step" : "60",
      "name" : "5000",
      "process-name" : "pixmc"
    },
    "value" : "0.0"
  }, {
    "tags" : {
      "im.dstype" : "gauge",
      "im.metric-type" : "ts",
      "im.name" : "process-cpu",
      "im.step" : "60",
      "name" : "5001",
      "process-name" : "pfstat"
    },
    "value" : "0.0"
  }, {
    "tags" : {
      "im.dstype" : "gauge",
      "im.metric-type" : "ts",
      "im.name" : "process-cpu",
      "im.step" : "60",
      "name" : "5007",
      "process-name" : "mtm"
    },
    "value" : "0.0"
  }, {
    "tags" : {
      "im.dstype" : "gauge",
      "im.metric-type" : "ts",
      "im.name" : "process-cpu",
      "im.step" : "60",
      "name" : "5013",
      "process-name" : "lim"
    },
    "value" : "0.0"
  }, {
    "tags" : {
      "im.dstype" : "gauge",
      "im.metric-type" : "ts",
      "im.name" : "process-cpu",
      "im.step" : "60",
      "name" : "5014",
      "process-name" : "l2sfe"
    },
    "value" : "0.0"
  }, {
    "tags" : {
      "im.dstype" : "gauge",
      "im.metric-type" : "ts",
      "im.name" : "process-cpu",
      "im.step" : "60",
      "name" : "5017",
      "process-name" : "l2rib"
    },
    "value" : "0.0"
  }, {
    "tags" : {
      "im.dstype" : "gauge",
      "im.metric-type" : "ts",
      "im.name" : "process-cpu",
      "im.step" : "60",
      "name" : "5020",
      "process-name" : "l2fm_ut"
    },
    "value" : "0.0"
  }, {
    "tags" : {
      "im.dstype" : "gauge",
      "im.metric-type" : "ts",
      "im.name" : "process-cpu",
      "im.step" : "60",
      "name" : "5023",
      "process-name" : "l2fm"
    },
    "value" : "0.0"
  }, {
    "tags" : {
      "im.dstype" : "gauge",
      "im.metric-type" : "ts",
      "im.name" : "process-cpu",
      "im.step" : "60",
      "name" : "5026",
      "process-name" : "igmp"
    },
    "value" : "0.0"
  }, {
    "tags" : {
      "im.dstype" : "gauge",
      "im.metric-type" : "ts",
      "im.name" : "process-cpu",
      "im.step" : "60",
      "name" : "5029",
      "process-name" : "eth_port_channel"
    },
    "value" : "0.0"
  }, {
    "tags" : {
      "im.dstype" : "gauge",
      "im.metric-type" : "ts",
      "im.name" : "process-cpu",
      "im.step" : "60",
      "name" : "5032",
      "process-name" : "eltm"
    },
    "value" : "0.0"
  }, {
    "tags" : {
      "im.dstype" : "gauge",
      "im.metric-type" : "ts",
      "im.name" : "process-cpu",
      "im.step" : "60",
      "name" : "5035",
      "process-name" : "elo_io"
    },
    "value" : "0.0"
  }, {
    "tags" : {
      "im.dstype" : "gauge",
      "im.metric-type" : "ts",
      "im.name" : "process-cpu",
      "im.step" : "60",
      "name" : "5040",
      "process-name" : "ecp"
    },
    "value" : "0.38"
  }, {
    "tags" : {
      "im.dstype" : "gauge",
      "im.metric-type" : "ts",
      "im.name" : "process-cpu",
      "im.step" : "60",
      "name" : "5041",
      "process-name" : "dftm"
    },
    "value" : "0.0"
  }, {
    "tags" : {
      "im.dstype" : "gauge",
      "im.metric-type" : "ts",
      "im.name" : "process-cpu",
      "im.step" : "60",
      "name" : "5047",
      "process-name" : "bfdc"
    },
    "value" : "0.0"
  }, {
    "tags" : {
      "im.dstype" : "gauge",
      "im.metric-type" : "ts",
      "im.name" : "process-cpu",
      "im.step" : "60",
      "name" : "5050",
      "process-name" : "adbm"
    },
    "value" : "0.0"
  }, {
    "tags" : {
      "im.dstype" : "gauge",
      "im.metric-type" : "ts",
      "im.name" : "process-cpu",
      "im.step" : "60",
      "name" : "5125",
      "process-name" : "ethpm"
    },
    "value" : "0.0"
  }, {
    "tags" : {
      "im.dstype" : "gauge",
      "im.metric-type" : "ts",
      "im.name" : "process-cpu",
      "im.step" : "60",
      "name" : "5174",
      "process-name" : "stp"
    },
    "value" : "0.0"
  }, {
    "tags" : {
      "im.dstype" : "gauge",
      "im.metric-type" : "ts",
      "im.name" : "process-cpu",
      "im.step" : "60",
      "name" : "5531",
      "process-name" : "copp"
    },
    "value" : "0.0"
  }, {
    "tags" : {
      "im.dstype" : "gauge",
      "im.metric-type" : "ts",
      "im.name" : "process-cpu",
      "im.step" : "60",
      "name" : "5870",
      "process-name" : "u2"
    },
    "value" : "0.0"
  }, {
    "tags" : {
      "im.dstype" : "gauge",
      "im.metric-type" : "ts",
      "im.name" : "process-cpu",
      "im.step" : "60",
      "name" : "5871",
      "process-name" : "spm"
    },
    "value" : "0.0"
  }, {
    "tags" : {
      "im.dstype" : "gauge",
      "im.metric-type" : "ts",
      "im.name" : "process-cpu",
      "im.step" : "60",
      "name" : "5872",
      "process-name" : "sal"
    },
    "value" : "0.0"
  }, {
    "tags" : {
      "im.dstype" : "gauge",
      "im.metric-type" : "ts",
      "im.name" : "process-cpu",
      "im.step" : "60",
      "name" : "5873",
      "process-name" : "mrib"
    },
    "value" : "0.0"
  }, {
    "tags" : {
      "im.dstype" : "gauge",
      "im.metric-type" : "ts",
      "im.name" : "process-cpu",
      "im.step" : "60",
      "name" : "5874",
      "process-name" : "mfdm"
    },
    "value" : "0.0"
  }, {
    "tags" : {
      "im.dstype" : "gauge",
      "im.metric-type" : "ts",
      "im.name" : "process-cpu",
      "im.step" : "60",
      "name" : "5875",
      "process-name" : "mcm"
    },
    "value" : "0.0"
  }, {
    "tags" : {
      "im.dstype" : "gauge",
      "im.metric-type" : "ts",
      "im.name" : "process-cpu",
      "im.step" : "60",
      "name" : "5876",
      "process-name" : "m6rib"
    },
    "value" : "0.0"
  }, {
    "tags" : {
      "im.dstype" : "gauge",
      "im.metric-type" : "ts",
      "im.name" : "process-cpu",
      "im.step" : "60",
      "name" : "5877",
      "process-name" : "l2pt"
    },
    "value" : "0.0"
  }, {
    "tags" : {
      "im.dstype" : "gauge",
      "im.metric-type" : "ts",
      "im.name" : "process-cpu",
      "im.step" : "60",
      "name" : "5879",
      "process-name" : "ufdm"
    },
    "value" : "0.0"
  }, {
    "tags" : {
      "im.dstype" : "gauge",
      "im.metric-type" : "ts",
      "im.name" : "process-cpu",
      "im.step" : "60",
      "name" : "5882",
      "process-name" : "mcastfwd"
    },
    "value" : "0.0"
  }, {
    "tags" : {
      "im.dstype" : "gauge",
      "im.metric-type" : "ts",
      "im.name" : "process-cpu",
      "im.step" : "60",
      "name" : "5895",
      "process-name" : "m2rib"
    },
    "value" : "0.0"
  }, {
    "tags" : {
      "im.dstype" : "gauge",
      "im.metric-type" : "ts",
      "im.name" : "process-cpu",
      "im.step" : "60",
      "name" : "6062",
      "process-name" : "dcos_sshd"
    },
    "value" : "0.0"
  }, {
    "tags" : {
      "im.dstype" : "gauge",
      "im.metric-type" : "ts",
      "im.name" : "process-cpu",
      "im.step" : "60",
      "name" : "6162",
      "process-name" : "vsh"
    },
    "value" : "0.0"
  }, {
    "tags" : {
      "im.dstype" : "gauge",
      "im.metric-type" : "ts",
      "im.name" : "process-cpu",
      "im.step" : "60",
      "name" : "6572",
      "process-name" : "vrrp-cfg"
    },
    "value" : "0.0"
  }, {
    "tags" : {
      "im.dstype" : "gauge",
      "im.metric-type" : "ts",
      "im.name" : "process-cpu",
      "im.step" : "60",
      "name" : "6573",
      "process-name" : "vrrp-eng"
    },
    "value" : "0.0"
  }, {
    "tags" : {
      "im.dstype" : "gauge",
      "im.metric-type" : "ts",
      "im.name" : "process-cpu",
      "im.step" : "60",
      "name" : "7143",
      "process-name" : "interface-vlan"
    },
    "value" : "0.0"
  }, {
    "tags" : {
      "im.dstype" : "gauge",
      "im.metric-type" : "ts",
      "im.name" : "process-cpu",
      "im.step" : "60",
      "name" : "7145",
      "process-name" : "hsrp_engine"
    },
    "value" : "0.0"
  }, {
    "tags" : {
      "im.dstype" : "gauge",
      "im.metric-type" : "ts",
      "im.name" : "process-cpu",
      "im.step" : "60",
      "name" : "7147",
      "process-name" : "vpc"
    },
    "value" : "0.0"
  }, {
    "tags" : {
      "im.dstype" : "gauge",
      "im.metric-type" : "ts",
      "im.name" : "process-cpu",
      "im.step" : "60",
      "name" : "7150",
      "process-name" : "lldp"
    },
    "value" : "0.0"
  }, {
    "tags" : {
      "im.dstype" : "gauge",
      "im.metric-type" : "ts",
      "im.name" : "process-cpu",
      "im.step" : "60",
      "name" : "8483",
      "process-name" : "getty"
    },
    "value" : "0.0"
  } ]
}
