{
  "command" : "panos-debug-system-process-info",
  "metrics" : [ {
    "tags" : {
      "description" : "DNS Prxy",
      "im.dstype" : "gauge",
      "im.metric-type" : "ts",
      "im.name" : "process-state",
      "im.step" : "600",
      "name" : "dnsproxy"
    },
    "value" : "1.0"
  }, {
    "tags" : {
      "command" : "all_task",
      "display-name" : "Processes (CPU)",
      "im.dstype" : "gauge",
      "im.dstype.displaytype" : "percentage",
      "im.identity-tags" : "name|process-name",
      "im.metric-type" : "ts",
      "im.name" : "process-cpu",
      "im.step" : "600",
      "live-config" : "true",
      "name" : "2518",
      "process-name" : "all_task"
    },
    "value" : "4.0"
  }, {
    "tags" : {
      "command" : "authd",
      "display-name" : "Processes (CPU)",
      "im.dstype" : "gauge",
      "im.dstype.displaytype" : "percentage",
      "im.identity-tags" : "name|process-name",
      "im.metric-type" : "ts",
      "im.name" : "process-cpu",
      "im.step" : "600",
      "live-config" : "true",
      "name" : "2371",
      "process-name" : "authd"
    },
    "value" : "0.0"
  }, {
    "tags" : {
      "command" : "brdagent",
      "display-name" : "Processes (CPU)",
      "im.dstype" : "gauge",
      "im.dstype.displaytype" : "percentage",
      "im.identity-tags" : "name|process-name",
      "im.metric-type" : "ts",
      "im.name" : "process-cpu",
      "im.step" : "600",
      "live-config" : "true",
      "name" : "2062",
      "process-name" : "brdagent"
    },
    "value" : "0.0"
  }, {
    "tags" : {
      "command" : "chasd",
      "display-name" : "Processes (CPU)",
      "im.dstype" : "gauge",
      "im.dstype.displaytype" : "percentage",
      "im.identity-tags" : "name|process-name",
      "im.metric-type" : "ts",
      "im.name" : "process-cpu",
      "im.step" : "600",
      "live-config" : "true",
      "name" : "1923",
      "process-name" : "chasd"
    },
    "value" : "0.0"
  }, {
    "tags" : {
      "command" : "comm",
      "display-name" : "Processes (CPU)",
      "im.dstype" : "gauge",
      "im.dstype.displaytype" : "percentage",
      "im.identity-tags" : "name|process-name",
      "im.metric-type" : "ts",
      "im.name" : "process-cpu",
      "im.step" : "600",
      "live-config" : "true",
      "name" : "2516",
      "process-name" : "comm"
    },
    "value" : "2.0"
  }, {
    "tags" : {
      "command" : "crypto",
      "display-name" : "Processes (CPU)",
      "im.dstype" : "gauge",
      "im.dstype.displaytype" : "percentage",
      "im.identity-tags" : "name|process-name",
      "im.metric-type" : "ts",
      "im.name" : "process-cpu",
      "im.step" : "600",
      "live-config" : "true",
      "name" : "2059",
      "process-name" : "crypto"
    },
    "value" : "0.0"
  }, {
    "tags" : {
      "description" : "Captive portal server",
      "im.dstype" : "gauge",
      "im.metric-type" : "ts",
      "im.name" : "process-state",
      "im.step" : "600",
      "name" : "l3svc"
    },
    "value" : "1.0"
  }, {
    "tags" : {
      "description" : "Dynamic routing daemon",
      "im.dstype" : "gauge",
      "im.metric-type" : "ts",
      "im.name" : "process-state",
      "im.step" : "600",
      "name" : "routed"
    },
    "value" : "1.0"
  }, {
    "tags" : {
      "command" : "dagger",
      "display-name" : "Processes (CPU)",
      "im.dstype" : "gauge",
      "im.dstype.displaytype" : "percentage",
      "im.identity-tags" : "name|process-name",
      "im.metric-type" : "ts",
      "im.name" : "process-cpu",
      "im.step" : "600",
      "live-config" : "true",
      "name" : "1917",
      "process-name" : "dagger"
    },
    "value" : "0.0"
  }, {
    "tags" : {
      "command" : "devsrvr",
      "display-name" : "Processes (CPU)",
      "im.dstype" : "gauge",
      "im.dstype.displaytype" : "percentage",
      "im.identity-tags" : "name|process-name",
      "im.metric-type" : "ts",
      "im.name" : "process-cpu",
      "im.step" : "600",
      "live-config" : "true",
      "name" : "2315",
      "process-name" : "devsrvr"
    },
    "value" : "0.0"
  }, {
    "tags" : {
      "command" : "dha",
      "display-name" : "Processes (CPU)",
      "im.dstype" : "gauge",
      "im.dstype.displaytype" : "percentage",
      "im.identity-tags" : "name|process-name",
      "im.metric-type" : "ts",
      "im.name" : "process-cpu",
      "im.step" : "600",
      "live-config" : "true",
      "name" : "2611",
      "process-name" : "dha"
    },
    "value" : "0.0"
  }, {
    "tags" : {
      "description" : "Device server",
      "im.dstype" : "gauge",
      "im.metric-type" : "ts",
      "im.name" : "process-state",
      "im.step" : "600",
      "name" : "devsrvr"
    },
    "value" : "1.0"
  }, {
    "tags" : {
      "description" : "Handles authentication functionality",
      "im.dstype" : "gauge",
      "im.metric-type" : "ts",
      "im.name" : "process-state",
      "im.step" : "600",
      "name" : "authd"
    },
    "value" : "1.0"
  }, {
    "tags" : {
      "description" : "N/A",
      "im.dstype" : "gauge",
      "im.metric-type" : "ts",
      "im.name" : "process-state",
      "im.step" : "600",
      "name" : "sysd"
    },
    "value" : "1.0"
  }, {
    "tags" : {
      "description" : "Responsible for communication between the management plane and the data plane",
      "im.dstype" : "gauge",
      "im.metric-type" : "ts",
      "im.name" : "process-state",
      "im.step" : "600",
      "name" : "mprelay"
    },
    "value" : "1.0"
  }, {
    "tags" : {
      "description" : "Responsible for the health of other critical processes",
      "im.dstype" : "gauge",
      "im.metric-type" : "ts",
      "im.name" : "process-state",
      "im.step" : "600",
      "name" : "masterd"
    },
    "value" : "1.0"
  }, {
    "tags" : {
      "description" : "SNMP trap sender and agent",
      "im.dstype" : "gauge",
      "im.metric-type" : "ts",
      "im.name" : "process-state",
      "im.step" : "600",
      "name" : "snmpd"
    },
    "value" : "1.0"
  }, {
    "tags" : {
      "description" : "SSH server",
      "im.dstype" : "gauge",
      "im.metric-type" : "ts",
      "im.name" : "process-state",
      "im.step" : "600",
      "name" : "sshd"
    },
    "value" : "1.0"
  }, {
    "tags" : {
      "command" : "dhcp",
      "display-name" : "Processes (CPU)",
      "im.dstype" : "gauge",
      "im.dstype.displaytype" : "percentage",
      "im.identity-tags" : "name|process-name",
      "im.metric-type" : "ts",
      "im.name" : "process-cpu",
      "im.step" : "600",
      "live-config" : "true",
      "name" : "2367",
      "process-name" : "dhcp"
    },
    "value" : "0.0"
  }, {
    "tags" : {
      "command" : "dnsproxy",
      "display-name" : "Processes (CPU)",
      "im.dstype" : "gauge",
      "im.dstype.displaytype" : "percentage",
      "im.identity-tags" : "name|process-name",
      "im.metric-type" : "ts",
      "im.name" : "process-cpu",
      "im.step" : "600",
      "live-config" : "true",
      "name" : "2368",
      "process-name" : "dnsproxy"
    },
    "value" : "0.0"
  }, {
    "tags" : {
      "command" : "ha-sshd",
      "display-name" : "Processes (CPU)",
      "im.dstype" : "gauge",
      "im.dstype.displaytype" : "percentage",
      "im.identity-tags" : "name|process-name",
      "im.metric-type" : "ts",
      "im.name" : "process-cpu",
      "im.step" : "600",
      "live-config" : "true",
      "name" : "2260",
      "process-name" : "ha-sshd"
    },
    "value" : "0.0"
  }, {
    "tags" : {
      "command" : "ha_agent",
      "display-name" : "Processes (CPU)",
      "im.dstype" : "gauge",
      "im.dstype.displaytype" : "percentage",
      "im.identity-tags" : "name|process-name",
      "im.metric-type" : "ts",
      "im.name" : "process-cpu",
      "im.step" : "600",
      "live-config" : "true",
      "name" : "2364",
      "process-name" : "ha_agent"
    },
    "value" : "0.0"
  }, {
    "tags" : {
      "command" : "ikemgr",
      "display-name" : "Processes (CPU)",
      "im.dstype" : "gauge",
      "im.dstype.displaytype" : "percentage",
      "im.identity-tags" : "name|process-name",
      "im.metric-type" : "ts",
      "im.name" : "process-cpu",
      "im.step" : "600",
      "live-config" : "true",
      "name" : "2358",
      "process-name" : "ikemgr"
    },
    "value" : "0.0"
  }, {
    "tags" : {
      "command" : "keymgr",
      "display-name" : "Processes (CPU)",
      "im.dstype" : "gauge",
      "im.dstype.displaytype" : "percentage",
      "im.identity-tags" : "name|process-name",
      "im.metric-type" : "ts",
      "im.name" : "process-cpu",
      "im.step" : "600",
      "live-config" : "true",
      "name" : "2361",
      "process-name" : "keymgr"
    },
    "value" : "0.0"
  }, {
    "tags" : {
      "command" : "l3svc",
      "display-name" : "Processes (CPU)",
      "im.dstype" : "gauge",
      "im.dstype.displaytype" : "percentage",
      "im.identity-tags" : "name|process-name",
      "im.metric-type" : "ts",
      "im.name" : "process-cpu",
      "im.step" : "600",
      "live-config" : "true",
      "name" : "12729",
      "process-name" : "l3svc"
    },
    "value" : "0.0"
  }, {
    "tags" : {
      "command" : "logrcvr",
      "display-name" : "Processes (CPU)",
      "im.dstype" : "gauge",
      "im.dstype.displaytype" : "percentage",
      "im.identity-tags" : "name|process-name",
      "im.metric-type" : "ts",
      "im.name" : "process-cpu",
      "im.step" : "600",
      "live-config" : "true",
      "name" : "2359",
      "process-name" : "logrcvr"
    },
    "value" : "0.0"
  }, {
    "tags" : {
      "command" : "masterd",
      "display-name" : "Processes (CPU)",
      "im.dstype" : "gauge",
      "im.dstype.displaytype" : "percentage",
      "im.identity-tags" : "name|process-name",
      "im.metric-type" : "ts",
      "im.name" : "process-cpu",
      "im.step" : "600",
      "live-config" : "true",
      "name" : "1869",
      "process-name" : "masterd"
    },
    "value" : "0.0"
  }, {
    "tags" : {
      "command" : "mgmtsrvr",
      "display-name" : "Processes (CPU)",
      "im.dstype" : "gauge",
      "im.dstype.displaytype" : "percentage",
      "im.identity-tags" : "name|process-name",
      "im.metric-type" : "ts",
      "im.name" : "process-cpu",
      "im.step" : "600",
      "live-config" : "true",
      "name" : "2352",
      "process-name" : "mgmtsrvr"
    },
    "value" : "0.0"
  }, {
    "tags" : {
      "command" : "monitor-dp",
      "display-name" : "Processes (CPU)",
      "im.dstype" : "gauge",
      "im.dstype.displaytype" : "percentage",
      "im.identity-tags" : "name|process-name",
      "im.metric-type" : "ts",
      "im.name" : "process-cpu",
      "im.step" : "600",
      "live-config" : "true",
      "name" : "2613",
      "process-name" : "monitor-dp"
    },
    "value" : "0.0"
  }, {
    "tags" : {
      "command" : "mprelay",
      "display-name" : "Processes (CPU)",
      "im.dstype" : "gauge",
      "im.dstype.displaytype" : "percentage",
      "im.identity-tags" : "name|process-name",
      "im.metric-type" : "ts",
      "im.name" : "process-cpu",
      "im.step" : "600",
      "live-config" : "true",
      "name" : "2595",
      "process-name" : "mprelay"
    },
    "value" : "0.0"
  }, {
    "tags" : {
      "command" : "pppoe",
      "display-name" : "Processes (CPU)",
      "im.dstype" : "gauge",
      "im.dstype.displaytype" : "percentage",
      "im.identity-tags" : "name|process-name",
      "im.metric-type" : "ts",
      "im.name" : "process-cpu",
      "im.step" : "600",
      "live-config" : "true",
      "name" : "2369",
      "process-name" : "pppoe"
    },
    "value" : "0.0"
  }, {
    "tags" : {
      "command" : "rasmgr",
      "display-name" : "Processes (CPU)",
      "im.dstype" : "gauge",
      "im.dstype.displaytype" : "percentage",
      "im.identity-tags" : "name|process-name",
      "im.metric-type" : "ts",
      "im.name" : "process-cpu",
      "im.step" : "600",
      "live-config" : "true",
      "name" : "2360",
      "process-name" : "rasmgr"
    },
    "value" : "0.0"
  }, {
    "tags" : {
      "command" : "routed",
      "display-name" : "Processes (CPU)",
      "im.dstype" : "gauge",
      "im.dstype.displaytype" : "percentage",
      "im.identity-tags" : "name|process-name",
      "im.metric-type" : "ts",
      "im.name" : "process-cpu",
      "im.step" : "600",
      "live-config" : "true",
      "name" : "2370",
      "process-name" : "routed"
    },
    "value" : "0.0"
  }, {
    "tags" : {
      "command" : "satd",
      "display-name" : "Processes (CPU)",
      "im.dstype" : "gauge",
      "im.dstype.displaytype" : "percentage",
      "im.identity-tags" : "name|process-name",
      "im.metric-type" : "ts",
      "im.name" : "process-cpu",
      "im.step" : "600",
      "live-config" : "true",
      "name" : "2365",
      "process-name" : "satd"
    },
    "value" : "0.0"
  }, {
    "tags" : {
      "command" : "snmpd",
      "display-name" : "Processes (CPU)",
      "im.dstype" : "gauge",
      "im.dstype.displaytype" : "percentage",
      "im.identity-tags" : "name|process-name",
      "im.metric-type" : "ts",
      "im.name" : "process-cpu",
      "im.step" : "600",
      "live-config" : "true",
      "name" : "2372",
      "process-name" : "snmpd"
    },
    "value" : "0.0"
  }, {
    "tags" : {
      "command" : "sshd",
      "display-name" : "Processes (CPU)",
      "im.dstype" : "gauge",
      "im.dstype.displaytype" : "percentage",
      "im.identity-tags" : "name|process-name",
      "im.metric-type" : "ts",
      "im.name" : "process-cpu",
      "im.step" : "600",
      "live-config" : "true",
      "name" : "22930",
      "process-name" : "sshd"
    },
    "value" : "0.0"
  }, {
    "tags" : {
      "command" : "sshd",
      "display-name" : "Processes (CPU)",
      "im.dstype" : "gauge",
      "im.dstype.displaytype" : "percentage",
      "im.identity-tags" : "name|process-name",
      "im.metric-type" : "ts",
      "im.name" : "process-cpu",
      "im.step" : "600",
      "live-config" : "true",
      "name" : "26340",
      "process-name" : "sshd"
    },
    "value" : "0.0"
  }, {
    "tags" : {
      "command" : "sslmgr",
      "display-name" : "Processes (CPU)",
      "im.dstype" : "gauge",
      "im.dstype.displaytype" : "percentage",
      "im.identity-tags" : "name|process-name",
      "im.metric-type" : "ts",
      "im.name" : "process-cpu",
      "im.step" : "600",
      "live-config" : "true",
      "name" : "2366",
      "process-name" : "sslmgr"
    },
    "value" : "0.0"
  }, {
    "tags" : {
      "command" : "sysd",
      "display-name" : "Processes (CPU)",
      "im.dstype" : "gauge",
      "im.dstype.displaytype" : "percentage",
      "im.identity-tags" : "name|process-name",
      "im.metric-type" : "ts",
      "im.name" : "process-cpu",
      "im.step" : "600",
      "live-config" : "true",
      "name" : "1897",
      "process-name" : "sysd"
    },
    "value" : "0.0"
  }, {
    "tags" : {
      "command" : "sysdagent",
      "display-name" : "Processes (CPU)",
      "im.dstype" : "gauge",
      "im.dstype.displaytype" : "percentage",
      "im.identity-tags" : "name|process-name",
      "im.metric-type" : "ts",
      "im.name" : "process-cpu",
      "im.step" : "600",
      "live-config" : "true",
      "name" : "1921",
      "process-name" : "sysdagent"
    },
    "value" : "0.0"
  }, {
    "tags" : {
      "command" : "useridd",
      "display-name" : "Processes (CPU)",
      "im.dstype" : "gauge",
      "im.dstype.displaytype" : "percentage",
      "im.identity-tags" : "name|process-name",
      "im.metric-type" : "ts",
      "im.name" : "process-cpu",
      "im.step" : "600",
      "live-config" : "true",
      "name" : "2318",
      "process-name" : "useridd"
    },
    "value" : "0.0"
  }, {
    "tags" : {
      "command" : "websrvr",
      "display-name" : "Processes (CPU)",
      "im.dstype" : "gauge",
      "im.dstype.displaytype" : "percentage",
      "im.identity-tags" : "name|process-name",
      "im.metric-type" : "ts",
      "im.name" : "process-cpu",
      "im.step" : "600",
      "live-config" : "true",
      "name" : "12734",
      "process-name" : "websrvr"
    },
    "value" : "0.0"
  }, {
    "tags" : {
      "description" : "DHCP service",
      "im.dstype" : "gauge",
      "im.metric-type" : "ts",
      "im.name" : "process-state",
      "im.step" : "600",
      "name" : "dhcp"
    },
    "value" : "1.0"
  }, {
    "tags" : {
      "description" : "Hardware monitor",
      "im.dstype" : "gauge",
      "im.metric-type" : "ts",
      "im.name" : "process-state",
      "im.step" : "600",
      "name" : "ehmon"
    },
    "value" : "1.0"
  }, {
    "tags" : {
      "description" : "High-availability SSH connection",
      "im.dstype" : "gauge",
      "im.metric-type" : "ts",
      "im.name" : "process-state",
      "im.step" : "600",
      "name" : "ha-sshd"
    },
    "value" : "1.0"
  }, {
    "tags" : {
      "command" : "ehmon",
      "display-name" : "Processes (CPU)",
      "im.dstype" : "gauge",
      "im.dstype.displaytype" : "percentage",
      "im.identity-tags" : "name|process-name",
      "im.metric-type" : "ts",
      "im.name" : "process-cpu",
      "im.step" : "600",
      "live-config" : "true",
      "name" : "1922",
      "process-name" : "ehmon"
    },
    "value" : "6.0"
  }, {
    "tags" : {
      "command" : "monitor",
      "display-name" : "Processes (CPU)",
      "im.dstype" : "gauge",
      "im.dstype.displaytype" : "percentage",
      "im.identity-tags" : "name|process-name",
      "im.metric-type" : "ts",
      "im.name" : "process-cpu",
      "im.step" : "600",
      "live-config" : "true",
      "name" : "1918",
      "process-name" : "monitor"
    },
    "value" : "0.0"
  }, {
    "tags" : {
      "command" : "sslvpn",
      "display-name" : "Processes (CPU)",
      "im.dstype" : "gauge",
      "im.dstype.displaytype" : "percentage",
      "im.identity-tags" : "name|process-name",
      "im.metric-type" : "ts",
      "im.name" : "process-cpu",
      "im.step" : "600",
      "live-config" : "true",
      "name" : "12739",
      "process-name" : "sslvpn"
    },
    "value" : "0.0"
  }, {
    "tags" : {
      "command" : "varrcvr",
      "display-name" : "Processes (CPU)",
      "im.dstype" : "gauge",
      "im.dstype.displaytype" : "percentage",
      "im.identity-tags" : "name|process-name",
      "im.metric-type" : "ts",
      "im.name" : "process-cpu",
      "im.step" : "600",
      "live-config" : "true",
      "name" : "2362",
      "process-name" : "varrcvr"
    },
    "value" : "0.0"
  }, {
    "tags" : {
      "description" : "Dataplane monitoring process",
      "im.dstype" : "gauge",
      "im.metric-type" : "ts",
      "im.name" : "process-state",
      "im.step" : "600",
      "name" : "monitor-dp"
    },
    "value" : "1.0"
  }, {
    "tags" : {
      "description" : "High-availability agent",
      "im.dstype" : "gauge",
      "im.metric-type" : "ts",
      "im.name" : "process-state",
      "im.step" : "600",
      "name" : "ha_agent"
    },
    "value" : "1.0"
  }, {
    "tags" : {
      "description" : "IKE Manager for IPsec tunnels",
      "im.dstype" : "gauge",
      "im.metric-type" : "ts",
      "im.name" : "process-state",
      "im.step" : "600",
      "name" : "ikemgr"
    },
    "value" : "1.0"
  }, {
    "tags" : {
      "description" : "Key Manager for IPsec tunnels",
      "im.dstype" : "gauge",
      "im.metric-type" : "ts",
      "im.name" : "process-state",
      "im.step" : "600",
      "name" : "keymgr"
    },
    "value" : "1.0"
  }, {
    "tags" : {
      "description" : "Log receiver",
      "im.dstype" : "gauge",
      "im.metric-type" : "ts",
      "im.name" : "process-state",
      "im.step" : "600",
      "name" : "logrcvr"
    },
    "value" : "1.0"
  }, {
    "tags" : {
      "description" : "Management Plane server for configuring policy device settings etc.",
      "im.dstype" : "gauge",
      "im.metric-type" : "ts",
      "im.name" : "process-state",
      "im.step" : "600",
      "name" : "mgmtsrvr"
    },
    "value" : "1.0"
  }, {
    "tags" : {
      "description" : "Mother board agent hardware monitor",
      "im.dstype" : "gauge",
      "im.metric-type" : "ts",
      "im.name" : "process-state",
      "im.step" : "600",
      "name" : "brdagent"
    },
    "value" : "1.0"
  }, {
    "tags" : {
      "description" : "N/A",
      "im.dstype" : "gauge",
      "im.metric-type" : "ts",
      "im.name" : "process-state",
      "im.step" : "600",
      "name" : "all_task"
    },
    "value" : "1.0"
  }, {
    "tags" : {
      "description" : "N/A",
      "im.dstype" : "gauge",
      "im.metric-type" : "ts",
      "im.name" : "process-state",
      "im.step" : "600",
      "name" : "chasd"
    },
    "value" : "1.0"
  }, {
    "tags" : {
      "description" : "N/A",
      "im.dstype" : "gauge",
      "im.metric-type" : "ts",
      "im.name" : "process-state",
      "im.step" : "600",
      "name" : "comm"
    },
    "value" : "1.0"
  }, {
    "tags" : {
      "description" : "N/A",
      "im.dstype" : "gauge",
      "im.metric-type" : "ts",
      "im.name" : "process-state",
      "im.step" : "600",
      "name" : "crypto"
    },
    "value" : "1.0"
  }, {
    "tags" : {
      "description" : "N/A",
      "im.dstype" : "gauge",
      "im.metric-type" : "ts",
      "im.name" : "process-state",
      "im.step" : "600",
      "name" : "dagger"
    },
    "value" : "1.0"
  }, {
    "tags" : {
      "description" : "N/A",
      "im.dstype" : "gauge",
      "im.metric-type" : "ts",
      "im.name" : "process-state",
      "im.step" : "600",
      "name" : "dha"
    },
    "value" : "1.0"
  }, {
    "tags" : {
      "description" : "N/A",
      "im.dstype" : "gauge",
      "im.metric-type" : "ts",
      "im.name" : "process-state",
      "im.step" : "600",
      "name" : "monitor"
    },
    "value" : "1.0"
  }, {
    "tags" : {
      "description" : "N/A",
      "im.dstype" : "gauge",
      "im.metric-type" : "ts",
      "im.name" : "process-state",
      "im.step" : "600",
      "name" : "satd"
    },
    "value" : "1.0"
  }, {
    "tags" : {
      "description" : "N/A",
      "im.dstype" : "gauge",
      "im.metric-type" : "ts",
      "im.name" : "process-state",
      "im.step" : "600",
      "name" : "sysdagent"
    },
    "value" : "1.0"
  }, {
    "tags" : {
      "description" : "Remote access service - GlobalProtect",
      "im.dstype" : "gauge",
      "im.metric-type" : "ts",
      "im.name" : "process-state",
      "im.step" : "600",
      "name" : "rasmgr"
    },
    "value" : "1.0"
  }, {
    "tags" : {
      "description" : "SSL VPN service",
      "im.dstype" : "gauge",
      "im.metric-type" : "ts",
      "im.name" : "process-state",
      "im.step" : "600",
      "name" : "sslvpn"
    },
    "value" : "1.0"
  }, {
    "tags" : {
      "description" : "SSL certificate manager",
      "im.dstype" : "gauge",
      "im.metric-type" : "ts",
      "im.name" : "process-state",
      "im.step" : "600",
      "name" : "sslmgr"
    },
    "value" : "1.0"
  }, {
    "tags" : {
      "description" : "User-ID agent daemon",
      "im.dstype" : "gauge",
      "im.metric-type" : "ts",
      "im.name" : "process-state",
      "im.step" : "600",
      "name" : "useridd"
    },
    "value" : "1.0"
  }, {
    "tags" : {
      "description" : "Web interface server",
      "im.dstype" : "gauge",
      "im.metric-type" : "ts",
      "im.name" : "process-state",
      "im.step" : "600",
      "name" : "websrvr"
    },
    "value" : "1.0"
  }, {
    "tags" : {
      "description" : "WildFire registration server",
      "im.dstype" : "gauge",
      "im.metric-type" : "ts",
      "im.name" : "process-state",
      "im.step" : "600",
      "name" : "varrcvr"
    },
    "value" : "1.0"
  } ]
}
