{
  "command" : "panos-show-session-info",
  "metrics" : [ {
    "tags" : {
      "display-name" : "CPS",
      "im.dstype.displaytype" : "number",
      "im.name" : "connections-per-second",
      "live-config" : "true"
    },
    "value" : "101.0"
  }, {
    "tags" : {
      "display-name" : "Sessions - Current",
      "im.dstype.displaytype" : "number",
      "im.name" : "concurrent-connections",
      "live-config" : "true"
    },
    "value" : "0.0"
  }, {
    "tags" : {
      "display-name" : "Sessions - Limit",
      "im.dstype.displaytype" : "number",
      "im.name" : "concurrent-connections-limit",
      "live-config" : "true"
    },
    "value" : "249998.0"
  } ]
}
