{
  "command" : "panos-show-protocol-bgp-peer",
  "metrics" : [ {
    "tags" : {
      "display-name" : "BGP Peers - State",
      "im.dstype.displaytype" : "state",
      "im.identity-tags" : "name",
      "im.name" : "bgp-state",
      "live-config" : "true",
      "name" : "Some other name"
    },
    "value" : "1.0"
  }, {
    "tags" : {
      "display-name" : "BGP Peers - State",
      "im.dstype.displaytype" : "state",
      "im.identity-tags" : "name",
      "im.name" : "bgp-state",
      "live-config" : "true",
      "name" : "SomeName"
    },
    "value" : "0.0"
  } ]
}
