{
  "command" : "f5-rest-mgmt-tm-sys-memory-vsx",
  "metrics" : [ {
    "tags" : {
      "display-name" : "Memory - Usage",
      "im.dstype.displaytype" : "percentage",
      "im.identity-tags" : "name",
      "im.name" : "memory-usage",
      "live-config" : "true",
      "name" : "vCMP host - tmm usage - host-id: 0",
      "resource-metric" : "true"
    },
    "value" : "35.21"
  }, {
    "tags" : {
      "im.dstype.displaytype" : "kilobytes",
      "im.name" : "memory-free-kbytes",
      "name" : "host-id: 0 type: swap"
    },
    "value" : "5368710.0"
  }, {
    "tags" : {
      "im.dstype.displaytype" : "kilobytes",
      "im.name" : "memory-free-kbytes",
      "name" : "host-id: 0 type: tmm"
    },
    "value" : "279902.0"
  }, {
    "tags" : {
      "im.dstype.displaytype" : "kilobytes",
      "im.name" : "memory-total-kbytes",
      "name" : "host-id: 0 type: other"
    },
    "value" : "5.0289E7"
  }, {
    "tags" : {
      "display-name" : "Memory - Usage",
      "im.dstype.displaytype" : "percentage",
      "im.identity-tags" : "name",
      "im.name" : "memory-usage",
      "live-config" : "true",
      "name" : "vCMP host - other usage - host-id: 0"
    },
    "value" : "94.7461"
  }, {
    "tags" : {
      "display-name" : "Memory - Usage",
      "im.dstype.displaytype" : "percentage",
      "im.identity-tags" : "name",
      "im.name" : "memory-usage",
      "live-config" : "true",
      "name" : "vCMP host - swap usage - host-id: 0 type: swap"
    },
    "value" : "0.0"
  }, {
    "tags" : {
      "display-name" : "Memory - Usage",
      "im.dstype.displaytype" : "percentage",
      "im.identity-tags" : "name",
      "im.name" : "memory-usage",
      "live-config" : "true",
      "name" : "vCMP host - total usage - host-id: 0"
    },
    "value" : "94.239"
  }, {
    "tags" : {
      "im.dstype.displaytype" : "kilobytes",
      "im.name" : "memory-free-kbytes",
      "name" : "host-id: 0 type: other"
    },
    "value" : "2642140.0"
  }, {
    "tags" : {
      "im.dstype.displaytype" : "kilobytes",
      "im.name" : "memory-free-kbytes",
      "name" : "host-id: 0 type: total"
    },
    "value" : "2922040.0"
  }, {
    "tags" : {
      "im.dstype.displaytype" : "kilobytes",
      "im.name" : "memory-total-kbytes",
      "name" : "host-id: 0 type: swap"
    },
    "value" : "5368710.0"
  }, {
    "tags" : {
      "im.dstype.displaytype" : "kilobytes",
      "im.name" : "memory-total-kbytes",
      "name" : "host-id: 0 type: tmm"
    },
    "value" : "432013.0"
  }, {
    "tags" : {
      "im.dstype.displaytype" : "kilobytes",
      "im.name" : "memory-total-kbytes",
      "name" : "host-id: 0 type: total"
    },
    "value" : "5.0721E7"
  } ]
}
