{
  "command" : "f5-rest-mgmt-tm-sys-ha-status",
  "metrics" : [ {
    "tags" : {
      "description" : "Controls failover for redundant systems",
      "ha-feature" : "daemon-heartbeat",
      "im.dstype.displaytype" : "state",
      "im.name" : "process-state",
      "parentprocess" : "sod",
      "process-name" : "sod"
    },
    "value" : "1.0"
  }, {
    "tags" : {
      "description" : "Controls failover for redundant systems",
      "ha-feature" : "forced-offline",
      "im.dstype.displaytype" : "state",
      "im.name" : "process-state",
      "parentprocess" : "sod",
      "process-name" : "sod"
    },
    "value" : "1.0"
  }, {
    "tags" : {
      "description" : "Controls failover for redundant systems",
      "ha-feature" : "hardware-failover",
      "im.dstype.displaytype" : "state",
      "im.name" : "process-state",
      "parentprocess" : "sod",
      "process-name" : "sod"
    },
    "value" : "1.0"
  }, {
    "tags" : {
      "description" : "Controls failover for redundant systems",
      "ha-feature" : "reboot-request",
      "im.dstype.displaytype" : "state",
      "im.name" : "process-state",
      "parentprocess" : "sod",
      "process-name" : "sod"
    },
    "value" : "1.0"
  }, {
    "tags" : {
      "description" : "Controls health monitoring",
      "ha-feature" : "daemon-heartbeat",
      "im.dstype.displaytype" : "state",
      "im.name" : "process-state",
      "parentprocess" : "bigd",
      "process-name" : "bigd"
    },
    "value" : "1.0"
  }, {
    "tags" : {
      "description" : "Controls the BIG-IP switch hardware",
      "ha-feature" : "daemon-heartbeat",
      "im.dstype.displaytype" : "state",
      "im.name" : "process-state",
      "parentprocess" : "bcm56xxd",
      "process-name" : "bcm56xxd"
    },
    "value" : "1.0"
  }, {
    "tags" : {
      "description" : "Controls the BIG-IP switch hardware",
      "ha-feature" : "proc-run",
      "im.dstype.displaytype" : "state",
      "im.name" : "process-state",
      "parentprocess" : "sod",
      "process-name" : "bcm56xxd"
    },
    "value" : "1.0"
  }, {
    "tags" : {
      "description" : "Known as the Master Control Program. Controls messaging and configuration",
      "ha-feature" : "daemon-heartbeat",
      "im.dstype.displaytype" : "state",
      "im.name" : "process-state",
      "parentprocess" : "mcpd",
      "process-name" : "mcpd"
    },
    "value" : "1.0"
  }, {
    "tags" : {
      "description" : "Known as the Master Control Program. Controls messaging and configuration",
      "ha-feature" : "proc-run",
      "im.dstype.displaytype" : "state",
      "im.name" : "process-state",
      "parentprocess" : "sod",
      "process-name" : "mcpd"
    },
    "value" : "1.0"
  }, {
    "tags" : {
      "description" : "Known as the Traffic Management Microkernel. Manages switch traffic",
      "ha-feature" : "compression-failsafe",
      "im.dstype.displaytype" : "state",
      "im.name" : "process-state",
      "parentprocess" : "tmm",
      "process-name" : "tmm0"
    },
    "value" : "0.0"
  }, {
    "tags" : {
      "description" : "Known as the Traffic Management Microkernel. Manages switch traffic",
      "ha-feature" : "daemon-heartbeat",
      "im.dstype.displaytype" : "state",
      "im.name" : "process-state",
      "parentprocess" : "tmm",
      "process-name" : "tmm"
    },
    "value" : "1.0"
  }, {
    "tags" : {
      "description" : "Known as the Traffic Management Microkernel. Manages switch traffic",
      "ha-feature" : "nic-failsafe",
      "im.dstype.displaytype" : "state",
      "im.name" : "process-state",
      "parentprocess" : "tmm",
      "process-name" : "tmm"
    },
    "value" : "1.0"
  }, {
    "tags" : {
      "description" : "Known as the Traffic Management Microkernel. Manages switch traffic",
      "ha-feature" : "proc-run",
      "im.dstype.displaytype" : "state",
      "im.name" : "process-state",
      "parentprocess" : "sod",
      "process-name" : "tmm"
    },
    "value" : "1.0"
  }, {
    "tags" : {
      "description" : "Known as the Traffic Management Microkernel. Manages switch traffic",
      "ha-feature" : "ready-for-world",
      "im.dstype.displaytype" : "state",
      "im.name" : "process-state",
      "parentprocess" : "tmm",
      "process-name" : "tmm"
    },
    "value" : "1.0"
  }, {
    "tags" : {
      "description" : "Known as the Traffic Management Microkernel. Manages switch traffic",
      "ha-feature" : "tmm-detect-fail",
      "im.dstype.displaytype" : "state",
      "im.name" : "process-state",
      "parentprocess" : "tmm",
      "process-name" : "tmm"
    },
    "value" : "1.0"
  }, {
    "tags" : {
      "description" : "MySQL service used for AVR",
      "ha-feature" : "daemon-heartbeat",
      "im.dstype.displaytype" : "state",
      "im.name" : "process-state",
      "parentprocess" : "mysqlhad",
      "process-name" : "mysqlhad"
    },
    "value" : "1.0"
  }, {
    "tags" : {
      "description" : "MySQL service used for AVR",
      "ha-feature" : "mysqld-failure",
      "im.dstype.displaytype" : "state",
      "im.name" : "process-state",
      "parentprocess" : "mysqlhad",
      "process-name" : "mysqlhad"
    },
    "value" : "1.0"
  }, {
    "tags" : {
      "description" : "Provides System Network Management Protocol (SNMP) functions. Also includes the two subagents rmondsnmpd andtmsnmpd",
      "ha-feature" : "daemon-heartbeat",
      "im.dstype.displaytype" : "state",
      "im.name" : "process-state",
      "parentprocess" : "snmpd",
      "process-name" : "snmpd"
    },
    "value" : "1.0"
  }, {
    "tags" : {
      "description" : "The XML content based routing daemon provides document parsing functionality for the XML profile",
      "ha-feature" : "daemon-heartbeat",
      "im.dstype.displaytype" : "state",
      "im.name" : "process-state",
      "parentprocess" : "cbrd",
      "process-name" : "cbrd"
    },
    "value" : "1.0"
  }, {
    "tags" : {
      "description" : "The chassis manager daemon implements the following HAL capabilities: platform identification synchronization with SCCP/AOM and device discovery and chassis sensor monitoring and chassis configuration (management & serial interfaces)",
      "ha-feature" : "dataplane-inoperable",
      "im.dstype.displaytype" : "state",
      "im.name" : "process-state",
      "parentprocess" : "chmand",
      "process-name" : "chmand"
    },
    "value" : "1.0"
  }, {
    "tags" : {
      "description" : "The lind process manages software installation/volume creation tasks",
      "ha-feature" : "software-update",
      "im.dstype.displaytype" : "state",
      "im.name" : "process-state",
      "parentprocess" : "lind",
      "process-name" : "lind"
    },
    "value" : "1.0"
  }, {
    "tags" : {
      "description" : "The named process is the DNS server daemon",
      "ha-feature" : "proc-run",
      "im.dstype.displaytype" : "state",
      "im.name" : "process-state",
      "parentprocess" : "runsm1_named",
      "process-name" : "named"
    },
    "value" : "1.0"
  }, {
    "tags" : {
      "description" : "The scriptd process runs application template implementation scripts when an application service is created or updated",
      "ha-feature" : "daemon-heartbeat",
      "im.dstype.displaytype" : "state",
      "im.name" : "process-state",
      "parentprocess" : "scriptd",
      "process-name" : "scriptd"
    },
    "value" : "1.0"
  }, {
    "tags" : {
      "description" : "The vcmpd process performs most of the work to create and manage guests as well as configure the virtual network",
      "ha-feature" : "daemon-heartbeat",
      "im.dstype.displaytype" : "state",
      "im.name" : "process-state",
      "parentprocess" : "vcmpd",
      "process-name" : "vcmpd"
    },
    "value" : "1.0"
  }, {
    "tags" : {
      "description" : "The watchdog process ensures that the BIG-IP system will reboot in the event of a system lock-up prompting a failover",
      "ha-feature" : "overdog-ctrl",
      "im.dstype.displaytype" : "state",
      "im.name" : "process-state",
      "parentprocess" : "mcpd",
      "process-name" : "watchdog"
    },
    "value" : "1.0"
  }, {
    "tags" : {
      "description" : "Unknown",
      "ha-feature" : "crypto-failsafe",
      "im.dstype.displaytype" : "state",
      "im.name" : "process-state",
      "parentprocess" : "tmm",
      "process-name" : "qat-crypto0-0"
    },
    "value" : "1.0"
  }, {
    "tags" : {
      "description" : "Unknown",
      "ha-feature" : "switchboard-failsafe",
      "im.dstype.displaytype" : "state",
      "im.name" : "process-state",
      "parentprocess" : "lacpd",
      "process-name" : "lacpd"
    },
    "value" : "1.0"
  }, {
    "tags" : {
      "description" : "Web Cache Communication Protocol (WCCP) process in BIG-IP AAM. The wccpd can be stopped if the WCCP feature is not in use. If wccpd is disabled the WCCP feature will not function",
      "ha-feature" : "daemon-heartbeat",
      "im.dstype.displaytype" : "state",
      "im.name" : "process-state",
      "parentprocess" : "wccpd",
      "process-name" : "wccpd"
    },
    "value" : "1.0"
  } ]
}
