{
  "command" : "f5-rest-mgmt-tm-sys-version-interrogation",
  "tags" : {
    "os.build" : "0.0.631",
    "os.name" : "BIG-IQ",
    "os.name-displayname" : "BIG-IQ",
    "os.version" : "5.1.0",
    "os.version-displayname" : "5.1.0 Final",
    "product" : "big-iq",
    "rest-api" : "true",
    "vendor" : "f5",
    "vendor-displayname" : "F5"
  }
}
