{
  "command" : "panos-request-license-info",
  "metrics" : [ {
    "tags" : {
      "display-name" : "License Expiration",
      "im.dstype.displaytype" : "date",
      "im.identity-tags" : "name",
      "im.name" : "license-expiration",
      "live-config" : "true",
      "name" : "GlobalProtect Gateway - serial: 001606056959"
    },
    "value" : "1.5504768E9"
  }, {
    "tags" : {
      "display-name" : "License Expiration",
      "im.dstype.displaytype" : "date",
      "im.identity-tags" : "name",
      "im.name" : "license-expiration",
      "live-config" : "true",
      "name" : "PAN-DB URL Filtering - serial: 001606056959"
    },
    "value" : "1.5504768E9"
  }, {
    "tags" : {
      "display-name" : "License Expiration",
      "im.dstype.displaytype" : "date",
      "im.identity-tags" : "name",
      "im.name" : "license-expiration",
      "live-config" : "true",
      "name" : "Threat Prevention - serial: 001606056959"
    },
    "value" : "1.5504768E9"
  }, {
    "tags" : {
      "display-name" : "License Expiration",
      "im.dstype.displaytype" : "date",
      "im.identity-tags" : "name",
      "im.name" : "license-expiration",
      "live-config" : "true",
      "name" : "WildFire License - serial: 001606056959"
    },
    "value" : "1.5504768E9"
  } ]
}
