{
  "command" : "compare-hwclock",
  "metrics" : [ {
    "tags" : {
      "im.dstype" : "gauge",
      "im.metric-type" : "ts",
      "im.name" : "hw-clock-difference",
      "im.step" : "600"
    },
    "value" : "0.0"
  } ]
}
