{
  "command" : "linux-dig",
  "metrics" : [ {
    "tags" : {
      "display-name" : "DNS Response Time (Average)",
      "dns-server" : "8.8.4.4",
      "im.dstype" : "gauge",
      "im.dstype.displaytype" : "number",
      "im.identity-tags" : "dns-server",
      "im.metric-type" : "ts",
      "im.name" : "dns-response-time",
      "im.step" : "60",
      "live-config" : "true"
    },
    "value" : "14.0"
  }, {
    "tags" : {
      "display-name" : "DNS Servers",
      "im.dstype" : "gauge",
      "im.dstype.displaytype" : "state",
      "im.identity-tags" : "name",
      "im.metric-type" : "ts",
      "im.name" : "dns-server-state",
      "im.step" : "600",
      "live-config" : "true",
      "name" : "1.1.1.1"
    },
    "value" : "0.0"
  }, {
    "tags" : {
      "display-name" : "DNS Response Time (Average)",
      "dns-server" : "8.8.8.8",
      "im.dstype" : "gauge",
      "im.dstype.displaytype" : "number",
      "im.identity-tags" : "dns-server",
      "im.metric-type" : "ts",
      "im.name" : "dns-response-time",
      "im.step" : "60",
      "live-config" : "true"
    },
    "value" : "2.0"
  }, {
    "tags" : {
      "display-name" : "DNS Servers",
      "im.metric-type" : "runtime",
      "im.name" : "dns-servers",
      "live-config" : "true"
    },
    "value" : [ {
      "ipaddress" : "8.8.8.8"
    }, {
      "ipaddress" : "8.8.4.4"
    }, {
      "ipaddress" : "1.1.1.1"
    } ]
  }, {
    "tags" : {
      "display-name" : "DNS Servers",
      "im.dstype" : "gauge",
      "im.dstype.displaytype" : "state",
      "im.identity-tags" : "name",
      "im.metric-type" : "ts",
      "im.name" : "dns-server-state",
      "im.step" : "600",
      "live-config" : "true",
      "name" : "8.8.4.4"
    },
    "value" : "1.0"
  }, {
    "tags" : {
      "display-name" : "DNS Servers",
      "im.dstype" : "gauge",
      "im.dstype.displaytype" : "state",
      "im.identity-tags" : "name",
      "im.metric-type" : "ts",
      "im.name" : "dns-server-state",
      "im.step" : "600",
      "live-config" : "true",
      "name" : "8.8.8.8"
    },
    "value" : "1.0"
  } ]
}
