{
  "command" : "sysctl_neigh",
  "metrics" : [ {
    "tags" : {
      "display-name" : "ARP Cache - Limit",
      "im.dstype" : "gauge",
      "im.dstype.displaytype" : "number",
      "im.metric-type" : "ts",
      "im.name" : "arp-limit",
      "im.step" : "60",
      "live-config" : "true"
    },
    "value" : "4096.0"
  } ]
}
