{
  "command" : "chkp-gaia-adlog-a-dc",
  "metrics" : [ {
    "tags" : {
      "im.dstype" : "gauge",
      "im.metric-type" : "ts",
      "im.name" : "identity-integration-connection-state",
      "im.step" : "300",
      "name" : "192.168.123.88"
    },
    "value" : "1.0"
  }, {
    "tags" : {
      "im.dstype" : "gauge",
      "im.metric-type" : "ts",
      "im.name" : "identity-integration-connection-state",
      "im.step" : "300",
      "name" : "192.168.123.89"
    },
    "value" : "0.0"
  } ]
}
