{
  "command" : "chkp-gaia-show-bgp",
  "metrics" : [ {
    "tags" : {
      "im.dstype" : "gauge",
      "im.metric-type" : "ts",
      "im.name" : "bgp-state",
      "im.step" : "300",
      "name" : "215.117.172.229"
    },
    "value" : "0.0"
  }, {
    "tags" : {
      "im.dstype" : "gauge",
      "im.metric-type" : "ts",
      "im.name" : "bgp-state",
      "im.step" : "300",
      "name" : "215.117.172.231"
    },
    "value" : "1.0"
  }, {
    "tags" : {
      "im.dstype" : "gauge",
      "im.metric-type" : "ts",
      "im.name" : "bgp-state",
      "im.step" : "300",
      "name" : "215.117.172.232"
    },
    "value" : "1.0"
  } ]
}
