{
  "command" : "chkp-os-cphaconf_show_bond",
  "metrics" : [ {
    "tags" : {
      "im.dstype" : "gauge",
      "im.metric-type" : "ts",
      "im.name" : "bond-slaves-in-use",
      "im.step" : "60",
      "name" : "bond0"
    },
    "value" : "2.0"
  }, {
    "tags" : {
      "im.dstype" : "gauge",
      "im.metric-type" : "ts",
      "im.name" : "bond-slaves-required",
      "im.step" : "60",
      "name" : "bond0"
    },
    "value" : "1.0"
  }, {
    "tags" : {
      "bond-name" : "bond0",
      "display-name" : "Bond Slave Interfaces",
      "im.dstype" : "gauge",
      "im.dstype.displaytype" : "state",
      "im.identity-tags" : "name|bond-name",
      "im.metric-type" : "ts",
      "im.name" : "bond-slave-state",
      "im.step" : "60",
      "live-config" : "true",
      "name" : "eth2"
    },
    "value" : "1.0"
  }, {
    "tags" : {
      "bond-name" : "bond0",
      "display-name" : "Bond Slave Interfaces",
      "im.dstype" : "gauge",
      "im.dstype.displaytype" : "state",
      "im.identity-tags" : "name|bond-name",
      "im.metric-type" : "ts",
      "im.name" : "bond-slave-state",
      "im.step" : "60",
      "live-config" : "true",
      "name" : "eth3"
    },
    "value" : "1.0"
  }, {
    "tags" : {
      "display-name" : "Bond Interfaces",
      "im.dstype" : "gauge",
      "im.dstype.displaytype" : "state",
      "im.identity-tags" : "name",
      "im.metric-type" : "ts",
      "im.name" : "bond-state",
      "im.step" : "60",
      "live-config" : "true",
      "name" : "bond0"
    },
    "value" : "1.0"
  } ]
}
