{
  "command" : "junos-show-route-protocol-direct-terse",
  "metrics" : [ {
    "tags" : {
      "im.metric-type" : "runtime",
      "im.name" : "connected-networks-table"
    },
    "value" : [ {
      "mask" : "32",
      "table-name" : "R4.inet.0:",
      "network" : "4.4.4.4"
    }, {
      "network" : "10.10.10.0",
      "table-name" : "R4.inet.0:",
      "mask" : "24"
    }, {
      "network" : "40.40.40.0",
      "table-name" : "R4.inet.0:",
      "mask" : "24"
    }, {
      "network" : "1.1.1.1",
      "table-name" : "inet.0:",
      "mask" : "32"
    }, {
      "table-name" : "inet.0:",
      "mask" : "24",
      "network" : "30.30.30.0"
    }, {
      "table-name" : "inet.0:",
      "network" : "192.168.1.0",
      "mask" : "24"
    }, {
      "mask" : "32",
      "network" : "2.2.2.2",
      "table-name" : "R2.inet.0:"
    }, {
      "mask" : "24",
      "table-name" : "R2.inet.0:",
      "network" : "20.20.20.0"
    }, {
      "table-name" : "R2.inet.0:",
      "mask" : "24",
      "network" : "192.168.1.0"
    }, {
      "table-name" : "R3.inet.0:",
      "mask" : "32",
      "network" : "3.3.3.3"
    }, {
      "mask" : "24",
      "network" : "20.20.20.0",
      "table-name" : "R3.inet.0:"
    }, {
      "table-name" : "R3.inet.0:",
      "mask" : "24",
      "network" : "30.30.30.0"
    }, {
      "network" : "40.40.40.0",
      "table-name" : "R3.inet.0:",
      "mask" : "24"
    } ]
  } ]
}
