{
  "command" : "f5-tmsh-ls-etc-alternatives-tmm",
  "metrics" : [ {
    "tags" : {
      "display-name" : "TMM Debug",
      "im.dstype" : "gauge",
      "im.dstype.displaytype" : "state",
      "im.metric-type" : "ts",
      "im.name" : "debug-status",
      "im.step" : "300",
      "live-config" : "true",
      "name" : "tmm-process"
    },
    "value" : "1.0"
  } ]
}
