{
  "command" : "junos-show-chassis-cluster-information-configuration-synchronization",
  "metrics" : [ {
    "tags" : {
      "display-name" : "Configuration Synchronization State",
      "im.dstype.displaytype" : "state",
      "im.identity-tags" : "name",
      "im.name" : "cluster-config-synced",
      "live-config" : "true",
      "name" : "node0"
    },
    "value" : "1.0"
  }, {
    "tags" : {
      "display-name" : "Configuration Synchronization State",
      "im.dstype.displaytype" : "state",
      "im.identity-tags" : "name",
      "im.name" : "cluster-config-synced",
      "live-config" : "true",
      "name" : "node1"
    },
    "value" : "1.0"
  } ]
}
