{
  "command" : "junos-show-security-flow-session-summary",
  "metrics" : [ {
    "tags" : {
      "display-name" : "Sessions - Current",
      "im.dstype.displaytype" : "number",
      "im.name" : "concurrent-connections",
      "live-config" : "true"
    },
    "value" : "16.0"
  }, {
    "tags" : {
      "display-name" : "Sessions - Limit",
      "im.dstype.displaytype" : "number",
      "im.name" : "concurrent-connections-limit",
      "live-config" : "true"
    },
    "value" : "98304.0"
  } ]
}
